<?xml version="1.0" encoding="UTF-8"?>
<svg xmlns="http://www.w3.org/2000/svg" xmlns:xlink="http://www.w3.org/1999/xlink" width="28" height="28" viewBox="0 0 28 28" version="1.1">
<g id="surface1">
<path style=" stroke:none;fill-rule:nonzero;fill:rgb(74.509804%,74.509804%,74.509804%);fill-opacity:1;" d="M 13.984375 1.75 C 7.257812 1.75 1.742188 7.265625 1.742188 13.988281 C 1.742188 20.710938 7.257812 26.265625 13.984375 26.265625 C 20.707031 26.265625 26.257812 20.710938 26.257812 13.988281 C 26.257812 7.265625 20.707031 1.75 13.984375 1.75 Z M 13.984375 8.765625 C 16.921875 8.765625 19.242188 11.046875 19.242188 13.988281 C 19.242188 16.929688 16.921875 19.25 13.984375 19.25 C 11.042969 19.25 8.757812 16.929688 8.757812 13.988281 C 8.757812 11.046875 11.042969 8.765625 13.984375 8.765625 Z M 13.984375 8.765625 "/>
<path style=" stroke:none;fill-rule:nonzero;fill:rgb(74.509804%,74.509804%,74.509804%);fill-opacity:1;" d="M 14.015625 10.515625 C 12.09375 10.515625 10.492188 12.089844 10.492188 14.011719 C 10.492188 15.933594 12.09375 17.503906 14.015625 17.503906 C 15.941406 17.503906 17.511719 15.933594 17.511719 14.011719 C 17.511719 12.089844 15.941406 10.515625 14.015625 10.515625 Z M 14.015625 12.265625 C 14.996094 12.265625 15.765625 13.035156 15.765625 14.011719 C 15.765625 14.988281 14.996094 15.757812 14.015625 15.757812 C 13.039062 15.757812 12.269531 14.988281 12.269531 14.011719 C 12.269531 13.035156 13.039062 12.265625 14.015625 12.265625 Z M 14.015625 12.265625 "/>
</g>
</svg>
