<?xml version="1.0" encoding="UTF-8"?>
<svg xmlns="http://www.w3.org/2000/svg" xmlns:xlink="http://www.w3.org/1999/xlink" width="28" height="28" viewBox="0 0 28 28" version="1.1">
<g id="surface1">
<path style=" stroke:none;fill-rule:nonzero;fill:rgb(74.509804%,74.509804%,74.509804%);fill-opacity:1;" d="M 5.582031 0 C 3.480469 0 1.753906 1.730469 1.753906 3.828125 L 1.753906 24.171875 C 1.753906 26.269531 3.480469 28 5.582031 28 L 22.425781 28 C 24.527344 28 26.253906 26.269531 26.253906 24.171875 L 26.253906 3.828125 C 26.253906 1.730469 24.527344 0 22.425781 0 Z M 5.582031 3.5 L 22.425781 3.5 C 22.644531 3.5 22.753906 3.597656 22.753906 3.828125 L 22.753906 24.171875 C 22.753906 24.402344 22.644531 24.5 22.425781 24.5 L 5.582031 24.5 C 5.367188 24.5 5.253906 24.402344 5.253906 24.171875 L 5.253906 3.828125 C 5.253906 3.597656 5.367188 3.5 5.582031 3.5 Z M 5.582031 3.5 "/>
<path style=" stroke:none;fill-rule:nonzero;fill:rgb(74.509804%,74.509804%,74.509804%);fill-opacity:1;" d="M 13.71875 5.25 C 13.253906 5.269531 12.765625 5.351562 12.296875 5.46875 C 8.546875 6.398438 6.28125 10.191406 7.210938 13.945312 C 8 17.125 10.84375 19.234375 13.976562 19.238281 C 14.273438 19.238281 14.566406 19.222656 14.867188 19.183594 L 14.183594 13.96875 C 14.125 13.988281 14.0625 14 13.992188 14 C 13.027344 14 12.242188 13.21875 12.242188 12.25 C 12.242188 11.28125 13.027344 10.5 13.992188 10.5 C 14.960938 10.5 15.742188 11.28125 15.742188 12.25 C 15.742188 12.457031 15.695312 12.644531 15.617188 12.816406 L 20.34375 15.246094 C 21.019531 13.792969 21.164062 12.128906 20.773438 10.554688 C 19.960938 7.269531 16.972656 5.117188 13.71875 5.25 Z M 13.71875 5.25 "/>
<path style=" stroke:none;fill-rule:nonzero;fill:rgb(74.509804%,74.509804%,74.509804%);fill-opacity:1;" d="M 15.15625 14 L 17.5 21 C 18.785156 24.597656 22.75 21.671875 20.117188 19.25 Z M 15.15625 14 "/>
</g>
</svg>
