<?xml version="1.0" encoding="UTF-8"?>
<svg xmlns="http://www.w3.org/2000/svg" xmlns:xlink="http://www.w3.org/1999/xlink" width="28" height="28" viewBox="0 0 28 28" version="1.1">
<g id="surface1">
<path style=" stroke:none;fill-rule:nonzero;fill:rgb(74.509804%,74.509804%,74.509804%);fill-opacity:1;" d="M 21 10.5 L 21 19.359375 C 21 24.144531 17.878906 28 14 28 C 10.121094 28 7 24.144531 7 19.359375 L 7 10.5 Z M 21 10.5 "/>
<path style=" stroke:none;fill-rule:nonzero;fill:rgb(74.509804%,74.509804%,74.509804%);fill-opacity:1;" d="M 8.75 1.75 L 8.75 8.75 L 19.25 8.75 L 19.25 1.75 Z M 10.5 3.5 L 12.25 3.5 L 12.25 5.25 L 10.5 5.25 Z M 15.75 3.5 L 17.5 3.5 L 17.5 5.25 L 15.75 5.25 Z M 15.75 3.5 "/>
</g>
</svg>
