<svg xmlns="http://www.w3.org/2000/svg" width="24" height="24" version="1.1">
 <defs>
  <style id="current-color-scheme" type="text/css">
   .ColorScheme-Text { color: #e9ecf2; } .ColorScheme-Highlight { color: #1AD6AB; }
  </style>
  <linearGradient id="arrongin" x1="0%" x2="0%" y1="0%" y2="100%">
   <stop offset="0%" style="stop-color:#dd9b44"/>
   <stop offset="100%" style="stop-color:#ad6c16"/>
  </linearGradient>
  <linearGradient id="aurora" x1="0%" x2="0%" y1="0%" y2="100%">
   <stop offset="0%" style="stop-color:#09D4DF"/>
   <stop offset="100%" style="stop-color:#9269F4"/>
  </linearGradient>
  <linearGradient id="cyberneon" x1="0%" x2="0%" y1="0%" y2="100%">
   <stop offset="0" style="stop-color:#0abdc6"/>
   <stop offset="1" style="stop-color:#ea00d9"/>
  </linearGradient>
  <linearGradient id="fitdance" x1="0%" x2="0%" y1="0%" y2="100%">
   <stop offset="0%" style="stop-color:#1AD6AB"/>
   <stop offset="100%" style="stop-color:#329DB6"/>
  </linearGradient>
  <linearGradient id="oomox" x1="0%" x2="0%" y1="0%" y2="100%">
   <stop offset="0%" style="stop-color:#89f224"/>
   <stop offset="100%" style="stop-color:#579916"/>
  </linearGradient>
  <linearGradient id="rainblue" x1="0%" x2="0%" y1="0%" y2="100%">
   <stop offset="0%" style="stop-color:#00F260"/>
   <stop offset="100%" style="stop-color:#0575E6"/>
  </linearGradient>
  <linearGradient id="sunrise" x1="0%" x2="0%" y1="0%" y2="100%">
   <stop offset="0%" style="stop-color:#FF8501"/>
   <stop offset="100%" style="stop-color:#FFCB01"/>
  </linearGradient>
  <linearGradient id="telinkrin" x1="0%" x2="0%" y1="0%" y2="100%">
   <stop offset="0%" style="stop-color:#b2ced6"/>
   <stop offset="100%" style="stop-color:#6da5b7"/>
  </linearGradient>
  <linearGradient id="60spsycho" x1="0%" x2="0%" y1="0%" y2="100%">
   <stop offset="0%" style="stop-color:#df5940"/>
   <stop offset="25%" style="stop-color:#d8d15f"/>
   <stop offset="50%" style="stop-color:#e9882a"/>
   <stop offset="100%" style="stop-color:#279362"/>
  </linearGradient>
  <linearGradient id="90ssummer" x1="0%" x2="0%" y1="0%" y2="100%">
   <stop offset="0%" style="stop-color:#f618c7"/>
   <stop offset="20%" style="stop-color:#94ffab"/>
   <stop offset="50%" style="stop-color:#fbfd54"/>
   <stop offset="100%" style="stop-color:#0f83ae"/>
  </linearGradient>
 </defs>
 <path fill="url(#oomox)" class="ColorScheme-Text" d="m12 4c-0.16026 0-0.31674 0.014235-0.47461 0.023437-0.47104 1.3439-0.95038 2.7162-1.4141 4.0293 0.6559 0.02441 1.6702 0.12286 2.127 0.71484 0.21519 0.2789 0.19648 0.71508 0.07031 1.0547-0.59346 1.6648-1.2028 3.3256-1.793 4.9902-0.52155 0.0073-1.0409-0.0044-1.5625 0-0.072991-0.0015-0.14283 0.01152-0.21289-0.01563 0.66459-1.8263 1.3155-3.6697 1.9687-5.502-0.31102-0.0044-0.61914 0.0059-0.93164 0-0.047317 0.10013-0.087103 0.21189-0.12305 0.31641-0.6019 1.6891-1.2096 3.3702-1.8086 5.0605-0.028608 0.04291-0.020401 0.14062-0.087891 0.14062-0.49847 0.0015-0.99716-0.003-1.4941 0-0.0902-0.001-0.1763 0.009-0.2636-0.017 1.1876-3.29 2.3822-7.0113 3.5723-10.42-3.2377 1.0234-5.5723 4.0402-5.5723 7.625 0 3.6785 2.4603 6.7532 5.8301 7.6953 1.3049-3.6286 2.8094-7.7203 4.0781-11.279 0.01276-0.02698 0.02244-0.09362 0.03516-0.12109v-0.0019c0.83665 0.0088 1.6946 0.01612 2.5312 0.01758 0.27363 0.0059 0.54194-0.03052 0.80859 0.05273 0.30664 0.08325 0.59043 0.3223 0.68359 0.63477 0.07042 0.24426 0.01698 0.50124-0.07031 0.73633-0.53291 1.5559-1.0826 3.0899-1.6328 4.6387-0.13754 0.40379-0.76365 0.65367-1.1777 0.66797-0.65324 0.01283-1.3013 0.0047-1.9531 0.01758-0.54176 1.5095-1.336 3.3312-1.9238 4.9023 0.26 0.025 0.524 0.039 0.791 0.039 4.432 0 8-3.568 8-8s-3.568-8-8-8zm-2.1699 15.695c0.2226 0.06223 0.44762 0.11901 0.67773 0.16211-0.22914-0.045-0.45554-0.09999-0.67773-0.16211zm-0.2578-15.32c0.3102-0.0981 0.6287-0.1759 0.9547-0.2344-0.325 0.0602-0.6446 0.1364-0.9547 0.2344zm0.9547-0.2344c0.32488-0.05822 0.65713-0.097393 0.99414-0.11719-0.33707 0.01981-0.6698 0.057254-0.99414 0.11719zm4.9883 5.1348c-0.0265-0.0029-0.05227-0.004-0.07813 0.0039v-0.002c-0.01724 0.0044-0.0399 0.02085-0.05273 0.03516-0.57001 1.5961-1.1333 3.1881-1.7051 4.7812 0.31397 0.0015 0.63562 0.02164 0.94922 0 0.55312-1.6078 1.126-3.2114 1.6875-4.8145-0.24061-0.0059-0.47863 0.0044-0.7207 0-0.02585 0.0037-0.05358-0.001-0.08008-0.0039zm-4.9453 10.592c0.20863 0.03738 0.4188 0.07277 0.63281 0.09375-0.2144-0.02105-0.42429-0.05452-0.63281-0.09375z"/>
</svg>
