<svg xmlns="http://www.w3.org/2000/svg" width="24" height="24" version="1.1">
 <defs>
  <style id="current-color-scheme" type="text/css">
   .ColorScheme-Text { color: #e9ecf2; } .ColorScheme-Highlight { color: #1AD6AB; }
  </style>
  <linearGradient id="arrongin" x1="0%" x2="0%" y1="0%" y2="100%">
   <stop offset="0%" style="stop-color:#dd9b44"/>
   <stop offset="100%" style="stop-color:#ad6c16"/>
  </linearGradient>
  <linearGradient id="aurora" x1="0%" x2="0%" y1="0%" y2="100%">
   <stop offset="0%" style="stop-color:#09D4DF"/>
   <stop offset="100%" style="stop-color:#9269F4"/>
  </linearGradient>
  <linearGradient id="cyberneon" x1="0%" x2="0%" y1="0%" y2="100%">
   <stop offset="0" style="stop-color:#0abdc6"/>
   <stop offset="1" style="stop-color:#ea00d9"/>
  </linearGradient>
  <linearGradient id="fitdance" x1="0%" x2="0%" y1="0%" y2="100%">
   <stop offset="0%" style="stop-color:#1AD6AB"/>
   <stop offset="100%" style="stop-color:#329DB6"/>
  </linearGradient>
  <linearGradient id="oomox" x1="0%" x2="0%" y1="0%" y2="100%">
   <stop offset="0%" style="stop-color:#89f224"/>
   <stop offset="100%" style="stop-color:#579916"/>
  </linearGradient>
  <linearGradient id="rainblue" x1="0%" x2="0%" y1="0%" y2="100%">
   <stop offset="0%" style="stop-color:#00F260"/>
   <stop offset="100%" style="stop-color:#0575E6"/>
  </linearGradient>
  <linearGradient id="sunrise" x1="0%" x2="0%" y1="0%" y2="100%">
   <stop offset="0%" style="stop-color:#FF8501"/>
   <stop offset="100%" style="stop-color:#FFCB01"/>
  </linearGradient>
  <linearGradient id="telinkrin" x1="0%" x2="0%" y1="0%" y2="100%">
   <stop offset="0%" style="stop-color:#b2ced6"/>
   <stop offset="100%" style="stop-color:#6da5b7"/>
  </linearGradient>
  <linearGradient id="60spsycho" x1="0%" x2="0%" y1="0%" y2="100%">
   <stop offset="0%" style="stop-color:#df5940"/>
   <stop offset="25%" style="stop-color:#d8d15f"/>
   <stop offset="50%" style="stop-color:#e9882a"/>
   <stop offset="100%" style="stop-color:#279362"/>
  </linearGradient>
  <linearGradient id="90ssummer" x1="0%" x2="0%" y1="0%" y2="100%">
   <stop offset="0%" style="stop-color:#f618c7"/>
   <stop offset="20%" style="stop-color:#94ffab"/>
   <stop offset="50%" style="stop-color:#fbfd54"/>
   <stop offset="100%" style="stop-color:#0f83ae"/>
  </linearGradient>
 </defs>
 <path fill="url(#oomox)" class="ColorScheme-Text" d="M 9,4 A 5,5 0 0 0 4,9 5,5 0 0 0 4.305,10.687 3,3 0 0 1 7,9 3,3 0 0 1 7.006,9 V 6.404 c 0,0 -0.023,-0.266 0.185,-0.371 0.203,-0.101 0.397,0.061 0.397,0.061 l 1.969,1.17 A 3,3 0 0 1 12,6 3,3 0 0 1 13.152,6.232 5,5 0 0 0 9,4 Z m 5.24,3.008 A 3,3 0 0 1 15,9 3,3 0 0 1 14.691,10.318 l 2.026,1.205 c 0,0 0.283,0.14 0.283,0.473 0,0.334 -0.287,0.443 -0.287,0.443 l -2.035,1.209 A 3,3 0 0 1 15,15 3,3 0 0 1 14.242,16.988 5,5 0 0 0 19,12 5,5 0 0 0 14.24,7.008 Z M 4.303,13.303 A 5,5 0 0 0 4,15 5,5 0 0 0 9,20 5,5 0 0 0 13.158,17.768 3,3 0 0 1 12,18 3,3 0 0 1 9.535,16.705 l -2.06,1.225 c 0,0 -0.14,0.122 -0.319,0.043 C 6.953,17.882 7.006,17.65 7.006,17.65 V 15 A 3,3 0 0 1 7,15 3,3 0 0 1 4.303,13.303 Z"/>
 <path fill="url(#oomox)" class="ColorScheme-Text" opacity="0.3" d="M 12,6 A 3,3 0 0 0 9.557,7.266 l 2.672,1.587 2.464,1.467 A 3,3 0 0 0 15,9 3,3 0 0 0 12,6 Z M 7,9 a 3,3 0 0 0 -3,3 3,3 0 0 0 3,3 3,3 0 0 0 0.006,0 V 11.982 9 A 3,3 0 0 0 7,9 Z m 7.676,4.65 -2.457,1.459 -2.686,1.596 A 3,3 0 0 0 12,18 3,3 0 0 0 15,15 3,3 0 0 0 14.676,13.65 Z"/>
</svg>
