<svg xmlns="http://www.w3.org/2000/svg" width="24" height="24" version="1.1">
 <defs>
  <style id="current-color-scheme" type="text/css">
   .ColorScheme-Text { color: #e9ecf2; } .ColorScheme-Highlight { color: #1AD6AB; }
  </style>
  <linearGradient id="arrongin" x1="0%" x2="0%" y1="0%" y2="100%">
   <stop offset="0%" style="stop-color:#dd9b44"/>
   <stop offset="100%" style="stop-color:#ad6c16"/>
  </linearGradient>
  <linearGradient id="aurora" x1="0%" x2="0%" y1="0%" y2="100%">
   <stop offset="0%" style="stop-color:#09D4DF"/>
   <stop offset="100%" style="stop-color:#9269F4"/>
  </linearGradient>
  <linearGradient id="cyberneon" x1="0%" x2="0%" y1="0%" y2="100%">
   <stop offset="0" style="stop-color:#0abdc6"/>
   <stop offset="1" style="stop-color:#ea00d9"/>
  </linearGradient>
  <linearGradient id="fitdance" x1="0%" x2="0%" y1="0%" y2="100%">
   <stop offset="0%" style="stop-color:#1AD6AB"/>
   <stop offset="100%" style="stop-color:#329DB6"/>
  </linearGradient>
  <linearGradient id="oomox" x1="0%" x2="0%" y1="0%" y2="100%">
   <stop offset="0%" style="stop-color:#89f224"/>
   <stop offset="100%" style="stop-color:#579916"/>
  </linearGradient>
  <linearGradient id="rainblue" x1="0%" x2="0%" y1="0%" y2="100%">
   <stop offset="0%" style="stop-color:#00F260"/>
   <stop offset="100%" style="stop-color:#0575E6"/>
  </linearGradient>
  <linearGradient id="sunrise" x1="0%" x2="0%" y1="0%" y2="100%">
   <stop offset="0%" style="stop-color:#FF8501"/>
   <stop offset="100%" style="stop-color:#FFCB01"/>
  </linearGradient>
  <linearGradient id="telinkrin" x1="0%" x2="0%" y1="0%" y2="100%">
   <stop offset="0%" style="stop-color:#b2ced6"/>
   <stop offset="100%" style="stop-color:#6da5b7"/>
  </linearGradient>
  <linearGradient id="60spsycho" x1="0%" x2="0%" y1="0%" y2="100%">
   <stop offset="0%" style="stop-color:#df5940"/>
   <stop offset="25%" style="stop-color:#d8d15f"/>
   <stop offset="50%" style="stop-color:#e9882a"/>
   <stop offset="100%" style="stop-color:#279362"/>
  </linearGradient>
  <linearGradient id="90ssummer" x1="0%" x2="0%" y1="0%" y2="100%">
   <stop offset="0%" style="stop-color:#f618c7"/>
   <stop offset="20%" style="stop-color:#94ffab"/>
   <stop offset="50%" style="stop-color:#fbfd54"/>
   <stop offset="100%" style="stop-color:#0f83ae"/>
  </linearGradient>
 </defs>
 <path fill="url(#oomox)" class="ColorScheme-Text" d="m10 4a8 8 0 0 0 -8 8 8 8 0 0 0 8 8 8 8 0 0 0 4.7305 -1.5586l0.97656-0.97656-1.4141-1.4141a1.0001 1.0001 0 0 1 0 -1.4141l1.4141-1.4141a1.0001 1.0001 0 0 1 0.69141 -0.29297 1.0001 1.0001 0 0 1 0.72266 0.29297l0.64844 0.64844a8 8 0 0 0 0.232 -1.87 8 8 0 0 0 -8 -8zm-2 3c0.6026 0 1.2625 0.065 1.8281 0.25 0.2829 0.0925 0.5469 0.213 0.7699 0.4082 0.09 0.0793 0.097 0.2308 0.164 0.3418h0.738a0.50005 0.50005 0 0 1 0.5 0.5v0.5c0.20171 0.0034 0.31744 0.01032 1.2012 0 0.3754-0.0044 0.60589-0.0015 0.88672 0a1.5 1.5 0 0 1 1.412 -1 1.5 1.5 0 0 1 1.5 1.5 1.5 1.5 0 0 1 -1.5 1.5 1.5 1.5 0 0 1 -0.16 -0.01c-0.69526 0.86351-1.6407 1.5573-2.3457 2.2285l0.006 0.27a0.50005 0.50005 0 0 1 -0.506 0.512c-0.44746-0.005-0.50079 0.09157-0.48438 0.06445 0.01642-0.02712-0.01692 0.08725 0.07813 0.3418 0.09502 0.25454 0.27465 0.58767 0.45312 0.92773 0.17848 0.34007 0.35929 0.68134 0.44531 1.0527a0.50005 0.50005 0 0 1 -0.486 0.613h-3a0.50005 0.50005 0 0 1 -0.0039 0c-1.3257-0.008-3.9941 0-3.9941 0a0.50005 0.50005 0 0 1 -0.3985 -0.805c0.27642-0.36037 0.5351-1.0423 0.7168-1.7539 0.13058-0.51138 0.22207-1.0099 0.29883-1.4609-0.069978-0.01316-0.14099-0.0334-0.21875-0.07422-0.16259-0.08535-0.33914-0.34116-0.32812-0.5625 0.00734-0.14787 0.024027-0.14052 0.029297-0.16016 0.00527-0.01963 0.00668-0.02958 0.00781-0.03711v-0.002c-0.4189-0.585-0.6093-1.361-0.6093-2.05 0-0.8777 0.4156-1.6486 0.9805-2.1956 0.5648-0.5469 1.2851-0.8984 2.0195-0.8984zm0 1c-0.3918 0-0.9206 0.2264-1.3242 0.6172s-0.6758 0.918-0.6758 1.4768c0 0.50095 0.22568 1.2485 0.46484 1.5449a0.50005 0.50005 0 0 1 0.078125 0.13281c0.026749 0.06855 0.00904 0.11503 0.019531 0.17969 0.13657-0.01873 0.26848-0.03164 0.55664-0.12305 0.34169-0.13499 0.64314-0.28476 0.92578-0.44141 0.096165-0.05328 0.18937-0.11717 0.28516-0.17578 0.2095-0.132 0.4112-0.267 0.5859-0.414 0.321-0.29 0.5849-0.648 0.8633-0.9962 0.0964-0.1595 0.1862-0.3225 0.2597-0.4961a0.50005 0.50005 0 0 1 0.461 -0.3047 0.50005 0.50005 0 0 1 -0.5 -0.5c0-0.0272 0.007-0.0288-0.0625-0.0898-0.0697-0.0611-0.2185-0.1432-0.4199-0.209-0.4029-0.1318-0.994-0.2012-1.5176-0.2012zm3.584 2a0.50005 0.50005 0 0 1 -0.08789 0.0078l-0.51172-0.0039c-0.08638 0.05179-0.19473 0.14078-0.33398 0.30859-0.31239 0.37643-0.69951 1.0072-1.375 1.4883-0.631 0.44943-1.1564 0.68808-1.5703 0.85352-0.08 0.03439-0.14578 0.07877-0.22852 0.11133a0.50005 0.50005 0 0 1 -0.029297 0.0098c-0.066457 0.02146-0.11252 0.02862-0.17383 0.04687-0.028972 0.01-0.10814 0.04356-0.12891 0.05078-0.08294 0.51071-0.18251 1.139-0.35547 1.8164-0.1215 0.477-0.3553 0.879-0.5524 1.31 0.69102-0.0018 2.1759-0.0069 3.2676 0h2.2402c-0.03796-0.07708-0.04534-0.12009-0.08789-0.20117-0.17241-0.32851-0.36883-0.68113-0.50391-1.043-0.13509-0.36184-0.25039-0.79225 0.002-1.209 0.15643-0.25844 0.5261-0.26434 0.83789-0.33984l-0.0039-0.19531a0.50005 0.50005 0 0 1 0.14648 -0.36524c0.76181-0.76445 1.6164-1.4773 2.2227-2.1777a1.5 1.5 0 0 1 -0.269 -0.469c-0.27942-0.0015-0.51968-0.0041-0.875 0-1.1787 0.01376-1.5781 0.0014-1.6289 0zm4.83 3.93-1.414 1.414 2.121 2.121-2.121 2.121 1.414 1.414 2.121-2.121 2.121 2.121 1.414-1.414-2.121-2.121 2.121-2.121-1.414-1.414-2.121 2.121-2.121-2.121z"/>
</svg>
