<?xml version="1.0" encoding="UTF-8"?>
<svg xmlns="http://www.w3.org/2000/svg" xmlns:xlink="http://www.w3.org/1999/xlink" width="24" height="24" viewBox="0 0 24 24" version="1.1">
<g id="surface1">
<path style=" stroke:none;fill-rule:nonzero;fill:rgb(74.509804%,74.509804%,74.509804%);fill-opacity:1;" d="M 17.25 1.5 C 20.148438 1.5 22.5 3.851562 22.5 6.75 C 22.5 8.429688 21.710938 9.914062 20.484375 10.875 C 20.800781 11.148438 21 11.546875 21 12 C 20.996094 15 21 16.578125 21 21 C 21 21.832031 20.332031 22.5 19.5 22.5 L 6 22.5 C 5.167969 22.5 4.5 21.832031 4.5 21 L 4.5 17.765625 L 0.65625 20.625 C 0.625 20.644531 0.59375 20.660156 0.5625 20.671875 C 0.515625 20.679688 0.46875 20.679688 0.421875 20.671875 C 0.390625 20.675781 0.359375 20.675781 0.328125 20.671875 C 0.296875 20.660156 0.261719 20.644531 0.234375 20.625 C 0.203125 20.613281 0.171875 20.597656 0.140625 20.578125 C 0.125 20.5625 0.109375 20.546875 0.09375 20.53125 C 0.078125 20.515625 0.0625 20.5 0.046875 20.484375 C 0.0273438 20.457031 0.0117188 20.425781 0 20.390625 C -0.00390625 20.359375 -0.00390625 20.328125 0 20.296875 L 0 11.203125 C -0.00390625 11.171875 -0.00390625 11.140625 0 11.109375 C 0.0117188 11.078125 0.0273438 11.046875 0.046875 11.015625 C 0.0625 11 0.078125 10.984375 0.09375 10.96875 C 0.109375 10.953125 0.125 10.9375 0.140625 10.921875 C 0.15625 10.90625 0.171875 10.890625 0.1875 10.875 C 0.203125 10.859375 0.21875 10.84375 0.234375 10.828125 C 0.261719 10.808594 0.296875 10.792969 0.328125 10.78125 C 0.375 10.773438 0.421875 10.773438 0.46875 10.78125 C 0.484375 10.78125 0.5 10.78125 0.515625 10.78125 C 0.53125 10.796875 0.546875 10.8125 0.5625 10.828125 C 0.59375 10.839844 0.625 10.855469 0.65625 10.875 L 4.5 13.734375 L 4.5 12 C 4.5 11.546875 4.699219 11.152344 5.015625 10.875 C 3.789062 9.914062 3 8.429688 3 6.75 C 3 3.851562 5.351562 1.5 8.25 1.5 C 10.175781 1.5 11.835938 2.535156 12.75 4.078125 C 13.664062 2.535156 15.324219 1.5 17.25 1.5 Z M 17.25 4.5 C 16.007812 4.5 15 5.507812 15 6.75 C 15 7.992188 16.007812 9 17.25 9 C 18.492188 9 19.5 7.992188 19.5 6.75 C 19.5 5.507812 18.492188 4.5 17.25 4.5 Z M 8.25 4.5 C 7.007812 4.5 6 5.507812 6 6.75 C 6 7.992188 7.007812 9 8.25 9 C 9.492188 9 10.5 7.992188 10.5 6.75 C 10.5 5.507812 9.492188 4.5 8.25 4.5 Z M 12.75 9.421875 C 12.511719 9.824219 12.238281 10.175781 11.90625 10.5 L 13.59375 10.5 C 13.261719 10.175781 12.988281 9.824219 12.75 9.421875 Z M 12.75 9.421875 "/>
</g>
</svg>
