<?xml version="1.0" encoding="UTF-8"?>
<svg xmlns="http://www.w3.org/2000/svg" xmlns:xlink="http://www.w3.org/1999/xlink" width="24" height="24" viewBox="0 0 24 24" version="1.1">
<g id="surface1">
<path style=" stroke:none;fill-rule:nonzero;fill:rgb(74.509804%,74.509804%,74.509804%);fill-opacity:1;" d="M 10.589844 0.015625 C 9.90625 0.0898438 9.265625 0.347656 8.714844 0.765625 C 7.984375 1.320312 7.496094 2.195312 7.496094 3.296875 L 7.496094 11.265625 C 7.496094 11.265625 7.851562 12.027344 8.246094 12.027344 C 8.640625 12.027344 8.996094 11.265625 8.996094 11.265625 L 8.996094 3.296875 C 8.996094 2.621094 9.253906 2.242188 9.652344 1.9375 C 10.050781 1.632812 10.648438 1.488281 11.246094 1.515625 C 11.84375 1.542969 12.421875 1.746094 12.839844 2.125 C 13.257812 2.503906 13.542969 3 13.542969 3.8125 C 13.542969 7.058594 15.738281 9.074219 18.042969 9.015625 C 19.328125 8.980469 20.574219 8.300781 21.417969 7.046875 L 20.574219 5.546875 C 20.011719 6.921875 18.972656 7.488281 17.996094 7.515625 C 16.554688 7.554688 15.042969 6.421875 15.042969 3.8125 C 15.042969 2.625 14.539062 1.644531 13.824219 1 C 13.109375 0.351562 12.203125 0.0585938 11.292969 0.015625 C 11.066406 0.00390625 10.816406 -0.0078125 10.589844 0.015625 Z M 20.996094 3.015625 C 20.996094 3.082031 20.996094 3.136719 20.996094 3.203125 L 22.167969 5.265625 C 22.183594 5.203125 22.199219 5.140625 22.214844 5.078125 Z M 20.996094 3.53125 C 20.988281 3.691406 20.964844 3.851562 20.949219 4 L 22.027344 5.828125 C 22.0625 5.734375 22.089844 5.644531 22.121094 5.546875 Z M 20.902344 4.28125 C 20.882812 4.414062 20.835938 4.53125 20.808594 4.65625 L 21.792969 6.34375 C 21.835938 6.25 21.894531 6.15625 21.933594 6.0625 Z M 20.761719 4.9375 C 20.726562 5.070312 20.664062 5.191406 20.621094 5.3125 L 21.511719 6.859375 C 21.570312 6.761719 21.644531 6.679688 21.699219 6.578125 Z M 20.761719 4.9375 "/>
<path style=" stroke:none;fill-rule:nonzero;fill:rgb(74.509804%,74.509804%,74.509804%);fill-opacity:1;" d="M 4.089844 9.015625 L 12.410156 9.015625 C 13.011719 9.015625 13.5 9.503906 13.5 10.105469 L 13.5 19.925781 C 13.5 20.527344 13.011719 21.015625 12.410156 21.015625 L 4.089844 21.015625 C 3.488281 21.015625 3 20.527344 3 19.925781 L 3 10.105469 C 3 9.503906 3.488281 9.015625 4.089844 9.015625 Z M 4.089844 9.015625 "/>
</g>
</svg>
