<?xml version="1.0" encoding="UTF-8"?>
<svg xmlns="http://www.w3.org/2000/svg" xmlns:xlink="http://www.w3.org/1999/xlink" width="24" height="24" viewBox="0 0 24 24" version="1.1">
<g id="surface1">
<path style=" stroke:none;fill-rule:nonzero;fill:rgb(74.509804%,74.509804%,74.509804%);fill-opacity:1;" d="M 3.707031 1.5 C 2.472656 1.5 1.5 2.472656 1.5 3.703125 L 1.5 20.296875 C 1.5 21.527344 2.472656 22.5 3.707031 22.5 L 17.300781 22.5 C 18.53125 22.5 19.503906 21.527344 19.503906 20.296875 L 19.503906 3.703125 C 19.503906 2.472656 18.53125 1.5 17.300781 1.5 Z M 3.003906 3 L 18.003906 3 L 18.003906 19.5 L 3.003906 19.5 Z M 3.003906 3 "/>
</g>
</svg>
