<?xml version="1.0" encoding="UTF-8"?>
<svg xmlns="http://www.w3.org/2000/svg" xmlns:xlink="http://www.w3.org/1999/xlink" width="24" height="24" viewBox="0 0 24 24" version="1.1">
<g id="surface1">
<path style=" stroke:none;fill-rule:nonzero;fill:rgb(74.509804%,74.509804%,74.509804%);fill-opacity:1;" d="M 7.019531 6 C 5.621094 5.996094 4.492188 7.148438 4.484375 8.589844 C 4.511719 9.707031 4.519531 10.851562 4.507812 11.992188 L 8.890625 12.015625 L 8.917969 6.011719 Z M 10.632812 6.015625 L 10.601562 12.023438 L 14.984375 12.046875 C 15.007812 10.898438 15.03125 9.746094 15.039062 8.644531 C 15.042969 7.203125 13.925781 6.035156 12.53125 6.027344 L 10.632812 6.019531 Z M 4.5 13.640625 C 4.484375 14.886719 4.445312 15.890625 4.445312 17.039062 C 4.433594 20.054688 6.773438 22.496094 9.695312 22.511719 C 12.621094 22.523438 14.984375 20.109375 15 17.09375 C 14.945312 15.835938 14.929688 14.828125 14.945312 13.640625 Z M 4.5 13.640625 "/>
<path style=" stroke:none;fill-rule:nonzero;fill:rgb(74.509804%,74.509804%,74.509804%);fill-opacity:1;" d="M 12.089844 0.015625 C 11.40625 0.0898438 10.765625 0.347656 10.214844 0.765625 C 9.484375 1.320312 8.996094 2.195312 8.996094 3.296875 C 8.992188 3.691406 9.351562 4.058594 9.746094 4.058594 C 10.140625 4.058594 10.503906 3.691406 10.496094 3.296875 C 10.496094 2.621094 10.753906 2.242188 11.152344 1.9375 C 11.550781 1.632812 12.148438 1.488281 12.746094 1.515625 C 13.34375 1.542969 13.921875 1.746094 14.339844 2.125 C 14.757812 2.503906 15.042969 3 15.042969 3.8125 C 15.042969 7.058594 17.238281 9.074219 19.542969 9.015625 C 20.828125 8.980469 22.074219 8.300781 22.917969 7.046875 L 22.074219 5.546875 C 21.511719 6.921875 20.472656 7.488281 19.496094 7.515625 C 18.054688 7.554688 16.542969 6.421875 16.542969 3.8125 C 16.542969 2.625 16.039062 1.644531 15.324219 1 C 14.609375 0.351562 13.703125 0.0585938 12.792969 0.015625 C 12.566406 0.00390625 12.316406 -0.0078125 12.089844 0.015625 Z M 22.496094 2.96875 C 22.496094 2.984375 22.496094 3 22.496094 3.015625 C 22.496094 3.082031 22.496094 3.136719 22.496094 3.203125 L 23.667969 5.265625 C 23.683594 5.203125 23.699219 5.140625 23.714844 5.078125 Z M 22.496094 3.53125 C 22.488281 3.6875 22.464844 3.851562 22.449219 4 L 23.527344 5.828125 C 23.5625 5.734375 23.589844 5.644531 23.621094 5.546875 Z M 22.402344 4.28125 C 22.382812 4.414062 22.335938 4.53125 22.308594 4.65625 L 23.292969 6.34375 C 23.335938 6.25 23.394531 6.15625 23.433594 6.0625 Z M 22.261719 4.9375 C 22.226562 5.070312 22.164062 5.191406 22.121094 5.3125 L 23.011719 6.859375 C 23.070312 6.761719 23.144531 6.679688 23.199219 6.578125 Z M 22.261719 4.9375 "/>
</g>
</svg>
