<?xml version="1.0" encoding="UTF-8"?>
<svg xmlns="http://www.w3.org/2000/svg" xmlns:xlink="http://www.w3.org/1999/xlink" width="24" height="24" viewBox="0 0 24 24" version="1.1">
<defs>
<filter id="alpha" filterUnits="objectBoundingBox" x="0%" y="0%" width="100%" height="100%">
  <feColorMatrix type="matrix" in="SourceGraphic" values="0 0 0 0 1 0 0 0 0 1 0 0 0 0 1 0 0 0 1 0"/>
</filter>
<image id="image12" width="24" height="24" xlink:href="data:image/png;base64,iVBORw0KGgoAAAANSUhEUgAAABgAAAAYCAYAAADgdz34AAAABmJLR0QA/wD/AP+gvaeTAAAAVElEQVRIiWNgGAUEACO6wP9P+cIMXFOcyDLtW84+Rr6Jb5GFWDBVhTAy/PXHIk4MYGVkYJiIIoLFoDX/GZin/CHPgpz/5OkbBaNgFIyCUTAKBjsAAAwVDe/CN8OEAAAAAElFTkSuQmCC"/>
<mask id="mask0">
  <g filter="url(#alpha)">
<use xlink:href="#image12"/>
  </g>
</mask>
<clipPath id="clip1">
  <rect x="0" y="0" width="24" height="24"/>
</clipPath>
<g id="surface11" clip-path="url(#clip1)">
<path style=" stroke:none;fill-rule:nonzero;fill:rgb(74.509804%,74.509804%,74.509804%);fill-opacity:1;" d="M 4.5 6 L 19.5 6 L 19.5 3 L 4.5 3 Z M 4.5 6 "/>
</g>
<image id="image21" width="24" height="24" xlink:href="data:image/png;base64,iVBORw0KGgoAAAANSUhEUgAAABgAAAAYCAYAAADgdz34AAAABmJLR0QA/wD/AP+gvaeTAAAAT0lEQVRIiWNgGAWjYBSMgoEHjPgk/7//LMDA22eJ14TPRccZBXk/4JJmwauZ+QILw19bAYJq8AD8FjCs+c/AvPwXfjWR//HLj4JRMApoDgBp5A6pgbhtjQAAAABJRU5ErkJggg=="/>
<mask id="mask1">
  <g filter="url(#alpha)">
<use xlink:href="#image21"/>
  </g>
</mask>
<clipPath id="clip2">
  <rect x="0" y="0" width="24" height="24"/>
</clipPath>
<g id="surface20" clip-path="url(#clip2)">
<path style=" stroke:none;fill-rule:nonzero;fill:rgb(74.509804%,74.509804%,74.509804%);fill-opacity:1;" d="M 7.5 12.042969 L 16.5 12.042969 L 16.5 13.496094 L 7.5 14.996094 Z M 7.5 12.042969 "/>
</g>
</defs>
<g id="surface3">
<path style=" stroke:none;fill-rule:nonzero;fill:rgb(74.509804%,74.509804%,74.509804%);fill-opacity:1;" d="M 4.5 0 C 3.632812 0 2.910156 0.300781 2.296875 0.84375 C 1.988281 1.117188 1.710938 1.46875 1.546875 1.96875 C 1.382812 2.46875 1.378906 3.128906 1.640625 3.65625 L 3.140625 6.65625 C 3.273438 6.921875 3.445312 7.296875 3.703125 7.6875 C 4.0625 7.578125 4.445312 7.5 4.828125 7.5 L 19.171875 7.5 C 19.554688 7.5 19.9375 7.578125 20.296875 7.6875 C 20.554688 7.296875 20.726562 6.921875 20.859375 6.65625 L 22.359375 3.65625 C 22.621094 3.128906 22.617188 2.46875 22.453125 1.96875 C 22.289062 1.46875 22.011719 1.117188 21.703125 0.84375 C 21.101562 0.304688 20.382812 0.00390625 19.511719 0.00390625 L 4.511719 0.00390625 Z M 4.6875 3 L 19.3125 3 L 18.140625 5.34375 C 17.964844 5.699219 17.875 5.898438 17.8125 6 L 6.1875 6 C 6.125 5.898438 6.035156 5.699219 5.859375 5.34375 L 4.703125 3.003906 Z M 4.6875 3 "/>
<path style=" stroke:none;fill-rule:nonzero;fill:rgb(74.509804%,74.509804%,74.509804%);fill-opacity:1;" d="M 6 9 C 5.269531 9 4.597656 9.214844 4.03125 9.65625 C 3.464844 10.097656 3 10.828125 3 11.671875 L 3 24 L 21 24 L 21 11.671875 C 21 10.828125 20.535156 10.097656 19.96875 9.65625 C 19.414062 9.207031 18.738281 8.996094 18.003906 8.996094 Z M 6 10.5 L 18 10.5 L 18 19.5 L 6 19.5 Z M 16.5 21 L 18 21 L 18 22.5 L 16.5 22.5 Z M 16.5 21 "/>
<use xlink:href="#surface11" mask="url(#mask0)"/>
<path style=" stroke:none;fill-rule:nonzero;fill:rgb(74.509804%,74.509804%,74.509804%);fill-opacity:1;" d="M 7.5 16.542969 L 16.5 16.542969 L 16.5 18.042969 L 7.5 18.042969 Z M 7.5 16.542969 "/>
<use xlink:href="#surface20" mask="url(#mask1)"/>
</g>
</svg>
