<svg xmlns="http://www.w3.org/2000/svg" width="16" height="16" version="1.1">
 <defs>
  <style id="current-color-scheme" type="text/css">
   .ColorScheme-Text { color: #e9ecf2; } .ColorScheme-Highlight { color: #5294e2; }
  </style>
  <linearGradient id="arrongin" x1="0%" x2="0%" y1="0%" y2="100%">
   <stop offset="0%" style="stop-color: #dd9b44; stop-opacity: 1"/>
   <stop offset="100%" style="stop-color: #ad6c16; stop-opacity: 1"/>
  </linearGradient>
  <linearGradient id="aurora" x1="0%" x2="0%" y1="0%" y2="100%">
   <stop offset="0%" style="stop-color: #09D4DF; stop-opacity: 1"/>
   <stop offset="100%" style="stop-color: #9269F4; stop-opacity: 1"/>
  </linearGradient>
  <linearGradient id="cyberneon" x1="0%" x2="0%" y1="0%" y2="100%">
    <stop offset="0" style="stop-color: #0abdc6; stop-opacity: 1"/>
    <stop offset="1" style="stop-color: #ea00d9; stop-opacity: 1"/>
  </linearGradient>
  <linearGradient id="fitdance" x1="0%" x2="0%" y1="0%" y2="100%">
   <stop offset="0%" style="stop-color: #1AD6AB; stop-opacity: 1"/>
   <stop offset="100%" style="stop-color: #329DB6; stop-opacity: 1"/>
  </linearGradient>
  <linearGradient id="oomox" x1="0%" x2="0%" y1="0%" y2="100%">
   <stop offset="0%" style="stop-color: #89f224; stop-opacity: 1"/>
   <stop offset="100%" style="stop-color: #579916; stop-opacity: 1"/>
  </linearGradient>
  <linearGradient id="rainblue" x1="0%" x2="0%" y1="0%" y2="100%">
   <stop offset="0%" style="stop-color: #00F260; stop-opacity: 1"/>
   <stop offset="100%" style="stop-color: #0575E6; stop-opacity: 1"/>
  </linearGradient>
  <linearGradient id="sunrise" x1="0%" x2="0%" y1="0%" y2="100%">
   <stop offset="0%" style="stop-color:  #FF8501; stop-opacity: 1"/>
   <stop offset="100%" style="stop-color:  #FFCB01; stop-opacity: 1"/>
  </linearGradient>
  <linearGradient id="telinkrin" x1="0%" x2="0%" y1="0%" y2="100%">
   <stop offset="0%" style="stop-color:  #b2ced6; stop-opacity: 1"/>
   <stop offset="100%" style="stop-color:  #6da5b7; stop-opacity: 1"/>
  </linearGradient>
  <linearGradient id="60spsycho" x1="0%" x2="0%" y1="0%" y2="100%">
   <stop offset="0%" style="stop-color:  #df5940; stop-opacity: 1"/>
   <stop offset="25%" style="stop-color:  #d8d15f; stop-opacity: 1"/>
   <stop offset="50%" style="stop-color:  #e9882a; stop-opacity: 1"/>
   <stop offset="100%" style="stop-color:  #279362; stop-opacity: 1"/>
  </linearGradient>
  <linearGradient id="90ssummer" x1="0%" x2="0%" y1="0%" y2="100%">
   <stop offset="0%" style="stop-color:  #f618c7; stop-opacity: 1"/>
   <stop offset="20%" style="stop-color:  #94ffab; stop-opacity: 1"/>
   <stop offset="50%" style="stop-color:  #fbfd54; stop-opacity: 1"/>
   <stop offset="100%" style="stop-color:  #0f83ae; stop-opacity: 1"/>
  </linearGradient>
 </defs>
 <g transform="translate(-472,-140)">
  <path d="m 480.01758,141.03906 c -1.23446,-4.4e-4 -2.23009,0.23089 -3.03906,0.60156 -0.1655,0.073 -0.32535,0.15031 -0.48047,0.23829 -0.042,0.0246 -0.0803,0.0526 -0.1211,0.0781 -0.10243,0.0621 -0.20596,0.12422 -0.30273,0.19336 -0.08,0.0572 -0.1518,0.12082 -0.22656,0.18164 -0.52653,0.42831 -0.91243,0.94682 -1.19922,1.51172 -0.0143,0.0284 -0.0333,0.0554 -0.0469,0.084 -0.0141,0.0293 -0.0236,0.0603 -0.0371,0.0899 -0.17567,0.38141 -0.32073,0.7756 -0.40625,1.18554 -0.016,0.0768 -0.018,0.15506 -0.0312,0.23243 -0.0388,0.21093 -0.0691,0.41963 -0.0879,0.625 -0.002,0.0186 -0.002,0.036 -0.004,0.0547 -0.0207,0.24694 -0.0145,0.47174 -0.0117,0.70313 0.002,0.0859 -0.002,0.17201 0.002,0.25781 0.0113,0.24727 0.03,0.4685 0.0605,0.6836 0.0183,0.15029 0.0436,0.29674 0.0684,0.44531 0.004,0.0198 0.006,0.0492 0.01,0.0684 v 0.002 l 0.0176,0.084 c 0.0266,0.146 0.0478,0.29405 0.0801,0.4375 l 0.0937,0.41992 0.006,-0.002 0.90625,4.30469 1.00976,-0.17773 c 0.56763,-0.10065 0.97229,-0.18969 1.16016,-0.33985 0.0943,-0.0754 0.14788,-0.15549 0.17578,-0.30078 0.0279,-0.14531 0.022,-0.35725 -0.0391,-0.64648 l -0.67969,-3.2168 c -0.0611,-0.28925 -0.14194,-0.48771 -0.22851,-0.61523 -0.0866,-0.12752 -0.17356,-0.18782 -0.29493,-0.22657 -0.24274,-0.0775 -0.65144,-0.0211 -1.22265,0.0801 l -0.14063,0.0254 c -0.15652,-0.91855 -0.18616,-1.86684 -0.008,-2.72461 0.21203,-1.01636 0.68948,-1.89663 1.57227,-2.52734 0.86943,-0.62116 2.16246,-0.93434 3.44726,-0.93164 1.2848,-0.003 2.57588,0.31048 3.44531,0.93164 0.88279,0.63071 1.36219,1.51098 1.57422,2.52734 0.17875,0.85777 0.14737,1.80606 -0.01,2.72461 l -0.13868,-0.0254 c -0.57119,-0.10118 -0.98186,-0.1576 -1.2246,-0.0801 -0.12136,0.0388 -0.20836,0.099 -0.29493,0.22657 -0.0866,0.12752 -0.16545,0.32598 -0.22656,0.61523 l -0.67969,3.2168 c -0.0611,0.28923 -0.0689,0.50117 -0.041,0.64648 0.0279,0.14529 0.0815,0.2254 0.17578,0.30078 0.18787,0.15016 0.59253,0.2392 1.16016,0.33985 l 0.0156,0.002 -0.37695,1.67383 L 481,155 v -1 h -2 v 1.5 c 0,0 0,0.5 0.5,0.5 h 1.5 l 2.79883,0.0176 c 0.23341,-7.5e-4 0.43525,-0.16288 0.48633,-0.39063 l 0.47656,-2.10937 0.008,0.002 0.90625,-4.30469 0.008,0.002 0.0937,-0.41992 c 0.0323,-0.14344 0.0515,-0.29148 0.0781,-0.4375 l 0.0195,-0.084 v -0.002 c 0.004,-0.0193 0.006,-0.0487 0.01,-0.0684 0.0249,-0.14857 0.0481,-0.29502 0.0664,-0.44531 0.0305,-0.2151 0.0493,-0.43633 0.0606,-0.6836 0.004,-0.0858 0.003,-0.17193 0.004,-0.25781 0.003,-0.23139 0.009,-0.45619 -0.0117,-0.70313 -0.002,-0.0187 -0.004,-0.036 -0.006,-0.0547 -0.0188,-0.20537 -0.0492,-0.41407 -0.0879,-0.625 -0.0132,-0.0774 -0.0153,-0.15566 -0.0312,-0.23243 -0.0855,-0.40995 -0.23059,-0.80413 -0.40625,-1.18554 -0.0135,-0.0295 -0.023,-0.0606 -0.0371,-0.0899 -0.0137,-0.0285 -0.0327,-0.0556 -0.0469,-0.084 -0.28679,-0.5649 -0.67269,-1.08341 -1.19922,-1.51172 -0.0748,-0.0609 -0.14653,-0.12447 -0.22656,-0.18164 -0.0968,-0.0691 -0.19835,-0.1313 -0.30078,-0.19336 -0.0407,-0.0254 -0.079,-0.0535 -0.12109,-0.0781 -0.15512,-0.088 -0.31693,-0.16531 -0.48243,-0.23829 -0.80857,-0.37067 -1.80462,-0.602 -3.03906,-0.60156 z" fill="url(#oomox)" class="ColorScheme-Text" />
 </g>
</svg>
