<?xml version="1.0" encoding="UTF-8"?>
<svg xmlns="http://www.w3.org/2000/svg" xmlns:xlink="http://www.w3.org/1999/xlink" width="128" height="128" viewBox="0 0 128 128" version="1.1">
<g id="surface1">
<path style=" stroke:none;fill-rule:nonzero;fill:rgb(100%,100%,100%);fill-opacity:1;" d="M 96.917969 30.167969 L 96.917969 39.417969 L 80.917969 39.417969 L 80.5 39.667969 L 57.332031 57.667969 L 34.167969 39.667969 L 33.75 39.417969 L 9.582031 39.417969 L 9.582031 52.75 L 32.832031 52.75 L 48.25 64.75 L 32.832031 76.75 L 9.582031 76.75 L 9.582031 90.082031 L 33.75 90.082031 L 34.167969 89.832031 L 57.332031 71.832031 L 80.5 89.832031 L 80.917969 90.082031 L 96.917969 90.082031 L 96.917969 99.332031 L 99 97.832031 L 117.667969 84.5 L 119.167969 83.417969 L 117.667969 82.332031 L 99 69 L 96.917969 67.5 L 96.917969 76.75 L 81.832031 76.75 L 66.417969 64.75 L 81.832031 52.75 L 96.917969 52.75 L 96.917969 62 L 99 60.5 L 117.667969 47.167969 L 119.167969 46.082031 L 117.667969 45 L 99 31.667969 Z M 96.917969 30.167969 "/>
</g>
</svg>
