<?xml version="1.0" encoding="UTF-8"?>
<svg xmlns="http://www.w3.org/2000/svg" xmlns:xlink="http://www.w3.org/1999/xlink" width="128" height="128" viewBox="0 0 128 128" version="1.1">
<g id="surface1">
<path style=" stroke:none;fill-rule:nonzero;fill:rgb(100%,100%,100%);fill-opacity:1;" d="M 48 8 C 39.925781 8.039062 40 16 40 16 L 40 104 C 40 112 48 112 48 112 L 80 112 C 88 112 88 104 88 104 L 88 40 C 88.007812 35.566406 84.433594 32 80 32 L 56 32 L 56 16 C 56 16 55.929688 8.042969 48 8 Z M 48 40 L 80 40 L 80 64.25 L 48 64 Z M 48 72 L 56 72 L 56 80 L 64 80 L 64 72 L 72 72 L 72 80 L 80 80 L 80 88 L 72 88 L 72 96 L 80 96 L 80 104 L 72 104 L 72 96 L 64 96 L 64 104 L 56 104 L 56 96 L 48 96 L 48 88 L 56 88 L 56 80 L 48 80 Z M 56 88 L 56 96 L 64 96 L 64 88 Z M 64 88 L 72 88 L 72 80 L 64 80 Z M 64 88 "/>
<path style=" stroke:none;fill-rule:nonzero;fill:rgb(100%,100%,100%);fill-opacity:1;" d="M 128 40 L 128 48 C 128 50.054688 126.960938 52.226562 125.5 53.75 L 115.261719 63.988281 L 125.507812 74.238281 C 126.972656 75.761719 128.007812 77.933594 128.007812 79.988281 L 128.007812 87.988281 L 120.007812 87.988281 C 117.535156 87.988281 115.589844 87.265625 114.007812 85.738281 L 92.730469 63.980469 L 114.007812 42.21875 C 115.609375 40.699219 117.53125 39.980469 120.007812 39.980469 L 128.007812 39.980469 Z M 128 40 "/>
<path style=" stroke:none;fill-rule:nonzero;fill:rgb(100%,100%,100%);fill-opacity:1;" d="M 0 40 L 0 48 C 0 50.054688 1.039062 52.226562 2.5 53.75 L 12.75 64 L 2.5 74.25 C 1.039062 75.773438 0 77.945312 0 80 L 0 88 L 8 88 C 10.476562 88 12.417969 87.277344 14 85.75 L 35.28125 63.988281 L 14 42.230469 C 12.398438 40.710938 10.480469 39.988281 8 39.988281 L 0 39.988281 Z M 0 40 "/>
</g>
</svg>
