<?xml version="1.0" encoding="UTF-8"?>
<svg xmlns="http://www.w3.org/2000/svg" xmlns:xlink="http://www.w3.org/1999/xlink" width="128" height="128" viewBox="0 0 128 128" version="1.1">
<g id="surface1">
<path style=" stroke:none;fill-rule:nonzero;fill:rgb(100%,100%,100%);fill-opacity:1;" d="M 32 16 L 32 8.25 L 88 8.25 L 88 16 Z M 27.75 0.25 C 23.828125 0.25 21.382812 2.078125 19.5 4 C 17.617188 5.921875 16 8.46875 16 12.25 L 16 16 L 0 16 L 0 32 L 120 32 L 120 16 L 104 16 L 104 13 C 103.808594 9.554688 102.636719 6.980469 100.75 4.75 C 98.960938 2.632812 95.738281 0.515625 91.5 0.5 L 91.5 0.25 Z M 95.988281 40.007812 L 111.988281 40.007812 C 125.378906 63.425781 121.089844 86.84375 111.988281 110.257812 C 108.550781 119.21875 104.148438 128.019531 94.46875 128.019531 L 25.46875 128.019531 C 15.828125 128.019531 11.257812 119.296875 7.96875 110.269531 C -0.367188 87.375 -4.820312 64.234375 7.96875 40.019531 L 23.96875 40.019531 C 10.199219 63.601562 16.089844 87.78125 23.96875 112.019531 L 95.96875 112.019531 C 104.738281 87.753906 109.019531 63.625 95.96875 40.019531 Z M 56.238281 39.878906 L 56.238281 104.007812 L 63.988281 104.007812 L 63.988281 39.878906 Z M 71.988281 39.878906 C 86.085938 57.664062 78.632812 84.925781 71.988281 104.007812 L 79.988281 104.007812 C 86.589844 85.542969 94.707031 58.992188 79.988281 39.878906 Z M 40.238281 39.878906 C 25.703125 60.746094 33.390625 86.378906 40.238281 104.007812 L 47.988281 104.007812 C 41.066406 86.234375 34.6875 60.261719 47.988281 39.878906 Z M 40.238281 39.878906 "/>
</g>
</svg>
