<svg xmlns="http://www.w3.org/2000/svg" width="16" height="16" version="1.1">
 <defs>
   <style id="current-color-scheme" type="text/css">
   .ColorScheme-Text { color: #e9ecf2; } .ColorScheme-Highlight { color: #1AD6AB; }
  </style>
  <linearGradient id="arrongin" x1="0%" x2="0%" y1="0%" y2="100%">
   <stop offset="0%" style="stop-color: #dd9b44; stop-opacity: 1"/>
   <stop offset="100%" style="stop-color: #ad6c16; stop-opacity: 1"/>
  </linearGradient>
  <linearGradient id="aurora" x1="0%" x2="0%" y1="0%" y2="100%">
   <stop offset="0%" style="stop-color: #09D4DF; stop-opacity: 1"/>
   <stop offset="100%" style="stop-color: #9269F4; stop-opacity: 1"/>
  </linearGradient>
  <linearGradient id="cyberneon" x1="0%" x2="0%" y1="0%" y2="100%">
    <stop offset="0" style="stop-color: #0abdc6; stop-opacity: 1"/>
    <stop offset="1" style="stop-color: #ea00d9; stop-opacity: 1"/>
  </linearGradient>
  <linearGradient id="fitdance" x1="0%" x2="0%" y1="0%" y2="100%">
   <stop offset="0%" style="stop-color: #1AD6AB; stop-opacity: 1"/>
   <stop offset="100%" style="stop-color: #329DB6; stop-opacity: 1"/>
  </linearGradient>
  <linearGradient id="oomox" x1="0%" x2="0%" y1="0%" y2="100%">
   <stop offset="0%" style="stop-color: #89f224; stop-opacity: 1"/>
   <stop offset="100%" style="stop-color: #579916; stop-opacity: 1"/>
  </linearGradient>
  <linearGradient id="rainblue" x1="0%" x2="0%" y1="0%" y2="100%">
   <stop offset="0%" style="stop-color: #00F260; stop-opacity: 1"/>
   <stop offset="100%" style="stop-color: #0575E6; stop-opacity: 1"/>
  </linearGradient>
  <linearGradient id="sunrise" x1="0%" x2="0%" y1="0%" y2="100%">
   <stop offset="0%" style="stop-color: #FF8501; stop-opacity: 1"/>
   <stop offset="100%" style="stop-color: #FFCB01; stop-opacity: 1"/>
  </linearGradient>
  <linearGradient id="telinkrin" x1="0%" x2="0%" y1="0%" y2="100%">
   <stop offset="0%" style="stop-color: #b2ced6; stop-opacity: 1"/>
   <stop offset="100%" style="stop-color: #6da5b7; stop-opacity: 1"/>
  </linearGradient>
  <linearGradient id="60spsycho" x1="0%" x2="0%" y1="0%" y2="100%">
   <stop offset="0%" style="stop-color: #df5940; stop-opacity: 1"/>
   <stop offset="25%" style="stop-color: #d8d15f; stop-opacity: 1"/>
   <stop offset="50%" style="stop-color: #e9882a; stop-opacity: 1"/>
   <stop offset="100%" style="stop-color: #279362; stop-opacity: 1"/>
  </linearGradient>
  <linearGradient id="90ssummer" x1="0%" x2="0%" y1="0%" y2="100%">
   <stop offset="0%" style="stop-color: #f618c7; stop-opacity: 1"/>
   <stop offset="20%" style="stop-color: #94ffab; stop-opacity: 1"/>
   <stop offset="50%" style="stop-color: #fbfd54; stop-opacity: 1"/>
   <stop offset="100%" style="stop-color: #0f83ae; stop-opacity: 1"/>
  </linearGradient>
 </defs>
 <path fill="url(#oomox)" class="ColorScheme-Text" opacity="0.3" d="M 8.5 0 C 5.4627564 0 3.0004562 2.3276432 3 5.1992188 C 3.00172 5.3328938 3.0088804 5.4664566 3.0214844 5.5996094 L 3 5.5996094 L 3 6 L 1.8339844 6 C 1.3723177 6 1 6.3464546 1 6.7773438 L 1 12.222656 C 1 12.653545 1.3723177 13 1.8339844 13 L 3 13 L 3 15.199219 C 3 15.642419 3.3769338 16 3.8457031 16 L 6.8085938 16 L 8.0761719 14 L 8.9238281 14 L 10.191406 16 L 13.154297 16 C 13.623066 16 14 15.642419 14 15.199219 L 14 13 L 15.166016 13 C 15.627682 13 16 12.653545 16 12.222656 L 16 6.7773438 C 16 6.3464546 15.627682 6 15.166016 6 L 14 6 L 14 5.5996094 L 13.982422 5.5996094 C 13.993723 5.466409 13.999584 5.3328462 14 5.1992188 C 13.999544 2.3276432 11.537244 -5.9211895e-16 8.5 0 z M 8.5 2 C 10.432663 1.9999999 12 2.9990235 12 5.9765625 C 11.999442 5.9915405 11.998847 6.0084675 11.998047 6.0234375 L 5 6.0214844 C 4.9999069 6.0065104 4.9999069 5.9915365 5 5.9765625 C 5 2.9990235 6.567337 1.9999998 8.5 2 z M 6 4 L 6 5 L 7 5 L 7 4 L 6 4 z M 10 4 L 10 5 L 11 5 L 11 4 L 10 4 z M 4.5 8 A 1.5 1.5 0 0 1 6 9.5 A 1.5 1.5 0 0 1 4.5 11 A 1.5 1.5 0 0 1 3 9.5 A 1.5 1.5 0 0 1 4.5 8 z M 8.5 8 A 1.5 1.5 0 0 1 10 9.5 A 1.5 1.5 0 0 1 8.5 11 A 1.5 1.5 0 0 1 7 9.5 A 1.5 1.5 0 0 1 8.5 8 z M 12.5 8 A 1.5 1.5 0 0 1 14 9.5 A 1.5 1.5 0 0 1 12.5 11 A 1.5 1.5 0 0 1 11 9.5 A 1.5 1.5 0 0 1 12.5 8 z"/>
 <path fill="url(#oomox)" class="ColorScheme-Text" d="M 4 9 L 4 10 L 5 10 L 5 9 L 4 9 z M 8 9 L 8 10 L 9 10 L 9 9 L 8 9 z M 12 9 L 12 10 L 13 10 L 13 9 L 12 9 z"/>
</svg>
