<?xml version="1.0" encoding="UTF-8"?>
<svg xmlns="http://www.w3.org/2000/svg" xmlns:xlink="http://www.w3.org/1999/xlink" width="32" height="32" viewBox="0 0 32 32" version="1.1">
<g id="surface1">
<path style=" stroke:none;fill-rule:nonzero;fill:rgb(100%,100%,100%);fill-opacity:1;" d="M 2.058594 14 L 2.058594 18 L 28 18 L 28 14 Z M 2.058594 14 "/>
<path style=" stroke:none;fill-rule:nonzero;fill:rgb(100%,100%,100%);fill-opacity:1;" d="M 23.558594 10 C 22.8125 10.136719 22.207031 10.679688 21.996094 11.410156 C 21.785156 12.136719 22.003906 12.921875 22.558594 13.4375 L 25.121094 16 L 22.558594 18.558594 C 22.035156 19.070312 21.832031 19.824219 22.019531 20.53125 C 22.203125 21.234375 22.757812 21.785156 23.460938 21.972656 C 24.167969 22.160156 24.921875 21.957031 25.433594 21.433594 L 29.433594 17.433594 L 30.808594 15.996094 L 29.433594 14.558594 L 25.433594 10.558594 C 24.945312 10.058594 24.234375 9.847656 23.554688 10 Z M 23.558594 10 "/>
<path style=" stroke:none;fill-rule:nonzero;fill:rgb(100%,100%,100%);fill-opacity:1;" d="M 22 10 L 24 10 L 24 12 L 22 12 Z M 22 10 "/>
<path style=" stroke:none;fill-rule:nonzero;fill:rgb(100%,100%,100%);fill-opacity:1;" d="M 22 20 L 24 20 L 24 22 L 22 22 Z M 22 20 "/>
</g>
</svg>
