<?xml version="1.0" encoding="UTF-8"?>
<svg xmlns="http://www.w3.org/2000/svg" xmlns:xlink="http://www.w3.org/1999/xlink" width="32" height="32" viewBox="0 0 32 32" version="1.1">
<defs>
<filter id="alpha" filterUnits="objectBoundingBox" x="0%" y="0%" width="100%" height="100%">
  <feColorMatrix type="matrix" in="SourceGraphic" values="0 0 0 0 1 0 0 0 0 1 0 0 0 0 1 0 0 0 1 0"/>
</filter>
<image id="image14" width="32" height="32" xlink:href="data:image/png;base64,iVBORw0KGgoAAAANSUhEUgAAACAAAAAgCAYAAABzenr0AAAABmJLR0QA/wD/AP+gvaeTAAAAZ0lEQVRYhe3XsQ2AIBBG4R+FhaxxBlvnpGIL9kENFsZEGrszMXmvulxzX3tOxrV9XqQS+m2szuckSd4aIJWgI/WAcW33ONgD3gMAAAAAAAAAAAAAAAAAAB/8hrE+f8GraZOy/elfdAJFaA6X+hdfKgAAAABJRU5ErkJggg=="/>
<mask id="mask0">
  <g filter="url(#alpha)">
<use xlink:href="#image14"/>
  </g>
</mask>
<clipPath id="clip1">
  <rect x="0" y="0" width="32" height="32"/>
</clipPath>
<g id="surface13" clip-path="url(#clip1)">
<path style=" stroke:none;fill-rule:evenodd;fill:rgb(74.509804%,74.509804%,74.509804%);fill-opacity:1;" d="M 24 0 L 24 30 L 30 30 L 30 0 Z M 24 0 "/>
</g>
<image id="image23" width="32" height="32" xlink:href="data:image/png;base64,iVBORw0KGgoAAAANSUhEUgAAACAAAAAgCAYAAABzenr0AAAABmJLR0QA/wD/AP+gvaeTAAAAZElEQVRYhe3WsQ2AIBBG4R+FhaxxBlvnpGIL9kEN1sSG5Ox4r7zkLl95EtHsOeuBdu+HVEI/jdX5nEb2vRUglaAn9YD1bKPbix1gCwAAAAAAAAAAAACAH77iWL9f8HZJ2X56il534Q6LM98J8QAAAABJRU5ErkJggg=="/>
<mask id="mask1">
  <g filter="url(#alpha)">
<use xlink:href="#image23"/>
  </g>
</mask>
<clipPath id="clip2">
  <rect x="0" y="0" width="32" height="32"/>
</clipPath>
<g id="surface22" clip-path="url(#clip2)">
<path style=" stroke:none;fill-rule:evenodd;fill:rgb(74.509804%,74.509804%,74.509804%);fill-opacity:1;" d="M 16 6 L 16 30 L 22 30 L 22 6 Z M 16 6 "/>
</g>
<image id="image32" width="32" height="32" xlink:href="data:image/png;base64,iVBORw0KGgoAAAANSUhEUgAAACAAAAAgCAYAAABzenr0AAAABmJLR0QA/wD/AP+gvaeTAAAAZElEQVRYhe3WsQ2AIBRF0YfCQtY4g61zUrEF+6AGa2KBMVhxb0l+PqcDiYiIRs+0Bsq5blJy9anPxsbQA2DbI8npCjVg3kuPyyVp6rUIAAAAAAAAAPC1F/8Bn5/v/3JI8R/RcN3Oog5/+jy1cQAAAABJRU5ErkJggg=="/>
<mask id="mask2">
  <g filter="url(#alpha)">
<use xlink:href="#image32"/>
  </g>
</mask>
<clipPath id="clip3">
  <rect x="0" y="0" width="32" height="32"/>
</clipPath>
<g id="surface31" clip-path="url(#clip3)">
<path style=" stroke:none;fill-rule:evenodd;fill:rgb(74.509804%,74.509804%,74.509804%);fill-opacity:1;" d="M 8 12 L 8 30 L 14 30 L 14 12 Z M 8 12 "/>
</g>
<image id="image41" width="32" height="32" xlink:href="data:image/png;base64,iVBORw0KGgoAAAANSUhEUgAAACAAAAAgCAYAAABzenr0AAAABmJLR0QA/wD/AP+gvaeTAAAAW0lEQVRYhe3UsRGAIBBE0Y9CQ8ZYg6l1EtEF/YAOxoxjegbsCy/ZHx2IiIiIzM71az+ghPEcq/M5WQR4KIE7jQHr2S3GARarIQUoQAEK+OIh1vfn2xrkf4qm8wBJug5z+EhuHQAAAABJRU5ErkJggg=="/>
<mask id="mask3">
  <g filter="url(#alpha)">
<use xlink:href="#image41"/>
  </g>
</mask>
<clipPath id="clip4">
  <rect x="0" y="0" width="32" height="32"/>
</clipPath>
<g id="surface40" clip-path="url(#clip4)">
<path style=" stroke:none;fill-rule:evenodd;fill:rgb(74.509804%,74.509804%,74.509804%);fill-opacity:1;" d="M 0 18 L 0 30 L 6 30 L 6 18 Z M 0 18 "/>
</g>
</defs>
<g id="surface5">
<use xlink:href="#surface13" mask="url(#mask0)"/>
<use xlink:href="#surface22" mask="url(#mask1)"/>
<use xlink:href="#surface31" mask="url(#mask2)"/>
<use xlink:href="#surface40" mask="url(#mask3)"/>
</g>
</svg>
