<?xml version="1.0" encoding="UTF-8"?>
<svg xmlns="http://www.w3.org/2000/svg" xmlns:xlink="http://www.w3.org/1999/xlink" width="32" height="32" viewBox="0 0 32 32" version="1.1">
<defs>
<filter id="alpha" filterUnits="objectBoundingBox" x="0%" y="0%" width="100%" height="100%">
  <feColorMatrix type="matrix" in="SourceGraphic" values="0 0 0 0 1 0 0 0 0 1 0 0 0 0 1 0 0 0 1 0"/>
</filter>
<image id="image13" width="32" height="32" xlink:href="data:image/png;base64,iVBORw0KGgoAAAANSUhEUgAAACAAAAAgCAYAAABzenr0AAAABmJLR0QA/wD/AP+gvaeTAAAAX0lEQVRYhe3Tuw2AMAyE4QskC1GHGWiZM1W2yD48FKqIVHRYSPxfZbm5K2wJf+faUI95kUqwiY2b8zlJkr+XJehMNgXGtbZxMAl8QAEKdF8Qt/463zXtUraJAgAAwOdddHoOawBY/1EAAAAASUVORK5CYII="/>
<mask id="mask0">
  <g filter="url(#alpha)">
<use xlink:href="#image13"/>
  </g>
</mask>
<clipPath id="clip1">
  <rect x="0" y="0" width="32" height="32"/>
</clipPath>
<g id="surface12" clip-path="url(#clip1)">
<path style=" stroke:none;fill-rule:nonzero;fill:rgb(74.509804%,74.509804%,74.509804%);fill-opacity:1;" d="M 16 4 C 10.371094 4 5.65625 6 2 9.171875 L 2 12 L 4.960938 12 C 8 9.472656 11.402344 8 16 8 C 20.597656 8 24 9.558594 27.039062 12 L 30 12 L 30 9.238281 C 26.71875 6.304688 21.628906 4 16 4 Z M 16 4 "/>
</g>
<image id="image22" width="32" height="32" xlink:href="data:image/png;base64,iVBORw0KGgoAAAANSUhEUgAAACAAAAAgCAYAAABzenr0AAAABmJLR0QA/wD/AP+gvaeTAAAAX0lEQVRYhe3Syw2AIBBF0YdCQ66xBrfWyYou6MdPsAEhMc5K79m+zCeZkQDg71wrqMe8SCXYjImb8zndJb5dVILOZLPAuNZWNJgMeIEFOj8Qt97tnpl2Kdu0AgAAn3MBFXUOZ6kNg0EAAAAASUVORK5CYII="/>
<mask id="mask1">
  <g filter="url(#alpha)">
<use xlink:href="#image22"/>
  </g>
</mask>
<clipPath id="clip2">
  <rect x="0" y="0" width="32" height="32"/>
</clipPath>
<g id="surface21" clip-path="url(#clip2)">
<path style=" stroke:none;fill-rule:nonzero;fill:rgb(74.509804%,74.509804%,74.509804%);fill-opacity:1;" d="M 16 10 C 11.667969 10 7.960938 11.476562 6 14 L 6 16 L 10 16 C 11.578125 14.789062 13.519531 14 16 14 C 18.484375 14 20.4375 14.789062 22 16 L 26 16 L 26 14 C 24.011719 11.554688 20.253906 10 16 10 Z M 16 10 "/>
</g>
<image id="image31" width="32" height="32" xlink:href="data:image/png;base64,iVBORw0KGgoAAAANSUhEUgAAACAAAAAgCAYAAABzenr0AAAABmJLR0QA/wD/AP+gvaeTAAAAWUlEQVRYhe3Qyw2AIBRE0UGhIddYg1vrZEUX9OMn2MJo4op71hNyHxIAABhdcIf9WjepJW+djxBrcZbRDZBa0l28gHnv7quTH/CPFz+QD/+y5ZTqtyIAwHAeyokOYybKlk0AAAAASUVORK5CYII="/>
<mask id="mask2">
  <g filter="url(#alpha)">
<use xlink:href="#image31"/>
  </g>
</mask>
<clipPath id="clip3">
  <rect x="0" y="0" width="32" height="32"/>
</clipPath>
<g id="surface30" clip-path="url(#clip3)">
<path style=" stroke:none;fill-rule:nonzero;fill:rgb(74.509804%,74.509804%,74.509804%);fill-opacity:1;" d="M 16 16 C 13.484375 16 11.570312 16.625 10 18 L 10 20 L 22 20 L 22 18 C 20.324219 16.65625 18.515625 16 16 16 Z M 16 16 "/>
</g>
</defs>
<g id="surface4">
<path style=" stroke:none;fill-rule:nonzero;fill:rgb(100%,100%,100%);fill-opacity:1;" d="M 20 26 C 20 28.207031 18.207031 30 16 30 C 13.789062 30 12 28.207031 12 26 C 12 23.792969 13.789062 22 16 22 C 18.207031 22 20 23.792969 20 26 Z M 20 26 "/>
<use xlink:href="#surface12" mask="url(#mask0)"/>
<use xlink:href="#surface21" mask="url(#mask1)"/>
<use xlink:href="#surface30" mask="url(#mask2)"/>
</g>
</svg>
