<?xml version="1.0" encoding="UTF-8"?>
<svg xmlns="http://www.w3.org/2000/svg" xmlns:xlink="http://www.w3.org/1999/xlink" width="32" height="32" viewBox="0 0 32 32" version="1.1">
<g id="surface1">
<path style=" stroke:none;fill-rule:nonzero;fill:rgb(74.509804%,74.509804%,74.509804%);fill-opacity:1;" d="M 4 8 C 3 8 2 9 2 10 L 2 18 C 2 19 3 20 4 20 L 6 20 L 6 16 L 30 16.007812 L 30 10 C 30 9 29 8 28 8 Z M 4 8 "/>
<path style=" stroke:none;fill-rule:nonzero;fill:rgb(74.509804%,74.509804%,74.509804%);fill-opacity:1;" d="M 8 2 L 8 6 L 24 6 L 24 2 Z M 8 2 "/>
<path style=" stroke:none;fill-rule:nonzero;fill:rgb(74.509804%,74.509804%,74.509804%);fill-opacity:1;" d="M 8 18 L 8 28 L 16 28 L 15.988281 18 Z M 8 18 "/>
<path style=" stroke:none;fill-rule:nonzero;fill:rgb(93.72549%,16.078431%,16.078431%);fill-opacity:1;" d="M 25 18 C 21.132812 18 18 21.132812 18 25 C 18 28.867188 21.132812 32 25 32 C 28.867188 32 32 28.867188 32 25 C 32 21.132812 28.867188 18 25 18 Z M 20 23.9375 L 30 23.9375 L 30 26 L 20 26 Z M 20 23.9375 "/>
<path style=" stroke:none;fill-rule:nonzero;fill:rgb(100%,100%,100%);fill-opacity:1;" d="M 8.109375 23.007812 L 8.109375 18.0625 L 15.972656 18.0625 L 15.972656 27.957031 L 8.109375 27.957031 Z M 8.109375 23.007812 "/>
<path style=" stroke:none;fill-rule:nonzero;fill:rgb(100%,100%,100%);fill-opacity:1;" d="M 3.277344 19.765625 C 3.046875 19.664062 2.679688 19.347656 2.464844 19.066406 L 2.074219 18.554688 L 2.074219 9.429688 L 2.464844 8.917969 C 3.1875 7.972656 2.429688 8.019531 16.167969 8.058594 C 28.503906 8.09375 28.5625 8.097656 28.945312 8.378906 C 29.15625 8.535156 29.464844 8.863281 29.632812 9.109375 C 29.929688 9.542969 29.9375 9.664062 29.9375 12.804688 L 29.9375 16.050781 L 6.007812 15.957031 L 5.929688 19.957031 L 4.816406 19.953125 C 4.1875 19.949219 3.515625 19.867188 3.277344 19.765625 Z M 3.277344 19.765625 "/>
<path style=" stroke:none;fill-rule:nonzero;fill:rgb(100%,100%,100%);fill-opacity:1;" d="M 8.109375 4.027344 L 8.109375 2.0625 L 23.972656 2.0625 L 23.972656 5.992188 L 8.109375 5.992188 Z M 8.109375 4.027344 "/>
</g>
</svg>
