<?xml version="1.0" encoding="UTF-8"?>
<svg xmlns="http://www.w3.org/2000/svg" xmlns:xlink="http://www.w3.org/1999/xlink" width="32" height="32" viewBox="0 0 32 32" version="1.1">
<defs>
<filter id="alpha" filterUnits="objectBoundingBox" x="0%" y="0%" width="100%" height="100%">
  <feColorMatrix type="matrix" in="SourceGraphic" values="0 0 0 0 1 0 0 0 0 1 0 0 0 0 1 0 0 0 1 0"/>
</filter>
<image id="image11" width="32" height="32" xlink:href="data:image/png;base64,iVBORw0KGgoAAAANSUhEUgAAACAAAAAgCAYAAABzenr0AAAABmJLR0QA/wD/AP+gvaeTAAAAZElEQVRYhe3OMQ5AUBRE0Xnyw8aUatEqbEBtE9bx96CzJSEiTyE69Yvi3mq6OebnNEpLpci836wcZklKz/kaC7D2emcRevwRAAAAAAAAAAAAAAAAACR5s8tqD3317pBy6CX9txv8oRCjOWC8TwAAAABJRU5ErkJggg=="/>
<mask id="mask0">
  <g filter="url(#alpha)">
<use xlink:href="#image11"/>
  </g>
</mask>
<clipPath id="clip1">
  <rect x="0" y="0" width="32" height="32"/>
</clipPath>
<g id="surface10" clip-path="url(#clip1)">
<path style=" stroke:none;fill-rule:nonzero;fill:rgb(74.509804%,74.509804%,74.509804%);fill-opacity:1;" d="M 6.058594 0 C 2.722656 0 -0.00390625 2.726562 -0.00390625 6.0625 L -0.00390625 21.9375 C -0.00390625 25.273438 2.722656 28 6.058594 28 L 20 28 L 20 24 L 16 24 L 16 20 L 30 20 L 30 6.0625 C 30 2.722656 27.273438 0 23.9375 0 Z M 6.058594 4 L 23.933594 4 C 25.125 4 25.996094 4.871094 25.996094 6.0625 L 25.996094 18 L 3.996094 18 L 3.996094 6.0625 C 3.996094 4.871094 4.867188 4 6.058594 4 Z M 4 20 L 14 20 L 14 24 L 6.058594 24 C 4.867188 24 4 23.128906 4 21.9375 Z M 4 20 "/>
</g>
</defs>
<g id="surface2">
<use xlink:href="#surface10" mask="url(#mask0)"/>
<path style=" stroke:none;fill-rule:nonzero;fill:rgb(74.509804%,74.509804%,74.509804%);fill-opacity:1;" d="M 22 22 L 24.75 22 L 27 24.1875 L 29.1875 22 L 32 22 L 32 24.9375 L 29.8125 27.0625 L 32 29.1875 L 32 32 L 29.125 32 L 27 29.875 L 24.875 32 L 22 32 L 22 29.1875 L 24.125 27.0625 L 22 24.9375 Z M 22 22 "/>
<path style=" stroke:none;fill-rule:nonzero;fill:rgb(100%,100%,100%);fill-opacity:1;" d="M 4.449219 27.742188 C 2.828125 27.308594 1.371094 26.054688 0.59375 24.433594 L 0.175781 23.554688 L 0.175781 4.433594 L 0.617188 3.507812 C 1.402344 1.84375 3.019531 0.570312 4.828125 0.179688 C 5.761719 -0.0195312 24.007812 -0.0351562 25.074219 0.164062 C 26.921875 0.507812 28.535156 1.777344 29.378906 3.542969 L 29.871094 4.570312 L 29.910156 12.265625 L 29.949219 19.957031 L 15.972656 19.957031 L 15.972656 24.027344 L 19.90625 24.027344 L 19.90625 27.957031 L 12.550781 27.949219 C 6.523438 27.941406 5.058594 27.90625 4.449219 27.742188 Z M 14.074219 21.992188 L 14.074219 19.957031 L 3.972656 20.027344 L 3.929688 20.636719 C 3.8125 22.234375 4.234375 23.339844 5.128906 23.789062 C 5.546875 24 6.074219 24.027344 9.839844 24.027344 L 14.074219 24.027344 Z M 26.007812 11.789062 C 26.007812 4.640625 26.035156 4.839844 24.910156 4.261719 L 24.3125 3.953125 L 14.796875 3.992188 C 5.363281 4.027344 5.277344 4.03125 4.898438 4.3125 C 4.6875 4.46875 4.394531 4.804688 4.242188 5.058594 C 3.984375 5.496094 3.96875 5.800781 3.933594 11.605469 C 3.910156 14.957031 3.921875 17.777344 3.960938 17.878906 C 4.019531 18.027344 5.929688 18.0625 15.019531 18.0625 L 26.007812 18.0625 Z M 26.007812 11.789062 "/>
<path style=" stroke:none;fill-rule:nonzero;fill:rgb(100%,0%,0%);fill-opacity:1;" d="M 22.074219 30.503906 L 22.074219 29.117188 L 23.121094 28.0625 L 24.171875 27.007812 L 22.074219 24.902344 L 22.074219 21.992188 L 24.710938 21.992188 L 26.949219 24.21875 L 28.085938 23.105469 L 29.226562 21.992188 L 31.972656 21.992188 L 31.972656 24.914062 L 29.804688 27.070312 L 31.972656 29.253906 L 31.972656 31.890625 L 29.0625 31.890625 L 26.957031 29.796875 L 24.847656 31.890625 L 22.074219 31.890625 Z M 22.074219 30.503906 "/>
</g>
</svg>
