<?xml version="1.0" encoding="UTF-8"?>
<svg xmlns="http://www.w3.org/2000/svg" xmlns:xlink="http://www.w3.org/1999/xlink" width="32" height="32" viewBox="0 0 32 32" version="1.1">
<defs>
<filter id="alpha" filterUnits="objectBoundingBox" x="0%" y="0%" width="100%" height="100%">
  <feColorMatrix type="matrix" in="SourceGraphic" values="0 0 0 0 1 0 0 0 0 1 0 0 0 0 1 0 0 0 1 0"/>
</filter>
<image id="image11" width="32" height="32" xlink:href="data:image/png;base64,iVBORw0KGgoAAAANSUhEUgAAACAAAAAgCAYAAABzenr0AAAABmJLR0QA/wD/AP+gvaeTAAAAaklEQVRYhe3XIQ6AMBBE0V9C6MFA9jRIwh04ETjuVIJYVFMUjg0JM2qyZp5d+HtCKXbOI2zRZdVSDt20ALT1ukXYfQBhsFIbl8GHCCCAAAIIIIAAAggggAAC1M/IUr5/LK/G+gNWl6nv5wIMHBCQebe3pQAAAABJRU5ErkJggg=="/>
<mask id="mask0">
  <g filter="url(#alpha)">
<use xlink:href="#image11"/>
  </g>
</mask>
<clipPath id="clip1">
  <rect x="0" y="0" width="32" height="32"/>
</clipPath>
<g id="surface10" clip-path="url(#clip1)">
<path style=" stroke:none;fill-rule:nonzero;fill:rgb(74.509804%,74.509804%,74.509804%);fill-opacity:1;" d="M 7 2 C 4.230469 2 2 4.230469 2 7 L 2 8 L 30 8 L 30 7 C 30 4.230469 27.769531 2 25 2 Z M 2.125 18 C 2.589844 20.28125 4.578125 22 7 22 L 19.75 22 L 26 30 L 26 21.875 C 27.949219 21.472656 29.476562 19.953125 29.875 18 Z M 2.125 18 "/>
</g>
</defs>
<g id="surface2">
<use xlink:href="#surface10" mask="url(#mask0)"/>
<path style=" stroke:none;fill-rule:nonzero;fill:rgb(100%,100%,100%);fill-opacity:1;" d="M 10 13 C 10 14.65625 8.65625 16 7 16 C 5.34375 16 4 14.65625 4 13 C 4 11.34375 5.34375 10 7 10 C 8.65625 10 10 11.34375 10 13 Z M 10 13 "/>
<path style=" stroke:none;fill-rule:nonzero;fill:rgb(100%,100%,100%);fill-opacity:1;" d="M 18 13 C 18 14.65625 16.65625 16 15 16 C 13.34375 16 12 14.65625 12 13 C 12 11.34375 13.34375 10 15 10 C 16.65625 10 18 11.34375 18 13 Z M 18 13 "/>
<path style=" stroke:none;fill-rule:nonzero;fill:rgb(100%,100%,100%);fill-opacity:1;" d="M 26 13 C 26 14.65625 24.65625 16 23 16 C 21.34375 16 20 14.65625 20 13 C 20 11.34375 21.34375 10 23 10 C 24.65625 10 26 11.34375 26 13 Z M 26 13 "/>
<path style=" stroke:none;fill-rule:nonzero;fill:rgb(100%,100%,100%);fill-opacity:1;" d="M 2.097656 6.828125 C 2.144531 5.859375 2.230469 5.480469 2.546875 4.835938 C 3.027344 3.851562 3.875 3.007812 4.890625 2.507812 L 5.667969 2.128906 L 26.28125 2.128906 L 27.1875 2.574219 C 28.917969 3.425781 29.808594 4.847656 29.894531 6.886719 L 29.9375 7.960938 L 15.992188 7.992188 L 2.039062 8.027344 Z M 2.097656 6.828125 "/>
<path style=" stroke:none;fill-rule:nonzero;fill:rgb(100%,100%,100%);fill-opacity:1;" d="M 22.824219 25.894531 L 19.773438 21.992188 L 13.195312 21.992188 C 6.101562 21.988281 5.636719 21.949219 4.484375 21.273438 C 4.152344 21.082031 3.652344 20.667969 3.371094 20.359375 C 2.882812 19.820312 2.214844 18.589844 2.210938 18.230469 C 2.210938 18.09375 5.0625 18.0625 16.035156 18.0625 L 29.859375 18.0625 L 29.660156 18.621094 C 29.191406 19.953125 28.042969 21.125 26.742188 21.601562 L 25.941406 21.890625 L 25.871094 29.796875 Z M 22.824219 25.894531 "/>
</g>
</svg>
