<?xml version="1.0" encoding="UTF-8"?>
<svg xmlns="http://www.w3.org/2000/svg" xmlns:xlink="http://www.w3.org/1999/xlink" width="32" height="32" viewBox="0 0 32 32" version="1.1">
<g id="surface1">
<path style=" stroke:none;fill-rule:nonzero;fill:rgb(74.509804%,74.509804%,74.509804%);fill-opacity:1;" d="M 18.980469 2 C 16.425781 2 14.351562 3.945312 14.070312 6.4375 C 13.429688 6.199219 12.769531 6 12.03125 6 C 8.734375 6 6.0625 8.683594 6.0625 12 C 6.0625 12.195312 6.105469 12.367188 6.125 12.5625 C 5.527344 12.199219 4.824219 12 4.066406 12 C 1.867188 12 0.0859375 13.789062 0.0859375 16 C 0.0859375 18.207031 1.867188 20 4.066406 20 L 4.8125 20 C 5.140625 19.296875 5.542969 18.636719 6.117188 18.0625 L 11.027344 13.125 L 15.9375 18.0625 C 16.503906 18.632812 16.867188 19.304688 17.179688 20 L 18.113281 20 L 20.96875 17.125 L 23.828125 20 L 28.925781 20 C 30.574219 20 31.910156 18.65625 31.910156 17 C 31.910156 15.34375 30.574219 14 28.925781 14 C 28.515625 14 28.101562 14.097656 27.746094 14.25 C 27.851562 13.847656 27.929688 13.4375 27.929688 13 C 27.929688 10.539062 26.15625 8.542969 23.828125 8.125 C 23.914062 7.761719 23.953125 7.390625 23.953125 7 C 23.953125 4.238281 21.726562 2 18.980469 2 Z M 18.980469 2 "/>
<path style=" stroke:none;fill-rule:nonzero;fill:rgb(0%,100%,100%);fill-opacity:1;" d="M 11 15.820312 L 10.3125 16.570312 L 7.4375 19.382812 C 5.492188 21.324219 5.492188 24.5 7.4375 26.445312 C 9.382812 28.386719 12.617188 28.386719 14.5625 26.445312 C 16.507812 24.5 16.507812 21.324219 14.5625 19.382812 L 11.6875 16.570312 Z M 11 18.632812 L 13.125 20.820312 C 14.304688 22 14.304688 23.890625 13.125 25.070312 C 11.945312 26.25 10.054688 26.25 8.875 25.070312 L 8.875 25.007812 C 7.738281 23.824219 7.710938 21.984375 8.875 20.820312 L 10.996094 18.597656 Z M 11 18.632812 "/>
<path style=" stroke:none;fill-rule:nonzero;fill:rgb(0%,100%,100%);fill-opacity:1;" d="M 21 19.820312 L 20.3125 20.570312 L 17.4375 23.382812 C 15.492188 25.324219 15.492188 28.5 17.4375 30.445312 C 19.382812 32.390625 22.617188 32.390625 24.5625 30.445312 C 26.507812 28.5 26.507812 25.324219 24.5625 23.382812 L 21.6875 20.570312 Z M 21 22.632812 L 23.125 24.820312 C 24.304688 26 24.304688 27.890625 23.125 29.070312 C 21.945312 30.25 20.054688 30.25 18.875 29.070312 L 18.875 29.007812 C 17.738281 27.824219 17.710938 25.984375 18.875 24.820312 L 20.996094 22.597656 Z M 21 22.632812 "/>
</g>
</svg>
