<?xml version="1.0" encoding="UTF-8"?>
<svg xmlns="http://www.w3.org/2000/svg" xmlns:xlink="http://www.w3.org/1999/xlink" width="48" height="48" viewBox="0 0 48 48" version="1.1">
<g id="surface1">
<path style=" stroke:none;fill-rule:nonzero;fill:rgb(74.509804%,74.509804%,74.509804%);fill-opacity:1;" d="M 24 6 C 12.402344 6 3 13.386719 3 22.5 C 3 27.925781 6.398438 33.003906 12.082031 36.082031 C 12.289062 36.707031 12.511719 37.75 11.75 39.152344 C 10.679688 41.113281 9.101562 42.054688 9.101562 42.054688 L 9 45 L 12 45 C 12 45 16.398438 43.324219 17.898438 42 C 19.164062 40.886719 19.511719 39.21875 19.617188 38.632812 C 21.058594 38.875 22.527344 39 24 39 C 35.597656 39 45 31.613281 45 22.5 C 45 13.386719 35.597656 6 24 6 Z M 23.265625 9.675781 C 25.742188 9.675781 27.761719 10.394531 29.3125 11.835938 C 30.890625 13.273438 31.675781 15.140625 31.675781 17.4375 C 31.675781 18.855469 31.394531 20.023438 30.832031 20.945312 C 30.269531 21.871094 29.203125 22.886719 27.625 23.988281 C 26.613281 24.710938 25.980469 25.277344 25.734375 25.703125 C 25.488281 26.132812 25.367188 26.898438 25.367188 28 L 21.175781 28 L 21.175781 27.527344 C 21.175781 26.402344 21.367188 25.421875 21.75 24.59375 C 22.15625 23.734375 22.640625 23.050781 23.203125 22.535156 C 23.765625 22.019531 24.328125 21.53125 24.890625 21.082031 C 25.453125 20.632812 25.925781 20.117188 26.308594 19.53125 C 26.710938 18.945312 26.917969 18.28125 26.917969 17.539062 C 26.917969 16.433594 26.578125 15.515625 25.90625 14.773438 C 25.230469 14.027344 24.386719 13.65625 23.375 13.65625 C 22.316406 13.65625 21.429688 14.085938 20.707031 14.941406 C 20.007812 15.796875 19.65625 16.875 19.65625 18.179688 L 19.65625 18.554688 L 15.070312 18.554688 C 15.089844 17.089844 15.285156 15.8125 15.644531 14.710938 C 16.027344 13.605469 16.488281 12.75 17.027344 12.144531 C 17.589844 11.515625 18.253906 11.007812 19.019531 10.625 C 19.785156 10.242188 20.492188 9.992188 21.148438 9.882812 C 21.820312 9.746094 22.523438 9.675781 23.265625 9.675781 Z M 20.84375 29.859375 L 25.90625 29.859375 L 25.90625 34.789062 L 20.84375 34.789062 Z M 20.84375 29.859375 "/>
</g>
</svg>
