<?xml version="1.0" encoding="UTF-8"?>
<svg xmlns="http://www.w3.org/2000/svg" xmlns:xlink="http://www.w3.org/1999/xlink" width="16" height="16" viewBox="0 0 16 16" version="1.1">
<g id="surface1">
<path style=" stroke:none;fill-rule:nonzero;fill:rgb(74.509804%,74.509804%,74.509804%);fill-opacity:1;" d="M 3.5 5 C 3.222656 5 3 5.222656 3 5.5 L 3 8.46875 C 3 10.4375 4.257812 12.09375 6 12.71875 L 6 14 L 4 14 C 3.433594 14 3 14.488281 3 15 L 3 16 L 12 16 L 12 15 C 12 14.414062 11.523438 14 11 14 L 9 14 L 9 12.71875 C 10.742188 12.09375 12 10.4375 12 8.46875 L 12 5.5 C 12 5.222656 11.777344 5 11.5 5 C 11.222656 5 11 5.222656 11 5.5 C 11 5.570312 11.003906 5.628906 11.03125 5.6875 L 11.03125 8.46875 C 11.03125 10.433594 9.453125 12 7.5 12 C 5.546875 12 4 10.433594 4 8.46875 L 4 5.5 C 4 5.222656 3.777344 5 3.5 5 Z M 7.5 0.992188 C 8.882812 0.992188 10 2.105469 10 3.492188 L 10 8.5 C 10 9.882812 8.882812 11 7.5 11 C 6.117188 11 5 9.882812 5 8.5 L 5 3.488281 C 5 2.101562 6.117188 0.988281 7.5 0.988281 Z M 7.5 0.992188 "/>
</g>
</svg>
