<?xml version="1.0" encoding="UTF-8"?>
<svg xmlns="http://www.w3.org/2000/svg" xmlns:xlink="http://www.w3.org/1999/xlink" width="16" height="16" viewBox="0 0 16 16" version="1.1">
<g id="surface1">
<path style=" stroke:none;fill-rule:nonzero;fill:rgb(74.509804%,74.509804%,74.509804%);fill-opacity:1;" d="M 5.46875 1 C 4.648438 1 4 1.648438 4 2.46875 L 4 13.53125 C 4 14.351562 4.648438 15 5.46875 15 L 10.59375 15 C 11.414062 15 12.0625 14.351562 12.0625 13.53125 L 12.0625 2.46875 C 12.0625 1.648438 11.414062 1 10.59375 1 Z M 5 2 L 11.0625 2 L 11.0625 13 L 5 13 Z M 5 2 "/>
</g>
</svg>
