<?xml version="1.0" encoding="UTF-8"?>
<svg xmlns="http://www.w3.org/2000/svg" xmlns:xlink="http://www.w3.org/1999/xlink" width="16" height="16" viewBox="0 0 16 16" version="1.1">
<g id="surface1">
<path style=" stroke:none;fill-rule:nonzero;fill:rgb(74.509804%,74.509804%,74.509804%);fill-opacity:1;" d="M 6 12 L 6 14 L 0.46875 14 C 0.207031 14 0 14.207031 0 14.46875 L 0 15.53125 C 0 15.792969 0.207031 16 0.46875 16 L 13.53125 16 C 13.792969 16 14 15.792969 14 15.53125 L 14 14.46875 C 14 14.207031 13.792969 14 13.53125 14 L 8 14 L 8 12 Z M 6 12 "/>
<path style=" stroke:none;fill-rule:nonzero;fill:rgb(74.509804%,74.509804%,74.509804%);fill-opacity:1;" d="M 4.050781 2.121094 L 4.050781 7.992188 L 10.003906 7.992188 L 10.003906 4.058594 L 8.003906 2.121094 Z M 2.003906 8.003906 L 2.003906 11.964844 L 11.972656 11.964844 L 11.972656 8.003906 L 11.019531 8.003906 L 11.015625 8.984375 L 2.988281 9.019531 L 2.988281 8.003906 Z M 2.003906 8.003906 "/>
</g>
</svg>
