<?xml version="1.0" encoding="UTF-8"?>
<svg xmlns="http://www.w3.org/2000/svg" xmlns:xlink="http://www.w3.org/1999/xlink" width="96" height="96" viewBox="0 0 96 96" version="1.1">
<g id="surface1">
<path style=" stroke:none;fill-rule:nonzero;fill:rgb(74.509804%,74.509804%,74.509804%);fill-opacity:1;" d="M 47.816406 0 C 27.980469 0 11.671875 18.050781 12.003906 34.3125 C 12.371094 52.445312 17.605469 62.484375 18.753906 66 L 27.15625 66 C 20.1875 52.25 20.859375 35.0625 20.859375 35.0625 C 20.859375 20.828125 32.898438 9.1875 47.8125 9.1875 C 62.726562 9.1875 74.8125 20.710938 74.765625 35.4375 C 74.625 45.484375 73.738281 49.140625 68.734375 64.3125 L 78.15625 64.3125 C 79.503906 60.445312 84.003906 51.921875 84.003906 34.875 C 84.003906 17.898438 67.648438 0 47.8125 0 Z M 47.816406 0 "/>
<path style=" stroke:none;fill-rule:nonzero;fill:rgb(74.509804%,74.509804%,74.509804%);fill-opacity:1;" d="M 75.597656 42.324219 C 70.578125 40.925781 65 44.554688 63.128906 50.433594 L 60.570312 58.492188 C 58.703125 64.371094 61.257812 70.273438 66.277344 71.671875 C 71.296875 73.074219 76.878906 69.441406 78.742188 63.566406 L 81.304688 55.507812 C 83.171875 49.628906 80.617188 43.726562 75.597656 42.324219 Z M 75.597656 42.324219 "/>
<path style=" stroke:none;fill-rule:nonzero;fill:rgb(74.509804%,74.509804%,74.509804%);fill-opacity:1;" d="M 20.714844 42.359375 C 25.734375 40.957031 31.316406 44.585938 33.179688 50.46875 L 35.742188 58.523438 C 37.609375 64.402344 35.054688 70.304688 30.035156 71.703125 C 25.015625 73.109375 19.433594 69.472656 17.566406 63.597656 L 15.007812 55.539062 C 13.140625 49.660156 15.695312 43.757812 20.714844 42.359375 Z M 20.714844 42.359375 "/>
<path style=" stroke:none;fill-rule:nonzero;fill:rgb(74.509804%,74.509804%,74.509804%);fill-opacity:1;" d="M 42.285156 83.820312 L 53.910156 83.820312 C 57.171875 83.820312 59.816406 86.464844 59.816406 89.726562 C 59.816406 92.988281 57.171875 95.632812 53.910156 95.632812 L 42.285156 95.632812 C 39.023438 95.632812 36.378906 92.988281 36.378906 89.726562 C 36.378906 86.464844 39.023438 83.820312 42.285156 83.820312 Z M 42.285156 83.820312 "/>
<path style=" stroke:none;fill-rule:nonzero;fill:rgb(74.509804%,74.509804%,74.509804%);fill-opacity:1;" d="M 75.566406 56.460938 C 74.207031 56.703125 73.191406 57.84375 73.101562 59.21875 C 73.011719 60.59375 73.875 61.855469 75.191406 62.273438 L 83.996094 65.453125 L 83.808594 75.953125 C 83.78125 79.144531 82.996094 81.15625 81.933594 82.328125 C 80.878906 83.46875 79.523438 84.007812 77.628906 84.007812 L 52.691406 84.007812 C 51.605469 83.992188 50.601562 84.558594 50.054688 85.492188 C 49.507812 86.429688 49.507812 87.585938 50.054688 88.519531 C 50.601562 89.453125 51.605469 90.023438 52.691406 90.007812 L 77.628906 90.007812 C 80.910156 90.007812 84.179688 88.746094 86.441406 86.257812 C 88.695312 83.769531 89.773438 80.203125 89.816406 75.941406 L 90 63.34375 L 90 61.28125 L 88.125 60.53125 L 77.4375 56.59375 C 76.847656 56.332031 76.191406 56.265625 75.5625 56.40625 Z M 75.566406 56.460938 "/>
</g>
</svg>
