<?xml version="1.0" encoding="UTF-8"?>
<svg xmlns="http://www.w3.org/2000/svg" xmlns:xlink="http://www.w3.org/1999/xlink" width="96" height="96" viewBox="0 0 96 96" version="1.1">
<g id="surface1">
<path style=" stroke:none;fill-rule:nonzero;fill:rgb(74.509804%,74.509804%,74.509804%);fill-opacity:1;" d="M 15 6 C 6.691406 6 0 12.691406 0 21 L 0 69 C 0 77.308594 6.691406 84 15 84 L 15 72 C 13.339844 72 12 70.660156 12 69 L 12 60 L 84 60 L 84 69 C 84 70.660156 82.660156 72 81 72 L 81 84 C 89.308594 84 96 77.308594 96 69 L 96 21 C 96 12.691406 89.308594 6 81 6 Z M 15 6 "/>
<path style=" stroke:none;fill-rule:nonzero;fill:rgb(74.509804%,74.509804%,74.509804%);fill-opacity:1;" d="M 17.28125 66.238281 C 17.28125 82.386719 31.070312 95.664062 47.972656 95.664062 C 64.878906 95.664062 78.78125 82.386719 78.78125 66.238281 L 66.675781 66.238281 C 66.675781 76.15625 58.351562 84.105469 47.972656 84.105469 C 37.597656 84.105469 29.382812 76.15625 29.382812 66.238281 Z M 17.28125 66.238281 "/>
<path style=" stroke:none;fill-rule:nonzero;fill:rgb(74.509804%,74.509804%,74.509804%);fill-opacity:1;" d="M 36 66 C 36 72.59375 41.40625 78 48 78 C 54.59375 78 60 72.59375 60 66 L 54 66 C 54 69.347656 51.347656 72 48 72 C 44.652344 72 42 69.347656 42 66 Z M 36 66 "/>
</g>
</svg>
