<?xml version="1.0" encoding="UTF-8"?>
<svg xmlns="http://www.w3.org/2000/svg" xmlns:xlink="http://www.w3.org/1999/xlink" width="96" height="96" viewBox="0 0 96 96" version="1.1">
<g id="surface1">
<path style=" stroke:none;fill-rule:nonzero;fill:rgb(74.509804%,74.509804%,74.509804%);fill-opacity:1;" d="M 23.925781 54.675781 C 29.597656 53.019531 35.652344 56.464844 37.441406 62.371094 L 41.492188 75.726562 C 43.28125 81.632812 40.136719 87.765625 34.460938 89.425781 C 28.789062 91.085938 22.738281 87.640625 20.945312 81.734375 L 16.894531 68.375 C 15.101562 62.46875 18.25 56.335938 23.925781 54.675781 Z M 23.925781 54.675781 "/>
<path style=" stroke:none;fill-rule:nonzero;fill:rgb(74.509804%,74.509804%,74.509804%);fill-opacity:1;" d="M 47.820312 6 C 27.988281 6 11.679688 24.050781 12.007812 40.3125 C 12.300781 54.507812 16.859375 68.484375 18.007812 72 L 27.160156 72 C 20.191406 58.25 20.867188 41.0625 20.867188 41.0625 C 20.867188 26.828125 32.90625 15.1875 47.820312 15.1875 C 62.734375 15.1875 74.816406 26.148438 74.773438 40.875 C 74.628906 50.921875 73.742188 56.828125 68.742188 72 L 78.167969 72 C 79.511719 68.132812 84.007812 52.859375 84.007812 40.3125 C 84.007812 23.335938 67.652344 6 47.820312 6 Z M 47.820312 6 "/>
<path style=" stroke:none;fill-rule:nonzero;fill:rgb(74.509804%,74.509804%,74.509804%);fill-opacity:1;" d="M 72.078125 54.832031 C 66.40625 53.171875 60.355469 56.617188 58.5625 62.523438 L 54.511719 75.878906 C 52.71875 81.785156 55.867188 87.921875 61.539062 89.578125 C 67.214844 91.234375 73.269531 87.792969 75.058594 81.882812 L 79.109375 68.53125 C 80.898438 62.621094 77.753906 56.488281 72.078125 54.832031 Z M 72.078125 54.832031 "/>
</g>
</svg>
