<?xml version="1.0" encoding="UTF-8"?>
<svg xmlns="http://www.w3.org/2000/svg" xmlns:xlink="http://www.w3.org/1999/xlink" width="96" height="96" viewBox="0 0 96 96" version="1.1">
<g id="surface1">
<path style=" stroke:none;fill-rule:nonzero;fill:rgb(74.509804%,74.509804%,74.509804%);fill-opacity:1;" d="M 21 0 C 21 0 12 0 12 9 L 12 63 C 12 72 21 72 21 72 L 30 72 L 30 84 C 30 87.324219 32.675781 90 36 90 L 60 90 C 63.324219 90 66 87.324219 66 84 L 66 72 L 75 72 C 84 72 84 63 84 63 L 84 9 C 84 0 75 0 75 0 Z M 24 12 L 36 12 L 36 24 L 24 24 Z M 42 12 L 54 12 L 54 24 L 42 24 Z M 60 12 L 72 12 L 72 24 L 60 24 Z M 24 30 L 36 30 L 36 42 L 24 42 Z M 42 30 L 54 30 L 54 42 L 42 42 Z M 60 30 L 72 30 L 72 42 L 60 42 Z M 24 48 L 36 48 L 36 60 L 24 60 Z M 42 48 L 54 48 L 54 60 L 42 60 Z M 60 48 L 72 48 L 72 60 L 60 60 Z M 42 66 L 54 66 L 54 78 L 42 78 Z M 42 66 "/>
</g>
</svg>
