<?xml version="1.0" encoding="UTF-8"?>
<svg xmlns="http://www.w3.org/2000/svg" xmlns:xlink="http://www.w3.org/1999/xlink" width="96" height="96" viewBox="0 0 96 96" version="1.1">
<g id="surface1">
<path style=" stroke:none;fill-rule:nonzero;fill:rgb(74.509804%,74.509804%,74.509804%);fill-opacity:1;" d="M 17.820312 6 C 11.367188 6 6.007812 11.363281 6.007812 17.8125 L 6.007812 74.625 L 7.882812 76.3125 L 18.007812 86.4375 L 18.007812 18.003906 L 78.003906 18.003906 L 78.003906 78.003906 L 66.003906 78.003906 L 66.003906 90.003906 L 78.191406 90.003906 C 84.648438 90.003906 90.003906 84.640625 90.003906 78.1875 L 90.003906 17.816406 C 90.003906 11.339844 84.667969 5.996094 78.1875 5.996094 Z M 17.820312 6 "/>
<path style=" stroke:none;fill-rule:nonzero;fill:rgb(74.509804%,74.509804%,74.509804%);fill-opacity:1;" d="M 30 54 C 26.675781 54 24 56.675781 24 60 L 24 84 C 24 87.324219 26.675781 90 30 90 L 54 90 C 57.324219 90 60 87.324219 60 84 L 60 60 C 60 56.675781 57.324219 54 54 54 Z M 30 60 L 42 60 L 42 84 L 30 84 Z M 30 60 "/>
</g>
</svg>
