<?xml version="1.0" encoding="UTF-8"?>
<svg xmlns="http://www.w3.org/2000/svg" xmlns:xlink="http://www.w3.org/1999/xlink" width="96" height="96" viewBox="0 0 96 96" version="1.1">
<g id="surface1">
<path style=" stroke:none;fill-rule:nonzero;fill:rgb(74.509804%,74.509804%,74.509804%);fill-opacity:1;" d="M 26.816406 6 C 21.886719 6 18 9.886719 18 14.8125 L 18 81.183594 C 18 86.109375 21.886719 89.996094 26.816406 89.996094 L 69.191406 89.996094 C 74.113281 89.996094 78.003906 86.113281 78.003906 81.183594 L 78.003906 14.8125 C 78.003906 9.886719 74.113281 6 69.191406 6 Z M 24.003906 12 L 72.003906 12 L 72.003906 42 L 24.003906 42 Z M 48.003906 48 C 57.941406 48 66.003906 56.058594 66.003906 66 C 66.003906 75.941406 57.941406 84 48.003906 84 C 38.058594 84 30.003906 75.941406 30.003906 66 C 30.003906 56.058594 38.058594 48 48.003906 48 Z M 48.003906 48 "/>
<path style=" stroke:none;fill-rule:nonzero;fill:rgb(74.509804%,74.509804%,74.509804%);fill-opacity:1;" d="M 57 66 C 57 70.972656 52.972656 75 48 75 C 43.027344 75 39 70.972656 39 66 C 39 61.027344 43.027344 57 48 57 C 52.972656 57 57 61.027344 57 66 Z M 57 66 "/>
</g>
</svg>
