<?xml version="1.0" encoding="UTF-8"?>
<svg xmlns="http://www.w3.org/2000/svg" xmlns:xlink="http://www.w3.org/1999/xlink" width="96" height="96" viewBox="0 0 96 96" version="1.1">
<defs>
<clipPath id="clip1">
  <path d="M 30.03125 48.5625 L 66.03125 48.5625 L 66.03125 60.007812 L 30.03125 60.007812 Z M 30.03125 48.5625 "/>
</clipPath>
<clipPath id="clip2">
  <path d="M 18.019531 30.1875 L 78.019531 30.1875 L 78.019531 48 L 18.019531 48 Z M 18.019531 30.1875 "/>
</clipPath>
<clipPath id="clip3">
  <path d="M 6.019531 12.375 L 89.976562 12.375 L 89.976562 36.011719 L 6.019531 36.011719 Z M 6.019531 12.375 "/>
</clipPath>
</defs>
<g id="surface1">
<g clip-path="url(#clip1)" clip-rule="nonzero">
<path style=" stroke:none;fill-rule:nonzero;fill:rgb(74.509804%,74.509804%,74.509804%);fill-opacity:1;" d="M 28.621094 59.007812 C 28.878906 61.136719 30.597656 62.945312 33.023438 63.640625 C 35.453125 64.339844 38.140625 63.789062 39.914062 62.242188 C 44.429688 58.480469 51.632812 58.480469 56.148438 62.242188 C 57.667969 64.019531 60.300781 64.875 62.859375 64.425781 C 65.414062 63.976562 67.410156 62.308594 67.9375 60.175781 C 68.46875 58.042969 67.433594 55.851562 65.300781 54.59375 C 55.757812 46.644531 40.25 46.644531 30.710938 54.59375 C 29.222656 55.714844 28.4375 57.339844 28.5625 59.007812 Z M 28.621094 59.007812 "/>
</g>
<g clip-path="url(#clip2)" clip-rule="nonzero">
<path style=" stroke:none;fill-rule:nonzero;fill:rgb(74.509804%,74.509804%,74.509804%);fill-opacity:1;" d="M 16.214844 47.007812 C 16.765625 49.03125 18.476562 50.617188 20.675781 51.15625 C 22.875 51.695312 25.21875 51.097656 26.800781 49.597656 C 38.460938 38.902344 57.484375 38.902344 69.148438 49.597656 C 70.667969 51.277344 73.09375 52.03125 75.410156 51.53125 C 77.730469 51.035156 79.539062 49.375 80.085938 47.246094 C 80.628906 45.125 79.8125 42.898438 77.96875 41.507812 C 61.519531 26.425781 34.429688 26.425781 17.976562 41.507812 C 16.347656 42.910156 15.660156 45.007812 16.167969 47.003906 Z M 16.214844 47.007812 "/>
</g>
<g clip-path="url(#clip3)" clip-rule="nonzero">
<path style=" stroke:none;fill-rule:nonzero;fill:rgb(74.509804%,74.509804%,74.509804%);fill-opacity:1;" d="M 2.746094 33.992188 C 3.089844 36.078125 4.621094 37.816406 6.746094 38.546875 C 8.871094 39.273438 11.253906 38.871094 12.96875 37.492188 C 13.15625 37.339844 13.335938 37.171875 13.503906 36.992188 C 32.546875 19.289062 63.300781 19.289062 82.347656 36.992188 C 83.722656 38.976562 86.261719 39.980469 88.753906 39.53125 C 91.25 39.085938 93.199219 37.273438 93.683594 34.953125 C 94.164062 32.632812 93.085938 30.273438 90.953125 28.996094 C 67.148438 6.867188 28.699219 6.867188 4.894531 28.996094 C 3.335938 30.230469 2.535156 32.101562 2.746094 33.992188 Z M 2.746094 33.992188 "/>
</g>
<path style=" stroke:none;fill-rule:nonzero;fill:rgb(74.509804%,74.509804%,74.509804%);fill-opacity:1;" d="M 60 78 C 60 84.625 54.628906 90 48 90 C 41.375 90 36 84.625 36 78 C 36 71.375 41.375 66 48 66 C 54.628906 66 60 71.375 60 78 Z M 60 78 "/>
</g>
</svg>
