<?xml version="1.0" encoding="UTF-8"?>
<svg xmlns="http://www.w3.org/2000/svg" xmlns:xlink="http://www.w3.org/1999/xlink" width="48" height="48" viewBox="0 0 48 48" version="1.1">
<g id="surface1">
<path style=" stroke:none;fill-rule:nonzero;fill:rgb(74.509804%,74.509804%,74.509804%);fill-opacity:1;" d="M 7.5 3 C 3.34375 3 0 6.34375 0 10.5 L 0 34.5 C 0 38.65625 3.34375 42 7.5 42 L 7.5 36 C 6.667969 36 6 35.332031 6 34.5 L 6 30 L 42 30 L 42 34.5 C 42 35.332031 41.332031 36 40.5 36 L 40.5 42 C 44.65625 42 48 38.65625 48 34.5 L 48 10.5 C 48 6.34375 44.65625 3 40.5 3 Z M 7.5 3 "/>
<path style=" stroke:none;fill-rule:nonzero;fill:rgb(74.509804%,74.509804%,74.509804%);fill-opacity:1;" d="M 8.640625 33.121094 C 8.640625 41.191406 15.535156 47.832031 23.988281 47.832031 C 32.4375 47.832031 39.390625 41.191406 39.390625 33.121094 L 33.339844 33.121094 C 33.339844 38.078125 29.175781 42.054688 23.988281 42.054688 C 18.796875 42.054688 14.691406 38.078125 14.691406 33.121094 Z M 8.640625 33.121094 "/>
<path style=" stroke:none;fill-rule:nonzero;fill:rgb(74.509804%,74.509804%,74.509804%);fill-opacity:1;" d="M 18 33 C 18 36.296875 20.703125 39 24 39 C 27.296875 39 30 36.296875 30 33 L 27 33 C 27 34.675781 25.675781 36 24 36 C 22.324219 36 21 34.675781 21 33 Z M 18 33 "/>
</g>
</svg>
