<?xml version="1.0" encoding="UTF-8"?>
<svg xmlns="http://www.w3.org/2000/svg" xmlns:xlink="http://www.w3.org/1999/xlink" width="48" height="48" viewBox="0 0 48 48" version="1.1">
<g id="surface1">
<path style=" stroke:none;fill-rule:nonzero;fill:rgb(74.509804%,74.509804%,74.509804%);fill-opacity:1;" d="M 23.96875 3 C 12.441406 3 2.988281 12.453125 2.988281 23.980469 C 2.988281 35.507812 12.441406 45.027344 23.96875 45.027344 C 35.496094 45.027344 45.015625 35.507812 45.015625 23.980469 C 45.015625 12.453125 35.496094 3 23.96875 3 Z M 23.96875 15.027344 C 29.011719 15.027344 32.988281 18.9375 32.988281 23.980469 C 32.988281 29.023438 29.011719 33 23.96875 33 C 18.929688 33 15.015625 29.023438 15.015625 23.980469 C 15.015625 18.9375 18.929688 15.027344 23.96875 15.027344 Z M 23.96875 15.027344 "/>
<path style=" stroke:none;fill-rule:nonzero;fill:rgb(74.509804%,74.509804%,74.509804%);fill-opacity:1;" d="M 24.03125 18.03125 C 20.734375 18.03125 17.988281 20.722656 17.988281 24.019531 C 17.988281 27.316406 20.734375 30.007812 24.03125 30.007812 C 27.324219 30.007812 30.019531 27.316406 30.019531 24.019531 C 30.019531 20.722656 27.324219 18.03125 24.03125 18.03125 Z M 24.03125 21.023438 C 25.703125 21.023438 27.023438 22.34375 27.023438 24.019531 C 27.023438 25.695312 25.703125 27.015625 24.03125 27.015625 C 22.355469 27.015625 21.035156 25.695312 21.035156 24.019531 C 21.035156 22.34375 22.355469 21.023438 24.03125 21.023438 Z M 24.03125 21.023438 "/>
</g>
</svg>
