<?xml version="1.0" encoding="UTF-8"?>
<svg xmlns="http://www.w3.org/2000/svg" xmlns:xlink="http://www.w3.org/1999/xlink" width="48" height="48" viewBox="0 0 48 48" version="1.1">
<defs>
<clipPath id="clip1">
  <path d="M 15.015625 24.28125 L 33.015625 24.28125 L 33.015625 30.003906 L 15.015625 30.003906 Z M 15.015625 24.28125 "/>
</clipPath>
<clipPath id="clip2">
  <path d="M 9.011719 15.09375 L 39.011719 15.09375 L 39.011719 24 L 9.011719 24 Z M 9.011719 15.09375 "/>
</clipPath>
<clipPath id="clip3">
  <path d="M 3.007812 6.1875 L 44.988281 6.1875 L 44.988281 18.007812 L 3.007812 18.007812 Z M 3.007812 6.1875 "/>
</clipPath>
</defs>
<g id="surface1">
<g clip-path="url(#clip1)" clip-rule="nonzero">
<path style=" stroke:none;fill-rule:nonzero;fill:rgb(74.509804%,74.509804%,74.509804%);fill-opacity:1;" d="M 14.308594 29.503906 C 14.4375 30.570312 15.296875 31.472656 16.511719 31.820312 C 17.726562 32.167969 19.070312 31.894531 19.957031 31.121094 C 22.214844 29.238281 25.816406 29.238281 28.074219 31.121094 C 28.835938 32.007812 30.152344 32.4375 31.429688 32.214844 C 32.707031 31.988281 33.703125 31.15625 33.96875 30.085938 C 34.234375 29.023438 33.714844 27.925781 32.648438 27.296875 C 27.878906 23.320312 20.125 23.320312 15.355469 27.296875 C 14.613281 27.855469 14.21875 28.671875 14.28125 29.503906 Z M 14.308594 29.503906 "/>
</g>
<g clip-path="url(#clip2)" clip-rule="nonzero">
<path style=" stroke:none;fill-rule:nonzero;fill:rgb(74.509804%,74.509804%,74.509804%);fill-opacity:1;" d="M 8.105469 23.503906 C 8.382812 24.515625 9.238281 25.308594 10.335938 25.578125 C 11.4375 25.847656 12.609375 25.546875 13.398438 24.796875 C 19.230469 19.453125 28.742188 19.453125 34.574219 24.796875 C 35.332031 25.640625 36.546875 26.015625 37.703125 25.765625 C 38.867188 25.515625 39.769531 24.6875 40.042969 23.625 C 40.3125 22.5625 39.90625 21.449219 38.984375 20.753906 C 30.761719 13.210938 17.214844 13.210938 8.988281 20.753906 C 8.175781 21.457031 7.828125 22.503906 8.085938 23.5 Z M 8.105469 23.503906 "/>
</g>
<g clip-path="url(#clip3)" clip-rule="nonzero">
<path style=" stroke:none;fill-rule:nonzero;fill:rgb(74.509804%,74.509804%,74.509804%);fill-opacity:1;" d="M 1.371094 16.996094 C 1.546875 18.039062 2.3125 18.90625 3.375 19.273438 C 4.4375 19.636719 5.625 19.4375 6.484375 18.746094 C 6.578125 18.667969 6.667969 18.585938 6.75 18.496094 C 16.273438 9.644531 31.652344 9.644531 41.171875 18.496094 C 41.863281 19.488281 43.132812 19.992188 44.378906 19.765625 C 45.625 19.542969 46.601562 18.636719 46.839844 17.476562 C 47.082031 16.316406 46.542969 15.136719 45.476562 14.496094 C 33.574219 3.433594 14.351562 3.433594 2.449219 14.496094 C 1.667969 15.117188 1.265625 16.050781 1.371094 16.996094 Z M 1.371094 16.996094 "/>
</g>
<path style=" stroke:none;fill-rule:nonzero;fill:rgb(74.509804%,74.509804%,74.509804%);fill-opacity:1;" d="M 30 39 C 30 42.3125 27.316406 45 24 45 C 20.6875 45 18 42.3125 18 39 C 18 35.6875 20.6875 33 24 33 C 27.316406 33 30 35.6875 30 39 Z M 30 39 "/>
</g>
</svg>
