<?xml version="1.0" encoding="UTF-8"?>
<svg xmlns="http://www.w3.org/2000/svg" xmlns:xlink="http://www.w3.org/1999/xlink" width="28" height="28" viewBox="0 0 28 28" version="1.1">
<g id="surface1">
<path style=" stroke:none;fill-rule:evenodd;fill:rgb(0%,26.666667%,33.333333%);fill-opacity:1;" d="M 3.53125 8.617188 L 6.511719 11.53125 L 6.417969 7.441406 L 3.527344 7.429688 Z M 3.53125 8.617188 "/>
<path style="fill-rule:evenodd;fill:rgb(94.901961%,94.901961%,94.901961%);fill-opacity:1;stroke-width:5.03546;stroke-linecap:butt;stroke-linejoin:miter;stroke:rgb(68.627451%,68.627451%,68.627451%);stroke-opacity:1;stroke-miterlimit:4;" d="M 97.02846 1029.831488 L 433.942522 1028.645662 L 435.128348 664.806376 L 347.02846 575.590416 L 97.02846 575.590416 Z M 97.02846 1029.831488 " transform="matrix(0.056,0,0,0.056,0,-30.932282)"/>
<path style=" stroke:none;fill-rule:nonzero;fill:rgb(21.568627%,67.058824%,78.431373%);fill-opacity:1;" d="M 14.226562 12.566406 C 14.140625 12.800781 14.039062 13.035156 13.941406 13.261719 C 13.933594 13.28125 13.917969 13.296875 13.910156 13.316406 C 13.816406 13.523438 13.726562 13.714844 13.625 13.914062 C 13.601562 13.957031 13.582031 14 13.5625 14.039062 C 13.46875 14.214844 13.375 14.398438 13.273438 14.566406 C 13.242188 14.628906 13.203125 14.691406 13.167969 14.75 C 12.296875 16.214844 11.144531 17.742188 10.238281 19.027344 C 9.519531 19.992188 9.105469 21.035156 8.984375 22.039062 C 8.984375 24.539062 11.328125 26.566406 14.226562 26.566406 C 17.125 26.566406 19.472656 24.539062 19.472656 22.039062 C 19.472656 20.46875 18.214844 18.851562 16.765625 16.777344 C 16.308594 16.132812 15.863281 15.457031 15.46875 14.816406 C 15.25 14.46875 15.039062 14.109375 14.832031 13.734375 C 14.765625 13.617188 14.699219 13.492188 14.636719 13.375 C 14.5 13.113281 14.355469 12.839844 14.226562 12.566406 Z M 14.226562 12.566406 "/>
<path style=" stroke:none;fill-rule:nonzero;fill:rgb(0%,53.333333%,66.666667%);fill-opacity:1;" d="M 10.226562 19.027344 C 9.507812 19.992188 9.09375 21.035156 8.972656 22.039062 C 8.972656 24.539062 11.316406 26.566406 14.214844 26.566406 C 17.113281 26.566406 19.460938 24.539062 19.460938 22.039062 C 9.710938 24.957031 11.140625 18.488281 14.984375 19.59375 C 19.214844 20.808594 16.816406 17.847656 14.042969 17.53125 C 11.808594 17.28125 10.226562 19.027344 10.226562 19.027344 Z M 10.226562 19.027344 "/>
<path style="fill-rule:evenodd;fill:rgb(68.627451%,68.627451%,68.627451%);fill-opacity:1;stroke-width:5.03546;stroke-linecap:butt;stroke-linejoin:miter;stroke:rgb(68.627451%,68.627451%,68.627451%);stroke-opacity:1;stroke-miterlimit:4;" d="M 431.501116 662.923006 L 349.330357 662.36497 L 350.097656 578.520104 Z M 431.501116 662.923006 " transform="matrix(0.056,0,0,0.056,0,-30.932282)"/>
<path style=" stroke:none;fill-rule:nonzero;fill:rgb(0%,53.333333%,66.666667%);fill-opacity:1;" d="M 3.535156 3.910156 L 16.132812 3.910156 L 16.132812 8.632812 L 3.535156 8.632812 Z M 3.535156 3.910156 "/>
<path style="fill:none;stroke-width:9;stroke-linecap:butt;stroke-linejoin:miter;stroke:rgb(100%,100%,100%);stroke-opacity:1;stroke-miterlimit:4;" d="M 133.343729 354.136392 L 133.273975 304.680477 " transform="matrix(0.056,0,0,0.056,-0.857874,-12.085544)"/>
<path style=" stroke:none;fill-rule:nonzero;fill:rgb(100%,100%,100%);fill-opacity:1;" d="M 6.367188 4.261719 L 6.863281 4.261719 L 6.863281 4.746094 L 6.367188 4.746094 Z M 6.367188 4.261719 "/>
<path style="fill:none;stroke-width:9;stroke-linecap:butt;stroke-linejoin:miter;stroke:rgb(100%,100%,100%);stroke-opacity:1;stroke-miterlimit:4;" d="M 122.801802 699.642056 L 122.801802 642.303886 " transform="matrix(0.056,0,0,0.056,1.771537,-31.461205)"/>
<path style="fill:none;stroke-width:8.670217;stroke-linecap:butt;stroke-linejoin:miter;stroke:rgb(100%,100%,100%);stroke-opacity:1;stroke-miterlimit:4;" d="M 96.225351 642.722413 L 149.378253 642.722413 " transform="matrix(0.056,0,0,0.056,1.771537,-31.461205)"/>
<path style="fill:none;stroke-width:9;stroke-linecap:butt;stroke-linejoin:miter;stroke:rgb(100%,100%,100%);stroke-opacity:1;stroke-miterlimit:4;" d="M 236.955915 633.347113 L 275.111607 633.974903 L 240.443638 689.011175 " transform="matrix(0.056,0,0,0.056,0,-30.932282)"/>
<path style="fill:none;stroke-width:9;stroke-linecap:round;stroke-linejoin:round;stroke:rgb(100%,100%,100%);stroke-opacity:1;stroke-miterlimit:4;" d="M 210.239955 686.500015 C 202.915737 686.848787 193.568638 683.570327 193.359375 672.897894 C 193.150112 662.225461 210.449219 659.08651 210.449219 659.08651 C 210.449219 659.08651 194.614955 654.273452 195.033482 644.856599 C 195.452009 635.509501 204.520089 632.300796 210.658482 632.510059 C 216.796875 632.719323 225.167411 635.997782 225.30692 645.693653 C 225.446429 655.389523 210.449219 658.249456 210.449219 658.249456 C 210.449219 658.249456 227.399554 662.643988 227.19029 672.897894 C 226.911272 683.1518 217.633929 686.151242 210.239955 686.500015 Z M 210.239955 686.500015 " transform="matrix(0.056,0,0,0.056,0,-30.932282)"/>
</g>
</svg>
