<svg xmlns="http://www.w3.org/2000/svg" width="16" height="16" version="1.1">
 <defs>
   <style id="current-color-scheme" type="text/css">
   .ColorScheme-Text { color: #e9ecf2; } .ColorScheme-Highlight { color:#5294e2; }
  </style>
  <linearGradient id="arrongin" x1="0%" x2="0%" y1="0%" y2="100%">
   <stop offset="0%" style="stop-color:#dd9b44; stop-opacity:1"/>
   <stop offset="100%" style="stop-color:#ad6c16; stop-opacity:1"/>
  </linearGradient>
  <linearGradient id="aurora" x1="0%" x2="0%" y1="0%" y2="100%">
   <stop offset="0%" style="stop-color:#09D4DF; stop-opacity:1"/>
   <stop offset="100%" style="stop-color:#9269F4; stop-opacity:1"/>
  </linearGradient>
  <linearGradient id="cyberneon" x1="0%" x2="0%" y1="0%" y2="100%">
    <stop offset="0" style="stop-color:#0abdc6; stop-opacity:1"/>
    <stop offset="1" style="stop-color:#ea00d9; stop-opacity:1"/>
  </linearGradient>
  <linearGradient id="fitdance" x1="0%" x2="0%" y1="0%" y2="100%">
   <stop offset="0%" style="stop-color:#1AD6AB; stop-opacity:1"/>
   <stop offset="100%" style="stop-color:#329DB6; stop-opacity:1"/>
  </linearGradient>
  <linearGradient id="oomox" x1="0%" x2="0%" y1="0%" y2="100%">
   <stop offset="0%" style="stop-color:#89f224; stop-opacity:1"/>
   <stop offset="100%" style="stop-color:#579916; stop-opacity:1"/>
  </linearGradient>
  <linearGradient id="rainblue" x1="0%" x2="0%" y1="0%" y2="100%">
   <stop offset="0%" style="stop-color:#00F260; stop-opacity:1"/>
   <stop offset="100%" style="stop-color:#0575E6; stop-opacity:1"/>
  </linearGradient>
  <linearGradient id="sunrise" x1="0%" x2="0%" y1="0%" y2="100%">
   <stop offset="0%" style="stop-color: #FF8501; stop-opacity:1"/>
   <stop offset="100%" style="stop-color: #FFCB01; stop-opacity:1"/>
  </linearGradient>
  <linearGradient id="telinkrin" x1="0%" x2="0%" y1="0%" y2="100%">
   <stop offset="0%" style="stop-color: #b2ced6; stop-opacity:1"/>
   <stop offset="100%" style="stop-color: #6da5b7; stop-opacity:1"/>
  </linearGradient>
  <linearGradient id="60spsycho" x1="0%" x2="0%" y1="0%" y2="100%">
   <stop offset="0%" style="stop-color: #df5940; stop-opacity:1"/>
   <stop offset="25%" style="stop-color: #d8d15f; stop-opacity:1"/>
   <stop offset="50%" style="stop-color: #e9882a; stop-opacity:1"/>
   <stop offset="100%" style="stop-color: #279362; stop-opacity:1"/>
  </linearGradient>
  <linearGradient id="90ssummer" x1="0%" x2="0%" y1="0%" y2="100%">
   <stop offset="0%" style="stop-color: #f618c7; stop-opacity:1"/>
   <stop offset="20%" style="stop-color: #94ffab; stop-opacity:1"/>
   <stop offset="50%" style="stop-color: #fbfd54; stop-opacity:1"/>
   <stop offset="100%" style="stop-color: #0f83ae; stop-opacity:1"/>
  </linearGradient>
 </defs>
 <path fill="url(#oomox)" class="ColorScheme-Text" d="M 7.84,0.06 C 6.61,0.79 6.78,1.69 6.93,2.09 5.13,2.36 3.39,3.4 2.81,5.28 2.53,5.07 2.22,4.93 1.87,4.93 0.84,4.93 0,6.02 0,7.31 0,8.6 0.84,9.65 1.87,9.65 2.34,9.65 2.76,9.44 3.09,9.09 5.81,7.82 10.18,7.62 12.97,9.12 13.28,9.44 13.68,9.65 14.12,9.65 15.16,9.65 16,8.6 16,7.31 16,6.02 15.16,4.93 14.12,4.93 13.69,4.93 13.31,5.13 13,5.43 12.49,3.73 11.16,2.52 9.18,2.15 9.01,1.51 8.9,0.24 10.81,0.37 8.64,-0.42 8.09,2 8.09,2 7.82,1.88 7.12,1.36 7.84,0.06 Z M 6,5 C 6.55,5 7,5.45 7,6 7,6.55 6.55,7 6,7 5.45,7 5,6.55 5,6 5,5.45 5.45,5 6,5 Z M 10,5 C 10.55,5 11,5.45 11,6 11,6.55 10.55,7 10,7 9.45,7 9,6.55 9,6 9,5.45 9.45,5 10,5 Z M 2,6 C 2.25,6 2.47,6.15 2.65,6.34 2.62,6.87 2.63,7.46 2.78,8.09 2.59,8.38 2.33,8.59 2,8.59 1.42,8.59 0.97,8.02 0.97,7.31 0.97,6.59 1.42,6 2,6 Z M 14.03,6 C 14.6,6 15.09,6.59 15.09,7.31 15.09,8.02 14.6,8.59 14.03,8.59 13.66,8.59 13.37,8.33 13.18,7.96 13.24,7.48 13.22,7.03 13.18,6.59 13.37,6.24 13.67,6 14.03,6 Z"/>
 <path fill="url(#oomox)" class="ColorScheme-Text" d="M 8,9 C 4.69,9 2,10.35 2,12 2,13.65 4.69,15 8,15 11.31,15 14,13.65 14,12 14,10.35 11.31,9 8,9 Z M 5.17,10.82 C 5.92,11.57 6.94,12 8,12 9.06,12 10.08,11.57 10.83,10.82 L 11.53,11.53 C 10.6,12.47 9.33,13 8,13 6.67,13 5.4,12.47 4.47,11.53 Z"/>
</svg>
