<?xml version="1.0" encoding="UTF-8"?>
<svg xmlns="http://www.w3.org/2000/svg" xmlns:xlink="http://www.w3.org/1999/xlink" width="22" height="22" viewBox="0 0 22 22" version="1.1">
<defs>
<filter id="alpha" filterUnits="objectBoundingBox" x="0%" y="0%" width="100%" height="100%">
  <feColorMatrix type="matrix" in="SourceGraphic" values="0 0 0 0 1 0 0 0 0 1 0 0 0 0 1 0 0 0 1 0"/>
</filter>
<image id="image14" width="22" height="22" xlink:href="data:image/png;base64,iVBORw0KGgoAAAANSUhEUgAAABYAAAAWCAYAAADEtGw7AAAABmJLR0QA/wD/AP+gvaeTAAAAWklEQVQ4jWNgGAWjYBSMglFAAmAkpOD/j2YlBuYceRTBv1MeMnLU3sOnj4Wg1UxveRn+nZdAE3tHUBtBg8kEQ89gwpH3gVmQgX2XAIrgT7cPjAJ/39PKUXgBAHxkEstfsPzCAAAAAElFTkSuQmCC"/>
<mask id="mask0">
  <g filter="url(#alpha)">
<use xlink:href="#image14"/>
  </g>
</mask>
<clipPath id="clip1">
  <rect x="0" y="0" width="22" height="22"/>
</clipPath>
<g id="surface13" clip-path="url(#clip1)">
<path style=" stroke:none;fill-rule:nonzero;fill:rgb(74.509804%,74.509804%,74.509804%);fill-opacity:1;" d="M 13.75 17.875 C 13.75 19.394531 12.519531 20.625 11 20.625 C 9.480469 20.625 8.25 19.394531 8.25 17.875 C 8.25 16.355469 9.480469 15.125 11 15.125 C 12.519531 15.125 13.75 16.355469 13.75 17.875 Z M 13.75 17.875 "/>
</g>
<image id="image23" width="22" height="22" xlink:href="data:image/png;base64,iVBORw0KGgoAAAANSUhEUgAAABYAAAAWCAYAAADEtGw7AAAABmJLR0QA/wD/AP+gvaeTAAAAXklEQVQ4jWNgGGqAkYGBgeF/QzMTg08DM1VM3NLwl7Gh9h/E4O97FRmYGC2oYvC//ycYOZ3vM1HFMCxg1GA4YGFgYGBg6Dz2kMGn4QlVTNzS8Jcq5oyCUTAKRgElAAAcuhQgV45ZjgAAAABJRU5ErkJggg=="/>
<mask id="mask1">
  <g filter="url(#alpha)">
<use xlink:href="#image23"/>
  </g>
</mask>
<clipPath id="clip2">
  <rect x="0" y="0" width="22" height="22"/>
</clipPath>
<g id="surface22" clip-path="url(#clip2)">
<path style=" stroke:none;fill-rule:nonzero;fill:rgb(74.509804%,74.509804%,74.509804%);fill-opacity:1;" d="M 11 2.75 C 7.128906 2.75 3.890625 4.125 1.375 6.304688 L 1.375 8.25 L 3.410156 8.25 C 5.5 6.511719 7.835938 5.5 11 5.5 C 14.164062 5.5 16.5 6.570312 18.589844 8.25 L 20.625 8.25 L 20.625 6.351562 C 18.367188 4.335938 14.871094 2.75 11 2.75 Z M 11 2.75 "/>
</g>
<image id="image32" width="22" height="22" xlink:href="data:image/png;base64,iVBORw0KGgoAAAANSUhEUgAAABYAAAAWCAYAAADEtGw7AAAABmJLR0QA/wD/AP+gvaeTAAAAXUlEQVQ4jWNgGAWjAB0wogv8Z2DGECPOoL//8Rv8+78Dw78LEiSZymTwgpGV8QCyEAumqg+MDAzvSXT1Bwz1TKQZQDzA4mLDvwzMj/+QZMp/2b9Ucs8oGAWjYHACAN0aEgimBvM3AAAAAElFTkSuQmCC"/>
<mask id="mask2">
  <g filter="url(#alpha)">
<use xlink:href="#image32"/>
  </g>
</mask>
<clipPath id="clip3">
  <rect x="0" y="0" width="22" height="22"/>
</clipPath>
<g id="surface31" clip-path="url(#clip3)">
<path style=" stroke:none;fill-rule:nonzero;fill:rgb(74.509804%,74.509804%,74.509804%);fill-opacity:1;" d="M 11 6.875 C 8.019531 6.875 5.472656 7.890625 4.125 9.625 L 4.125 11 L 6.875 11 C 7.960938 10.167969 9.292969 9.625 11 9.625 C 12.707031 9.625 14.050781 10.167969 15.125 11 L 17.875 11 L 17.875 9.625 C 16.507812 7.945312 13.925781 6.875 11 6.875 Z M 11 6.875 "/>
</g>
<image id="image41" width="22" height="22" xlink:href="data:image/png;base64,iVBORw0KGgoAAAANSUhEUgAAABYAAAAWCAYAAADEtGw7AAAABmJLR0QA/wD/AP+gvaeTAAAAR0lEQVQ4jWNgGAWjYBQMI8CIS+I/AzMjwx+GELy6WRjWMDL8/Y9dCh/4e4aZgeE9DssF/zMwmOCxEx9gXHgdr/woGAXDHAAABI8Kgx4OGOsAAAAASUVORK5CYII="/>
<mask id="mask3">
  <g filter="url(#alpha)">
<use xlink:href="#image41"/>
  </g>
</mask>
<clipPath id="clip4">
  <rect x="0" y="0" width="22" height="22"/>
</clipPath>
<g id="surface40" clip-path="url(#clip4)">
<path style=" stroke:none;fill-rule:nonzero;fill:rgb(74.509804%,74.509804%,74.509804%);fill-opacity:1;" d="M 11 11 C 9.269531 11 7.953125 11.429688 6.875 12.375 L 6.875 13.75 L 15.125 13.75 L 15.125 12.375 C 13.972656 11.453125 12.730469 11 11 11 Z M 11 11 "/>
</g>
</defs>
<g id="surface5">
<path style=" stroke:none;fill-rule:nonzero;fill:rgb(74.509804%,74.509804%,74.509804%);fill-opacity:1;" d="M 15.125 15.125 L 17.015625 15.125 L 18.5625 16.628906 L 20.0625 15.128906 L 22 15.128906 L 22 17.148438 L 20.496094 18.609375 L 21.996094 20.070312 L 21.996094 22.007812 L 20.015625 22.007812 L 18.558594 20.550781 L 17.097656 22.007812 L 15.121094 22.007812 L 15.121094 20.074219 L 16.582031 18.613281 L 15.121094 17.15625 L 15.121094 15.132812 Z M 15.125 15.125 "/>
<use xlink:href="#surface13" mask="url(#mask0)"/>
<use xlink:href="#surface22" mask="url(#mask1)"/>
<use xlink:href="#surface31" mask="url(#mask2)"/>
<use xlink:href="#surface40" mask="url(#mask3)"/>
<path style=" stroke:none;fill-rule:nonzero;fill:rgb(100%,0%,0%);fill-opacity:1;" d="M 15.175781 21.019531 L 15.175781 20.019531 L 15.894531 19.292969 L 16.617188 18.570312 L 15.175781 17.121094 L 15.175781 15.121094 L 16.988281 15.121094 L 18.527344 16.648438 L 19.308594 15.886719 L 20.09375 15.121094 L 21.980469 15.121094 L 21.980469 17.128906 L 20.488281 18.613281 L 21.980469 20.113281 L 21.980469 22.019531 L 20.066406 22.019531 L 18.585938 20.53125 L 17.0625 22.019531 L 15.175781 22.019531 Z M 15.175781 21.019531 "/>
</g>
</svg>
