<?xml version="1.0" encoding="UTF-8"?>
<svg xmlns="http://www.w3.org/2000/svg" xmlns:xlink="http://www.w3.org/1999/xlink" width="22" height="22" viewBox="0 0 22 22" version="1.1">
<defs>
<clipPath id="clip1">
  <path d="M 0 0 L 22 0 L 22 13.75 L 0 13.75 Z M 0 0 "/>
</clipPath>
<clipPath id="clip2">
  <path d="M 9.625 13.75 L 0 4.125 L 0 -2.0625 L 22.6875 -2.0625 L 22.6875 4.125 L 12.375 13.75 Z M 9.625 13.75 "/>
</clipPath>
<filter id="alpha" filterUnits="objectBoundingBox" x="0%" y="0%" width="100%" height="100%">
  <feColorMatrix type="matrix" in="SourceGraphic" values="0 0 0 0 1 0 0 0 0 1 0 0 0 0 1 0 0 0 1 0"/>
</filter>
<image id="image11" width="22" height="22" xlink:href="data:image/png;base64,iVBORw0KGgoAAAANSUhEUgAAABYAAAAWCAYAAADEtGw7AAAABmJLR0QA/wD/AP+gvaeTAAAAU0lEQVQ4je3VsQ2AMAwF0TOGUdggLXMwJotkCCpaSoQCSvrULkD6N8BrD/6WAdTsUyia3mIVN+68wmlh8jFvQxjWJViwYMGCvwGPAPjywBV3EHYa0U8NBmEUs/0AAAAASUVORK5CYII="/>
<mask id="mask0">
  <g filter="url(#alpha)">
<use xlink:href="#image11"/>
  </g>
</mask>
<clipPath id="clip3">
  <rect x="0" y="0" width="22" height="22"/>
</clipPath>
<g id="surface10" clip-path="url(#clip3)">
<path style=" stroke:none;fill-rule:nonzero;fill:rgb(74.509804%,74.509804%,74.509804%);fill-opacity:1;" d="M 11 2.75 L 11 4.125 L 12.375 4.125 L 12.375 2.792969 C 11.929688 2.757812 11.46875 2.75 11 2.75 Z M 12.375 4.125 L 12.375 5.5 L 13.75 5.5 L 13.75 4.125 Z M 13.75 4.125 L 15.125 4.125 L 15.125 3.308594 C 14.679688 3.175781 14.230469 3.09375 13.75 3.007812 Z M 15.125 4.125 L 15.125 5.5 L 16.5 5.5 L 16.5 4.125 Z M 16.5 4.125 L 17.1875 4.125 C 16.960938 4.007812 16.738281 3.925781 16.5 3.824219 Z M 16.5 5.5 L 16.5 6.875 L 17.875 6.875 L 17.875 5.5 Z M 17.875 5.5 L 19.25 5.5 L 19.25 6.875 L 20.625 6.875 C 19.859375 5.953125 18.933594 5.144531 17.875 4.511719 Z M 20.625 6.875 L 20.625 8.25 L 19.25 8.25 L 19.25 9.625 L 17.875 9.625 L 17.875 11 L 16.5 11 L 16.5 12.375 L 15.125 12.375 L 15.125 13.75 L 13.75 13.75 L 13.75 12.375 L 12.375 12.375 L 12.375 13.75 L 11 13.75 L 11 12.375 L 9.625 12.375 L 9.625 13.75 L 8.25 13.75 L 8.25 12.375 L 6.875 12.375 L 6.875 11 L 5.5 11 L 5.5 9.625 L 4.125 9.625 L 4.125 8.25 L 2.75 8.25 L 2.75 6.875 L 1.976562 6.875 C -0.175781 9.421875 1.375 12.890625 1.375 16.5 C 1.375 23.671875 3.285156 24.75 11 24.75 C 18.714844 24.75 20.625 23.671875 20.625 16.5 C 20.625 13.234375 22.40625 9.019531 20.625 6.875 Z M 2.75 6.875 L 4.125 6.875 L 4.125 5.5 L 3.351562 5.5 C 3.152344 5.667969 2.9375 5.832031 2.75 6.015625 Z M 4.125 5.5 L 5.5 5.5 L 5.5 4.125 L 5.414062 4.125 C 4.960938 4.363281 4.535156 4.605469 4.125 4.898438 Z M 5.5 4.125 L 6.875 4.125 L 6.875 3.4375 C 6.398438 3.609375 5.9375 3.855469 5.5 4.082031 Z M 6.875 4.125 L 6.875 5.5 L 8.25 5.5 L 8.25 4.125 Z M 8.25 4.125 L 9.625 4.125 L 9.625 2.835938 C 9.152344 2.886719 8.695312 2.949219 8.25 3.050781 Z M 9.625 4.125 L 9.625 5.5 L 11 5.5 L 11 4.125 Z M 11 5.5 L 11 6.875 L 12.375 6.875 L 12.375 5.5 Z M 12.375 6.875 L 12.375 8.25 L 13.75 8.25 L 13.75 6.875 Z M 13.75 6.875 L 15.125 6.875 L 15.125 5.5 L 13.75 5.5 Z M 15.125 6.875 L 15.125 8.25 L 16.5 8.25 L 16.5 6.875 Z M 16.5 8.25 L 16.5 9.625 L 17.875 9.625 L 17.875 8.25 Z M 17.875 8.25 L 19.25 8.25 L 19.25 6.875 L 17.875 6.875 Z M 16.5 9.625 L 15.125 9.625 L 15.125 11 L 16.5 11 Z M 15.125 11 L 13.75 11 L 13.75 12.375 L 15.125 12.375 Z M 13.75 11 L 13.75 9.625 L 12.375 9.625 L 12.375 11 Z M 12.375 11 L 11 11 L 11 12.375 L 12.375 12.375 Z M 11 11 L 11 9.625 L 9.625 9.625 L 9.625 11 Z M 9.625 11 L 8.25 11 L 8.25 12.375 L 9.625 12.375 Z M 8.25 11 L 8.25 9.625 L 6.875 9.625 L 6.875 11 Z M 6.875 9.625 L 6.875 8.25 L 5.5 8.25 L 5.5 9.625 Z M 5.5 8.25 L 5.5 6.875 L 4.125 6.875 L 4.125 8.25 Z M 5.5 6.875 L 6.875 6.875 L 6.875 5.5 L 5.5 5.5 Z M 6.875 6.875 L 6.875 8.25 L 8.25 8.25 L 8.25 6.875 Z M 8.25 6.875 L 9.625 6.875 L 9.625 5.5 L 8.25 5.5 Z M 9.625 6.875 L 9.625 8.25 L 11 8.25 L 11 6.875 Z M 11 8.25 L 11 9.625 L 12.375 9.625 L 12.375 8.25 Z M 9.625 8.25 L 8.25 8.25 L 8.25 9.625 L 9.625 9.625 Z M 13.75 9.625 L 15.125 9.625 L 15.125 8.25 L 13.75 8.25 Z M 13.75 9.625 "/>
</g>
</defs>
<g id="surface2">
<g clip-path="url(#clip1)" clip-rule="nonzero">
<g clip-path="url(#clip2)" clip-rule="nonzero">
<use xlink:href="#surface10" mask="url(#mask0)"/>
</g>
</g>
<path style=" stroke:none;fill-rule:nonzero;fill:rgb(100%,100%,100%);fill-opacity:1;" d="M 13.75 17.875 C 13.75 19.394531 12.519531 20.625 11 20.625 C 9.480469 20.625 8.25 19.394531 8.25 17.875 C 8.25 16.355469 9.480469 15.125 11 15.125 C 12.519531 15.125 13.75 16.355469 13.75 17.875 Z M 13.75 17.875 "/>
</g>
</svg>
