<?xml version="1.0" encoding="UTF-8"?>
<svg xmlns="http://www.w3.org/2000/svg" xmlns:xlink="http://www.w3.org/1999/xlink" width="22" height="22" viewBox="0 0 22 22" version="1.1">
<defs>
<filter id="alpha" filterUnits="objectBoundingBox" x="0%" y="0%" width="100%" height="100%">
  <feColorMatrix type="matrix" in="SourceGraphic" values="0 0 0 0 1 0 0 0 0 1 0 0 0 0 1 0 0 0 1 0"/>
</filter>
<image id="image11" width="22" height="22" xlink:href="data:image/png;base64,iVBORw0KGgoAAAANSUhEUgAAABYAAAAWCAYAAADEtGw7AAAABmJLR0QA/wD/AP+gvaeTAAAAZElEQVQ4jWNgGAWjYBTgBIwMDAwM/99/FiBJ14cPPxgVZX/gU8LyfxUzMwOPSD4Dww9Gog3m4TnAwMBwAJ8SJqINIxGMGjxq8HAwmPE/AzMjw69cPZJ0/Vr5gpHn+UsauQk/AABzARLoW1bSbgAAAABJRU5ErkJggg=="/>
<mask id="mask0">
  <g filter="url(#alpha)">
<use xlink:href="#image11"/>
  </g>
</mask>
<clipPath id="clip1">
  <rect x="0" y="0" width="22" height="22"/>
</clipPath>
<g id="surface10" clip-path="url(#clip1)">
<path style=" stroke:none;fill-rule:nonzero;fill:rgb(74.509804%,74.509804%,74.509804%);fill-opacity:1;" d="M 6.875 9.625 C 6.449219 9.625 6.03125 9.75 5.757812 10.011719 L 0.808594 15.128906 L 5.835938 20.242188 C 6.105469 20.503906 6.441406 20.628906 6.867188 20.628906 L 8.242188 20.628906 L 8.242188 19.253906 C 8.242188 18.898438 8.0625 18.523438 7.8125 18.265625 L 6.050781 16.503906 L 12.367188 16.503906 C 13.09375 16.511719 13.742188 15.855469 13.742188 15.128906 C 13.742188 14.402344 13.09375 13.742188 12.367188 13.753906 L 6.007812 13.753906 L 7.683594 11.992188 C 7.9375 11.730469 8.242188 11.355469 8.242188 11.003906 L 8.242188 9.628906 Z M 6.875 9.625 "/>
</g>
</defs>
<g id="surface2">
<path style=" stroke:none;fill-rule:nonzero;fill:rgb(100%,100%,100%);fill-opacity:1;" d="M 15.125 12.375 C 15.550781 12.375 15.96875 12.25 16.242188 11.988281 L 21.191406 6.871094 L 16.160156 1.757812 C 15.886719 1.496094 15.554688 1.371094 15.128906 1.371094 L 13.753906 1.371094 L 13.753906 2.746094 C 13.753906 3.101562 13.929688 3.472656 14.183594 3.734375 L 15.945312 5.496094 L 9.628906 5.496094 C 8.902344 5.488281 8.253906 6.144531 8.253906 6.871094 C 8.253906 7.597656 8.902344 8.257812 9.628906 8.246094 L 15.988281 8.246094 L 14.3125 10.007812 C 14.0625 10.269531 13.753906 10.644531 13.753906 10.996094 L 13.753906 12.371094 Z M 15.125 12.375 "/>
<use xlink:href="#surface10" mask="url(#mask0)"/>
</g>
</svg>
