<?xml version="1.0" encoding="UTF-8"?>
<svg xmlns="http://www.w3.org/2000/svg" xmlns:xlink="http://www.w3.org/1999/xlink" width="22" height="22" viewBox="0 0 22 22" version="1.1">
<g id="surface1">
<path style=" stroke:none;fill-rule:evenodd;fill:rgb(100%,100%,100%);fill-opacity:1;" d="M 16.5 0 L 16.5 20.625 L 20.625 20.625 L 20.625 0 Z M 16.5 0 "/>
<path style=" stroke:none;fill-rule:evenodd;fill:rgb(100%,100%,100%);fill-opacity:1;" d="M 11 4.125 L 11 20.625 L 15.125 20.625 L 15.125 4.125 Z M 11 4.125 "/>
<path style=" stroke:none;fill-rule:evenodd;fill:rgb(100%,100%,100%);fill-opacity:1;" d="M 5.5 8.25 L 5.5 20.625 L 9.625 20.625 L 9.625 8.25 Z M 5.5 8.25 "/>
<path style=" stroke:none;fill-rule:evenodd;fill:rgb(100%,100%,100%);fill-opacity:1;" d="M 0 12.375 L 0 20.625 L 4.125 20.625 L 4.125 12.375 Z M 0 12.375 "/>
</g>
</svg>
