<?xml version="1.0" encoding="UTF-8"?>
<svg xmlns="http://www.w3.org/2000/svg" xmlns:xlink="http://www.w3.org/1999/xlink" width="16" height="16" viewBox="0 0 16 16" version="1.1">
<g id="surface1">
<path style=" stroke:none;fill-rule:nonzero;fill:rgb(100%,100%,100%);fill-opacity:1;" d="M 10.300781 0.667969 C 9.835938 0.667969 9.472656 0.667969 9.332031 0.675781 C 8.769531 0.710938 8.488281 1.0625 8.375 1.582031 C 8.359375 1.84375 8.375 6.167969 8.375 6.167969 C 8.375 6.699219 8.800781 7.136719 9.332031 7.136719 L 14.363281 7.136719 C 14.898438 7.136719 15.324219 6.699219 15.324219 6.167969 C 15.324219 5.632812 15.386719 1.652344 15.25 1.292969 C 15.113281 0.929688 14.777344 0.675781 14.363281 0.675781 C 14.054688 0.675781 11.699219 0.664062 10.300781 0.667969 Z M 9.675781 1.425781 L 14.011719 1.425781 C 14.320312 1.425781 14.574219 1.671875 14.574219 1.980469 L 14.574219 5.832031 C 14.574219 6.144531 14.320312 6.386719 14.011719 6.386719 L 9.675781 6.386719 C 9.367188 6.386719 9.113281 6.144531 9.113281 5.832031 L 9.113281 1.980469 C 9.113281 1.671875 9.367188 1.425781 9.675781 1.425781 Z M 4.082031 1.957031 C 3.628906 1.964844 3.183594 2.195312 2.917969 2.605469 C 2.488281 3.261719 2.675781 4.144531 3.332031 4.574219 C 3.992188 5 4.863281 4.8125 5.292969 4.15625 C 5.71875 3.5 5.542969 2.617188 4.886719 2.1875 C 4.640625 2.027344 4.355469 1.953125 4.082031 1.957031 Z M 2.269531 5 C 1.894531 5.007812 1.523438 5.203125 1.300781 5.542969 C 0.949219 6.085938 1.101562 6.800781 1.644531 7.15625 C 2.1875 7.511719 2.917969 7.367188 3.269531 6.824219 C 3.625 6.28125 3.46875 5.550781 2.925781 5.199219 C 2.722656 5.066406 2.496094 4.996094 2.269531 5 Z M 2.261719 8.574219 C 2.003906 8.578125 1.761719 8.6875 1.582031 8.886719 C 1.054688 8.9375 0.773438 9.277344 0.667969 9.78125 C 0.652344 10.042969 0.667969 14.363281 0.667969 14.363281 C 0.667969 14.898438 1.101562 15.332031 1.636719 15.332031 L 6.65625 15.332031 C 7.1875 15.332031 7.613281 14.898438 7.613281 14.363281 C 7.613281 13.832031 7.691406 9.851562 7.550781 9.488281 C 7.414062 9.128906 7.070312 8.875 6.65625 8.875 C 6.375 8.875 4.375 8.863281 2.96875 8.863281 C 2.921875 8.8125 2.863281 8.769531 2.800781 8.730469 C 2.636719 8.621094 2.445312 8.570312 2.261719 8.574219 Z M 1.96875 9.625 L 6.300781 9.625 C 6.613281 9.625 6.863281 9.867188 6.863281 10.175781 L 6.863281 14.03125 C 6.863281 14.339844 6.613281 14.582031 6.300781 14.582031 L 1.96875 14.582031 C 1.660156 14.582031 1.40625 14.339844 1.40625 14.03125 L 1.40625 10.175781 C 1.40625 9.867188 1.660156 9.625 1.96875 9.625 Z M 2.15625 10.363281 L 2.15625 13.84375 L 6.125 13.84375 L 6.125 10.363281 Z M 2.15625 10.363281 "/>
</g>
</svg>
