<?xml version="1.0" encoding="UTF-8"?>
<svg xmlns="http://www.w3.org/2000/svg" xmlns:xlink="http://www.w3.org/1999/xlink" width="16" height="16" viewBox="0 0 16 16" version="1.1">
<g id="surface1">
<path style=" stroke:none;fill-rule:nonzero;fill:rgb(100%,100%,100%);fill-opacity:1;" d="M 10.300781 0.667969 C 9.835938 0.667969 9.472656 0.667969 9.332031 0.675781 C 8.769531 0.710938 8.488281 1.0625 8.375 1.582031 C 8.359375 1.84375 8.375 6.167969 8.375 6.167969 C 8.375 6.699219 8.800781 7.136719 9.332031 7.136719 L 14.363281 7.136719 C 14.898438 7.136719 15.324219 6.699219 15.324219 6.167969 C 15.324219 5.632812 15.386719 1.652344 15.25 1.292969 C 15.113281 0.929688 14.777344 0.675781 14.363281 0.675781 C 14.054688 0.675781 11.699219 0.664062 10.300781 0.667969 Z M 9.675781 1.425781 L 14.011719 1.425781 C 14.320312 1.425781 14.574219 1.671875 14.574219 1.980469 L 14.574219 5.832031 C 14.574219 6.144531 14.320312 6.386719 14.011719 6.386719 L 9.675781 6.386719 C 9.367188 6.386719 9.113281 6.144531 9.113281 5.832031 L 9.113281 1.980469 C 9.113281 1.671875 9.367188 1.425781 9.675781 1.425781 Z M 2.207031 4.855469 C 1.421875 4.855469 0.789062 5.496094 0.792969 6.28125 C 0.792969 7.066406 1.433594 7.699219 2.21875 7.699219 C 3.003906 7.695312 3.636719 7.054688 3.636719 6.269531 C 3.632812 5.488281 2.992188 4.851562 2.207031 4.855469 Z M 2.21875 8.4375 C 1.8125 8.4375 1.460938 8.644531 1.25 8.957031 C 1.246094 8.960938 1.25 8.964844 1.25 8.96875 C 0.933594 9.109375 0.75 9.394531 0.667969 9.78125 C 0.660156 9.910156 0.664062 11.023438 0.667969 12.113281 C 0.667969 12.136719 0.667969 12.140625 0.667969 12.167969 C 0.667969 13.28125 0.667969 14.363281 0.667969 14.363281 C 0.667969 14.898438 1.101562 15.332031 1.636719 15.332031 L 6.65625 15.332031 C 7.1875 15.332031 7.613281 14.898438 7.613281 14.363281 C 7.613281 14.351562 7.613281 14.265625 7.613281 14.25 C 7.726562 14.128906 7.792969 13.96875 7.792969 13.792969 C 7.789062 13.621094 7.726562 13.472656 7.625 13.355469 C 7.640625 12.046875 7.664062 9.777344 7.550781 9.488281 C 7.414062 9.128906 7.070312 8.875 6.65625 8.875 C 6.386719 8.875 4.503906 8.863281 3.113281 8.863281 C 2.898438 8.605469 2.578125 8.4375 2.21875 8.4375 Z M 1.96875 9.625 L 6.300781 9.625 C 6.613281 9.625 6.863281 9.867188 6.863281 10.175781 L 6.863281 14.03125 C 6.863281 14.339844 6.613281 14.582031 6.300781 14.582031 L 1.96875 14.582031 C 1.660156 14.582031 1.40625 14.339844 1.40625 14.03125 L 1.40625 10.175781 C 1.40625 9.867188 1.660156 9.625 1.96875 9.625 Z M 2.15625 10.363281 L 2.15625 13.84375 L 6.125 13.84375 L 6.125 10.363281 Z M 10.363281 12.855469 C 10.140625 12.875 9.960938 13.050781 9.9375 13.28125 C 9.910156 13.546875 10.101562 13.785156 10.363281 13.8125 C 10.628906 13.839844 10.855469 13.660156 10.886719 13.394531 C 10.914062 13.132812 10.734375 12.894531 10.46875 12.863281 C 10.4375 12.859375 10.394531 12.851562 10.363281 12.855469 Z M 10.363281 12.855469 "/>
</g>
</svg>
