<?xml version="1.0" encoding="UTF-8"?>
<svg xmlns="http://www.w3.org/2000/svg" xmlns:xlink="http://www.w3.org/1999/xlink" width="16" height="16" viewBox="0 0 16 16" version="1.1">
<g id="surface1">
<path style=" stroke:none;fill-rule:nonzero;fill:rgb(100%,100%,100%);fill-opacity:1;" d="M 10.300781 0.667969 C 9.835938 0.667969 9.472656 0.667969 9.332031 0.675781 C 8.804688 0.707031 8.53125 1.023438 8.40625 1.488281 C 8.238281 1.175781 7.9375 0.9375 7.5625 0.875 C 7.484375 0.863281 7.402344 0.863281 7.324219 0.863281 C 6.777344 0.886719 6.300781 1.285156 6.207031 1.84375 C 6.101562 2.484375 6.539062 3.082031 7.175781 3.1875 C 7.664062 3.269531 8.132812 3.042969 8.375 2.644531 C 8.371094 3.929688 8.375 6.167969 8.375 6.167969 C 8.375 6.699219 8.800781 7.136719 9.332031 7.136719 L 14.363281 7.136719 C 14.898438 7.136719 15.324219 6.699219 15.324219 6.167969 C 15.324219 5.632812 15.386719 1.652344 15.25 1.292969 C 15.113281 0.929688 14.777344 0.675781 14.363281 0.675781 C 14.054688 0.675781 11.699219 0.664062 10.300781 0.667969 Z M 9.675781 1.425781 L 14.011719 1.425781 C 14.320312 1.425781 14.574219 1.671875 14.574219 1.980469 L 14.574219 5.832031 C 14.574219 6.144531 14.320312 6.386719 14.011719 6.386719 L 9.675781 6.386719 C 9.367188 6.386719 9.113281 6.144531 9.113281 5.832031 L 9.113281 1.980469 C 9.113281 1.671875 9.367188 1.425781 9.675781 1.425781 Z M 4.261719 2.417969 C 3.816406 2.433594 3.429688 2.761719 3.355469 3.21875 C 3.269531 3.738281 3.625 4.226562 4.144531 4.3125 C 4.667969 4.398438 5.152344 4.050781 5.238281 3.53125 C 5.324219 3.011719 4.980469 2.511719 4.457031 2.425781 C 4.394531 2.417969 4.324219 2.414062 4.261719 2.417969 Z M 2.40625 5.488281 C 2.089844 5.5 1.8125 5.730469 1.761719 6.050781 C 1.699219 6.421875 1.953125 6.773438 2.324219 6.832031 C 2.691406 6.894531 3.042969 6.640625 3.105469 6.269531 C 3.164062 5.902344 2.910156 5.5625 2.542969 5.5 C 2.496094 5.492188 2.453125 5.488281 2.40625 5.488281 Z M 2.59375 8.863281 C 2.128906 8.867188 1.777344 8.867188 1.636719 8.875 C 1.070312 8.90625 0.777344 9.261719 0.667969 9.78125 C 0.660156 9.910156 0.664062 11.023438 0.667969 12.113281 C 0.667969 12.136719 0.667969 12.140625 0.667969 12.167969 C 0.667969 13.28125 0.667969 14.363281 0.667969 14.363281 C 0.667969 14.898438 1.101562 15.332031 1.636719 15.332031 L 6.65625 15.332031 C 7.1875 15.332031 7.613281 14.898438 7.613281 14.363281 C 7.613281 13.832031 7.691406 9.851562 7.550781 9.488281 C 7.414062 9.128906 7.070312 8.875 6.65625 8.875 C 6.347656 8.875 3.988281 8.859375 2.59375 8.863281 Z M 1.96875 9.625 L 6.300781 9.625 C 6.613281 9.625 6.863281 9.867188 6.863281 10.175781 L 6.863281 14.03125 C 6.863281 14.339844 6.613281 14.582031 6.300781 14.582031 L 1.96875 14.582031 C 1.660156 14.582031 1.40625 14.339844 1.40625 14.03125 L 1.40625 10.175781 C 1.40625 9.867188 1.660156 9.625 1.96875 9.625 Z M 1.96875 9.625 "/>
</g>
</svg>
