<?xml version="1.0" encoding="UTF-8"?>
<svg xmlns="http://www.w3.org/2000/svg" xmlns:xlink="http://www.w3.org/1999/xlink" width="48" height="48" viewBox="0 0 48 48" version="1.1">
<defs>
<filter id="alpha" filterUnits="objectBoundingBox" x="0%" y="0%" width="100%" height="100%">
  <feColorMatrix type="matrix" in="SourceGraphic" values="0 0 0 0 1 0 0 0 0 1 0 0 0 0 1 0 0 0 1 0"/>
</filter>
<image id="image14" width="48" height="48" xlink:href="data:image/png;base64,iVBORw0KGgoAAAANSUhEUgAAADAAAAAwCAYAAABXAvmHAAAABmJLR0QA/wD/AP+gvaeTAAAAcklEQVRoge3VsQmAQBBE0Tk90NrkCrAHY2MLMLaTw9o8UDSwgUMWFuG/eJlhopUAAAAAAAAAAAB+JlgF3ec8SLmru04lxHW36I0WIa/c6dr6qtN2MmttzJKcMMAbA7wxwBsDvBl+4lTqP+x4SItdNfDdA/1wDGGZyg/yAAAAAElFTkSuQmCC"/>
<mask id="mask0">
  <g filter="url(#alpha)">
<use xlink:href="#image14"/>
  </g>
</mask>
<clipPath id="clip1">
  <rect x="0" y="0" width="48" height="48"/>
</clipPath>
<g id="surface13" clip-path="url(#clip1)">
<path style=" stroke:none;fill-rule:nonzero;fill:rgb(74.509804%,74.509804%,74.509804%);fill-opacity:1;" d="M 30 39 C 30 42.3125 27.3125 45 24 45 C 20.6875 45 18 42.3125 18 39 C 18 35.6875 20.6875 33 24 33 C 27.3125 33 30 35.6875 30 39 Z M 30 39 "/>
</g>
<image id="image23" width="48" height="48" xlink:href="data:image/png;base64,iVBORw0KGgoAAAANSUhEUgAAADAAAAAwCAYAAABXAvmHAAAABmJLR0QA/wD/AP+gvaeTAAAAdUlEQVRoge3VsQmAMBCF4YsG4mySAdzB2toBrN0kOJsBRSvBpFIQT/D/usc171UnAgCazDlsS1eLBKdV5hofjR2mI9n0GJysY/V2pVvKNomFUo3HMEAbA7QxQBsDtGWf2Mf8031PM4v02iUAAAAAAAAAAL+2A5TPDGGuOH/jAAAAAElFTkSuQmCC"/>
<mask id="mask1">
  <g filter="url(#alpha)">
<use xlink:href="#image23"/>
  </g>
</mask>
<clipPath id="clip2">
  <rect x="0" y="0" width="48" height="48"/>
</clipPath>
<g id="surface22" clip-path="url(#clip2)">
<path style=" stroke:none;fill-rule:nonzero;fill:rgb(74.509804%,74.509804%,74.509804%);fill-opacity:1;" d="M 24 6 C 15.558594 6 8.484375 9 3 13.757812 L 3 18 L 7.441406 18 C 12 14.207031 17.101562 12 24 12 C 30.898438 12 36 14.335938 40.558594 18 L 45 18 L 45 13.855469 C 40.078125 9.457031 32.441406 6 24 6 Z M 24 6 "/>
</g>
<image id="image32" width="48" height="48" xlink:href="data:image/png;base64,iVBORw0KGgoAAAANSUhEUgAAADAAAAAwCAYAAABXAvmHAAAABmJLR0QA/wD/AP+gvaeTAAAAdUlEQVRoge3UOwqAMBCE4Y0G4tkkB/AO1tYewNqbBM9mQNHayvURJfB/9ZDMNCsCAAAA4CajCW1LV4sEl7rMkY/GDtNZyuoeC07WsXpa6ZKyVcWKxDWSY8DfGPC37Acoz6iP2rP2nmYW6T/+EwAAAAAAALnYAeN2DFutVY7JAAAAAElFTkSuQmCC"/>
<mask id="mask2">
  <g filter="url(#alpha)">
<use xlink:href="#image32"/>
  </g>
</mask>
<clipPath id="clip3">
  <rect x="0" y="0" width="48" height="48"/>
</clipPath>
<g id="surface31" clip-path="url(#clip3)">
<path style=" stroke:none;fill-rule:nonzero;fill:rgb(74.509804%,74.509804%,74.509804%);fill-opacity:1;" d="M 24 15 C 17.5 15 11.941406 17.214844 9 21 L 9 24 L 15 24 C 17.367188 22.179688 20.277344 21 24 21 C 27.722656 21 30.65625 22.179688 33 24 L 39 24 L 39 21 C 36.015625 17.332031 30.378906 15 24 15 Z M 24 15 "/>
</g>
<image id="image41" width="48" height="48" xlink:href="data:image/png;base64,iVBORw0KGgoAAAANSUhEUgAAADAAAAAwCAYAAABXAvmHAAAABmJLR0QA/wD/AP+gvaeTAAAAaElEQVRoge3TywmAMBCE4YkGtDZJAfbg2bMFeLaTYG0GFO3BARX8v/vsA3YlAAAAAAAA/FFwwuc+dlJuvBFSCXFe76aj1zw3OpbWKlEPVryy0h/AAm8zfyAV94alfpMmswYAAAAA4HkXdgYMVcFYexcAAAAASUVORK5CYII="/>
<mask id="mask3">
  <g filter="url(#alpha)">
<use xlink:href="#image41"/>
  </g>
</mask>
<clipPath id="clip4">
  <rect x="0" y="0" width="48" height="48"/>
</clipPath>
<g id="surface40" clip-path="url(#clip4)">
<path style=" stroke:none;fill-rule:nonzero;fill:rgb(74.509804%,74.509804%,74.509804%);fill-opacity:1;" d="M 24 24 C 20.226562 24 17.351562 24.933594 15 27 L 15 30 L 33 30 L 33 27 C 30.488281 24.984375 27.773438 24 24 24 Z M 24 24 "/>
</g>
</defs>
<g id="surface5">
<use xlink:href="#surface13" mask="url(#mask0)"/>
<use xlink:href="#surface22" mask="url(#mask1)"/>
<use xlink:href="#surface31" mask="url(#mask2)"/>
<use xlink:href="#surface40" mask="url(#mask3)"/>
</g>
</svg>
