<?xml version="1.0" encoding="UTF-8"?>
<svg xmlns="http://www.w3.org/2000/svg" xmlns:xlink="http://www.w3.org/1999/xlink" width="48" height="48" viewBox="0 0 48 48" version="1.1">
<defs>
<filter id="alpha" filterUnits="objectBoundingBox" x="0%" y="0%" width="100%" height="100%">
  <feColorMatrix type="matrix" in="SourceGraphic" values="0 0 0 0 1 0 0 0 0 1 0 0 0 0 1 0 0 0 1 0"/>
</filter>
<image id="image13" width="48" height="48" xlink:href="data:image/png;base64,iVBORw0KGgoAAAANSUhEUgAAADAAAAAwCAYAAABXAvmHAAAABmJLR0QA/wD/AP+gvaeTAAAAkklEQVRoge3aMQqDUBAA0dUIejbxAN4hdWoPkNqbiGeLoJgqhYJFCh2Ved3yf7HTbxInM4+vMqLLt39UQ5K9+9+UHbHUf7o8prbYfH48F2O69zp7M4BmAM0AmgE0A2gG0AygGUAzgGYAzQCaATQDaAbQDKAZQDOAZgDNAJoBtMsHnPDUoBrW5wRL9SeiOWwb3d4XHO4Mo2R8VOsAAAAASUVORK5CYII="/>
<mask id="mask0">
  <g filter="url(#alpha)">
<use xlink:href="#image13"/>
  </g>
</mask>
<clipPath id="clip1">
  <rect x="0" y="0" width="48" height="48"/>
</clipPath>
<g id="surface12" clip-path="url(#clip1)">
<path style=" stroke:none;fill-rule:evenodd;fill:rgb(74.509804%,74.509804%,74.509804%);fill-opacity:1;" d="M 36 0 L 36 45 L 45 45 L 45 0 Z M 36 0 "/>
</g>
<image id="image22" width="48" height="48" xlink:href="data:image/png;base64,iVBORw0KGgoAAAANSUhEUgAAADAAAAAwCAYAAABXAvmHAAAABmJLR0QA/wD/AP+gvaeTAAAAiklEQVRoge3ZSw5AMBRG4euRsDaxAHswNrYAYztprI2EsAEV0dRPcr5pe9uecc0AAPixJPYF+9pVZq7w76iXJB+mp+fnTwfvc4VtY+ldztqg09Og6Q8gQI0ANQLUCFAjQI0ANQLUCFAjQI0ANQLUCFAjQI0ANQLUCFB74YemXq5/YZrZrI//DODcAZdeDJHAmBQCAAAAAElFTkSuQmCC"/>
<mask id="mask1">
  <g filter="url(#alpha)">
<use xlink:href="#image22"/>
  </g>
</mask>
<clipPath id="clip2">
  <rect x="0" y="0" width="48" height="48"/>
</clipPath>
<g id="surface21" clip-path="url(#clip2)">
<path style=" stroke:none;fill-rule:evenodd;fill:rgb(74.509804%,74.509804%,74.509804%);fill-opacity:1;" d="M 24 9 L 24 45 L 33 45 L 33 9 Z M 24 9 "/>
</g>
<image id="image31" width="48" height="48" xlink:href="data:image/png;base64,iVBORw0KGgoAAAANSUhEUgAAADAAAAAwCAYAAABXAvmHAAAABmJLR0QA/wD/AP+gvaeTAAAAg0lEQVRoge3YsQmAMBBG4YsKOptkAHewtnYAazcRZzOg6AQKMZgf4X1tcuReGzMAAAAAgIaLHTj3oTVb6vsbPrhqWlOWilHFjyy1HXNze1z2CevEK7K+9gEC1AhQI0CNADUC1AhQI0CNADUC1AhQI0Dt9wEvPrZ8eP686jaz8fVCQGYXi/8Mf1Oh8U8AAAAASUVORK5CYII="/>
<mask id="mask2">
  <g filter="url(#alpha)">
<use xlink:href="#image31"/>
  </g>
</mask>
<clipPath id="clip3">
  <rect x="0" y="0" width="48" height="48"/>
</clipPath>
<g id="surface30" clip-path="url(#clip3)">
<path style=" stroke:none;fill-rule:evenodd;fill:rgb(74.509804%,74.509804%,74.509804%);fill-opacity:1;" d="M 12 18 L 12 45 L 21 45 L 21 18 Z M 12 18 "/>
</g>
</defs>
<g id="surface4">
<use xlink:href="#surface12" mask="url(#mask0)"/>
<use xlink:href="#surface21" mask="url(#mask1)"/>
<use xlink:href="#surface30" mask="url(#mask2)"/>
<path style=" stroke:none;fill-rule:evenodd;fill:rgb(100%,100%,100%);fill-opacity:1;" d="M 0 27 L 0 45 L 9 45 L 9 27 Z M 0 27 "/>
</g>
</svg>
