<?xml version="1.0" encoding="UTF-8"?>
<svg xmlns="http://www.w3.org/2000/svg" xmlns:xlink="http://www.w3.org/1999/xlink" width="48" height="48" viewBox="0 0 48 48" version="1.1">
<g id="surface1">
<path style=" stroke:none;fill-rule:nonzero;fill:rgb(74.509804%,74.509804%,74.509804%);fill-opacity:1;" d="M 7.410156 3 C 7.410156 3 2.910156 3 2.910156 7.5 L 2.910156 43.40625 C 2.910156 43.40625 2.910156 48 7.410156 48 L 29.910156 48 L 29.910156 42 L 8.910156 42 L 8.910156 9 L 11.910156 9 L 11.910156 3 Z M 32.910156 3 L 32.910156 9 L 35.910156 9 L 35.910156 30 L 41.910156 30 L 41.910156 7.5 C 41.910156 3 37.410156 3 37.410156 3 Z M 32.910156 3 "/>
<path style=" stroke:none;fill-rule:nonzero;fill:rgb(74.509804%,74.509804%,74.509804%);fill-opacity:1;" d="M 16.5 0 L 28.40625 0 C 29.234375 0 29.90625 0.671875 29.90625 1.5 L 29.90625 10.5 C 29.90625 11.328125 29.234375 12 28.40625 12 L 16.5 12 C 15.671875 12 15 11.328125 15 10.5 L 15 1.5 C 15 0.671875 15.671875 0 16.5 0 Z M 16.5 0 "/>
<path style=" stroke:none;fill-rule:nonzero;fill:rgb(74.509804%,74.509804%,74.509804%);fill-opacity:1;" d="M 32.910156 33 L 37.035156 33 L 40.410156 36.28125 L 43.679688 33.011719 L 47.910156 33.011719 L 47.910156 37.417969 L 44.628906 40.605469 L 47.898438 43.785156 L 47.898438 48.015625 L 43.578125 48.015625 L 40.398438 44.835938 L 37.21875 48.015625 L 32.898438 48.015625 L 32.898438 43.796875 L 36.085938 40.609375 L 32.90625 37.429688 L 32.90625 33.019531 Z M 32.910156 33 "/>
<path style=" stroke:none;fill-rule:nonzero;fill:rgb(100%,100%,100%);fill-opacity:1;" d="M 15.722656 11.683594 C 15.117188 11.277344 15.03125 10.550781 15.03125 5.84375 L 15.03125 1.039062 L 16.027344 0.0429688 L 28.878906 0.0429688 L 29.378906 0.539062 L 29.878906 1.039062 L 29.878906 5.84375 C 29.878906 10.550781 29.792969 11.277344 29.1875 11.683594 C 29.0625 11.765625 26.03125 11.832031 22.453125 11.832031 C 18.875 11.832031 15.84375 11.765625 15.722656 11.683594 Z M 15.722656 11.683594 "/>
<path style=" stroke:none;fill-rule:nonzero;fill:rgb(100%,100%,100%);fill-opacity:1;" d="M 35.980469 19.464844 L 35.980469 8.988281 L 32.929688 8.988281 L 32.929688 3.089844 L 35.546875 3.089844 C 38.460938 3.089844 39.554688 3.351562 40.519531 4.269531 C 41.832031 5.515625 41.769531 4.867188 41.835938 17.988281 L 41.894531 29.9375 L 35.980469 29.9375 Z M 35.980469 19.464844 "/>
<path style=" stroke:none;fill-rule:nonzero;fill:rgb(100%,100%,100%);fill-opacity:1;" d="M 5.171875 47.375 C 4.261719 46.859375 3.539062 45.902344 3.238281 44.808594 C 3.105469 44.34375 3.03125 37.195312 3.03125 25.140625 L 3.03125 6.207031 L 3.503906 5.308594 C 3.8125 4.722656 4.316406 4.203125 4.960938 3.804688 C 5.917969 3.210938 6.035156 3.191406 8.863281 3.125 L 11.777344 3.054688 L 11.777344 8.988281 L 8.929688 8.988281 L 8.929688 42.140625 L 29.878906 42.140625 L 29.878906 47.835938 L 5.980469 47.828125 Z M 5.171875 47.375 "/>
<path style=" stroke:none;fill-rule:nonzero;fill:rgb(100%,0%,0%);fill-opacity:1;" d="M 32.929688 45.949219 L 32.929688 43.863281 L 34.554688 42.242188 L 36.183594 40.625 L 34.554688 38.988281 L 32.929688 37.351562 L 32.929688 32.988281 L 34.925781 32.988281 C 36.890625 32.988281 36.929688 33 37.515625 33.621094 C 37.84375 33.964844 38.648438 34.710938 39.296875 35.28125 L 40.484375 36.308594 L 43.820312 32.988281 L 47.777344 32.988281 L 47.777344 37.351562 L 46.140625 39 L 44.5 40.644531 L 46.140625 42.210938 L 47.777344 43.773438 L 47.777344 48.039062 L 43.65625 48.039062 L 40.335938 44.796875 L 37.109375 48.039062 L 32.929688 48.039062 Z M 32.929688 45.949219 "/>
</g>
</svg>
