<?xml version="1.0" encoding="UTF-8"?>
<svg xmlns="http://www.w3.org/2000/svg" xmlns:xlink="http://www.w3.org/1999/xlink" width="48" height="48" viewBox="0 0 48 48" version="1.1">
<g id="surface1">
<path style=" stroke:none;fill-rule:nonzero;fill:rgb(74.509804%,74.509804%,74.509804%);fill-opacity:1;" d="M 23.988281 8.96875 C 15.738281 8.96875 8.96875 15.738281 8.96875 23.988281 C 8.96875 32.238281 15.738281 39.007812 23.988281 39.007812 C 32.238281 39.007812 39.007812 32.238281 39.007812 23.988281 C 39.007812 15.738281 32.238281 8.96875 23.988281 8.96875 Z M 23.988281 8.96875 "/>
<path style=" stroke:none;fill-rule:nonzero;fill:rgb(74.509804%,74.509804%,74.509804%);fill-opacity:1;" d="M 1.6875 21 L 4.3125 21 C 5.242188 21 6 21.757812 6 22.6875 L 6 25.3125 C 6 26.242188 5.242188 27 4.3125 27 L 1.6875 27 C 0.757812 27 0 26.242188 0 25.3125 L 0 22.6875 C 0 21.757812 0.757812 21 1.6875 21 Z M 1.6875 21 "/>
<path style=" stroke:none;fill-rule:nonzero;fill:rgb(74.509804%,74.509804%,74.509804%);fill-opacity:1;" d="M 43.6875 21 L 46.3125 21 C 47.242188 21 48 21.757812 48 22.6875 L 48 25.3125 C 48 26.242188 47.242188 27 46.3125 27 L 43.6875 27 C 42.757812 27 42 26.242188 42 25.3125 L 42 22.6875 C 42 21.757812 42.757812 21 43.6875 21 Z M 43.6875 21 "/>
<path style=" stroke:none;fill-rule:nonzero;fill:rgb(74.509804%,74.509804%,74.509804%);fill-opacity:1;" d="M 27 1.6875 L 27 4.3125 C 27 5.242188 26.242188 6 25.3125 6 L 22.6875 6 C 21.757812 6 21 5.242188 21 4.3125 L 21 1.6875 C 21 0.757812 21.757812 0 22.6875 0 L 25.3125 0 C 26.242188 0 27 0.757812 27 1.6875 Z M 27 1.6875 "/>
<path style=" stroke:none;fill-rule:nonzero;fill:rgb(74.509804%,74.509804%,74.509804%);fill-opacity:1;" d="M 27 43.6875 L 27 46.3125 C 27 47.242188 26.242188 48 25.3125 48 L 22.6875 48 C 21.757812 48 21 47.242188 21 46.3125 L 21 43.6875 C 21 42.757812 21.757812 42 22.6875 42 L 25.3125 42 C 26.242188 42 27 42.757812 27 43.6875 Z M 27 43.6875 "/>
<path style=" stroke:none;fill-rule:nonzero;fill:rgb(74.509804%,74.509804%,74.509804%);fill-opacity:1;" d="M 41.902344 10.332031 L 40.042969 12.1875 C 39.386719 12.847656 38.316406 12.847656 37.65625 12.1875 L 35.800781 10.332031 C 35.144531 9.675781 35.144531 8.605469 35.800781 7.945312 L 37.65625 6.089844 C 38.316406 5.429688 39.386719 5.429688 40.042969 6.089844 L 41.902344 7.945312 C 42.5625 8.605469 42.5625 9.675781 41.902344 10.332031 Z M 41.902344 10.332031 "/>
<path style=" stroke:none;fill-rule:nonzero;fill:rgb(74.509804%,74.509804%,74.509804%);fill-opacity:1;" d="M 12.203125 40.03125 L 10.347656 41.890625 C 9.6875 42.546875 8.621094 42.546875 7.960938 41.890625 L 6.105469 40.03125 C 5.445312 39.375 5.445312 38.304688 6.105469 37.644531 L 7.960938 35.789062 C 8.621094 35.128906 9.6875 35.128906 10.347656 35.789062 L 12.203125 37.644531 C 12.859375 38.304688 12.859375 39.375 12.203125 40.03125 Z M 12.203125 40.03125 "/>
<path style=" stroke:none;fill-rule:nonzero;fill:rgb(74.509804%,74.509804%,74.509804%);fill-opacity:1;" d="M 10.332031 6.105469 L 12.1875 7.960938 C 12.847656 8.621094 12.847656 9.6875 12.1875 10.347656 L 10.332031 12.203125 C 9.675781 12.863281 8.605469 12.863281 7.945312 12.203125 L 6.089844 10.347656 C 5.429688 9.6875 5.429688 8.621094 6.089844 7.960938 L 7.945312 6.105469 C 8.605469 5.445312 9.675781 5.445312 10.332031 6.105469 Z M 10.332031 6.105469 "/>
<path style=" stroke:none;fill-rule:nonzero;fill:rgb(74.509804%,74.509804%,74.509804%);fill-opacity:1;" d="M 40.03125 35.804688 L 41.890625 37.660156 C 42.546875 38.320312 42.546875 39.386719 41.890625 40.046875 L 40.03125 41.902344 C 39.375 42.5625 38.304688 42.5625 37.644531 41.902344 L 35.789062 40.046875 C 35.128906 39.386719 35.128906 38.320312 35.789062 37.660156 L 37.644531 35.804688 C 38.304688 35.144531 39.375 35.144531 40.03125 35.804688 Z M 40.03125 35.804688 "/>
<path style=" stroke:none;fill-rule:nonzero;fill:rgb(100%,40%,0%);fill-opacity:1;" d="M 22.25 5.914062 C 21.71875 5.765625 21.265625 5.328125 21.109375 4.808594 C 20.976562 4.355469 20.972656 1.640625 21.105469 1.191406 C 21.226562 0.789062 21.582031 0.378906 21.972656 0.199219 C 22.277344 0.0585938 22.328125 0.0546875 24.015625 0.0546875 C 25.652344 0.0546875 25.757812 0.0585938 26.015625 0.183594 C 26.335938 0.339844 26.660156 0.65625 26.816406 0.96875 C 26.914062 1.171875 26.929688 1.398438 26.945312 2.894531 C 26.964844 4.769531 26.945312 4.929688 26.589844 5.378906 C 26.476562 5.515625 26.246094 5.691406 26.042969 5.792969 L 25.691406 5.964844 L 24.109375 5.976562 C 22.996094 5.988281 22.449219 5.96875 22.25 5.914062 Z M 22.25 5.914062 "/>
<path style=" stroke:none;fill-rule:nonzero;fill:rgb(100%,40%,0%);fill-opacity:1;" d="M 38.507812 12.628906 C 38.078125 12.515625 37.816406 12.308594 36.695312 11.179688 C 35.578125 10.050781 35.507812 9.96875 35.410156 9.625 C 35.339844 9.386719 35.316406 9.164062 35.339844 8.984375 C 35.417969 8.417969 35.585938 8.183594 36.695312 7.0625 C 37.898438 5.855469 38.238281 5.625 38.8125 5.625 C 39.484375 5.625 39.640625 5.726562 40.894531 6.96875 C 42.238281 8.296875 42.34375 8.457031 42.34375 9.152344 C 42.339844 9.507812 42.3125 9.675781 42.207031 9.867188 C 42.027344 10.207031 39.800781 12.40625 39.523438 12.523438 C 39.242188 12.640625 38.746094 12.691406 38.507812 12.628906 Z M 38.507812 12.628906 "/>
<path style=" stroke:none;fill-rule:nonzero;fill:rgb(100%,40%,0%);fill-opacity:1;" d="M 43.128906 26.867188 C 42.742188 26.730469 42.367188 26.394531 42.171875 25.996094 C 42.039062 25.726562 42.035156 25.648438 42.035156 24.011719 L 42.035156 22.308594 L 42.210938 21.953125 C 42.304688 21.761719 42.484375 21.515625 42.609375 21.414062 C 43.039062 21.0625 43.234375 21.035156 45.109375 21.054688 C 46.996094 21.074219 47.035156 21.082031 47.484375 21.519531 C 47.929688 21.949219 47.945312 22.035156 47.945312 23.980469 C 47.945312 25.671875 47.941406 25.722656 47.800781 26.027344 C 47.71875 26.199219 47.535156 26.445312 47.386719 26.570312 C 46.953125 26.941406 46.710938 26.984375 44.980469 26.984375 C 43.667969 26.980469 43.414062 26.964844 43.128906 26.867188 Z M 43.128906 26.867188 "/>
<path style=" stroke:none;fill-rule:nonzero;fill:rgb(100%,40%,0%);fill-opacity:1;" d="M 38.492188 42.335938 C 38.351562 42.308594 38.167969 42.25 38.089844 42.210938 C 37.84375 42.082031 35.625 39.84375 35.492188 39.585938 C 35.308594 39.238281 35.277344 38.714844 35.410156 38.308594 C 35.507812 38.007812 35.640625 37.851562 36.734375 36.757812 C 37.824219 35.667969 37.980469 35.53125 38.28125 35.4375 C 38.679688 35.304688 39.203125 35.332031 39.558594 35.496094 C 39.703125 35.566406 40.257812 36.0625 40.90625 36.699219 C 42.191406 37.964844 42.347656 38.207031 42.335938 38.871094 C 42.332031 39.101562 42.285156 39.382812 42.222656 39.523438 C 42.0625 39.894531 39.902344 42.046875 39.53125 42.203125 C 39.167969 42.359375 38.820312 42.402344 38.492188 42.335938 Z M 38.492188 42.335938 "/>
<path style=" stroke:none;fill-rule:nonzero;fill:rgb(100%,40%,0%);fill-opacity:1;" d="M 22.148438 47.890625 C 21.78125 47.753906 21.421875 47.445312 21.234375 47.101562 L 21.046875 46.765625 L 21.046875 43.234375 L 21.234375 42.902344 C 21.441406 42.523438 21.839844 42.199219 22.222656 42.089844 C 22.386719 42.042969 23.039062 42.027344 24.140625 42.039062 C 25.601562 42.058594 25.839844 42.074219 26.015625 42.167969 C 26.363281 42.359375 26.664062 42.667969 26.8125 42.988281 C 26.953125 43.289062 26.957031 43.347656 26.957031 45 C 26.957031 46.65625 26.953125 46.710938 26.8125 47.015625 C 26.730469 47.1875 26.546875 47.429688 26.402344 47.554688 C 25.949219 47.945312 25.777344 47.972656 23.960938 47.96875 C 22.890625 47.964844 22.28125 47.9375 22.148438 47.890625 Z M 22.148438 47.890625 "/>
<path style=" stroke:none;fill-rule:nonzero;fill:rgb(100%,40%,0%);fill-opacity:1;" d="M 8.601562 42.261719 C 8.257812 42.140625 7.921875 41.859375 6.917969 40.835938 C 5.773438 39.675781 5.664062 39.503906 5.664062 38.839844 C 5.664062 38.15625 5.761719 38.003906 7.042969 36.722656 C 8.292969 35.476562 8.484375 35.34375 9.089844 35.34375 C 9.792969 35.339844 9.851562 35.378906 11.164062 36.667969 C 12.515625 38 12.65625 38.207031 12.65625 38.839844 C 12.65625 39.457031 12.527344 39.644531 11.277344 40.90625 C 10 42.191406 9.78125 42.339844 9.160156 42.332031 C 8.957031 42.332031 8.703125 42.296875 8.601562 42.261719 Z M 8.601562 42.261719 "/>
<path style=" stroke:none;fill-rule:nonzero;fill:rgb(100%,40%,0%);fill-opacity:1;" d="M 1.226562 26.917969 C 0.8125 26.796875 0.441406 26.476562 0.226562 26.058594 L 0.0195312 25.660156 L 0.0390625 23.921875 C 0.0546875 22.402344 0.0703125 22.160156 0.167969 21.984375 C 0.359375 21.636719 0.667969 21.335938 0.988281 21.1875 C 1.289062 21.046875 1.347656 21.042969 3 21.042969 C 4.652344 21.042969 4.710938 21.046875 5.011719 21.1875 C 5.332031 21.335938 5.640625 21.636719 5.832031 21.984375 C 5.925781 22.160156 5.941406 22.398438 5.960938 23.859375 C 5.972656 24.960938 5.957031 25.613281 5.910156 25.777344 C 5.800781 26.160156 5.476562 26.558594 5.097656 26.765625 L 4.765625 26.953125 L 3.09375 26.964844 C 2.171875 26.96875 1.332031 26.949219 1.226562 26.917969 Z M 1.226562 26.917969 "/>
<path style=" stroke:none;fill-rule:nonzero;fill:rgb(100%,40%,0%);fill-opacity:1;" d="M 8.578125 12.566406 C 8.289062 12.460938 8.097656 12.300781 7.078125 11.28125 C 5.753906 9.960938 5.636719 9.785156 5.636719 9.152344 C 5.636719 8.515625 5.753906 8.34375 7.097656 7.007812 C 8.234375 5.878906 8.308594 5.816406 8.660156 5.714844 C 9.097656 5.589844 9.5 5.621094 9.882812 5.8125 C 10.253906 6 12.222656 7.964844 12.453125 8.371094 C 12.601562 8.640625 12.625 8.757812 12.625 9.152344 C 12.625 9.546875 12.601562 9.664062 12.453125 9.9375 C 12.222656 10.347656 10.253906 12.304688 9.875 12.496094 C 9.492188 12.6875 8.996094 12.714844 8.578125 12.566406 Z M 8.578125 12.566406 "/>
<path style=" stroke:none;fill-rule:nonzero;fill:rgb(100%,100%,0%);fill-opacity:1;" d="M 22.6875 38.929688 C 20.832031 38.753906 19.214844 38.300781 17.511719 37.480469 C 13.0625 35.34375 9.921875 31.109375 9.15625 26.210938 C 9.019531 25.34375 8.972656 23.460938 9.0625 22.554688 C 9.761719 15.546875 15.265625 9.945312 22.285156 9.089844 C 23.082031 8.988281 24.894531 8.988281 25.691406 9.089844 C 32.429688 9.910156 37.765625 15.070312 38.828125 21.789062 C 38.984375 22.789062 38.984375 25.179688 38.828125 26.175781 C 38.058594 31.042969 35.046875 35.183594 30.660156 37.390625 C 28.199219 38.628906 25.34375 39.179688 22.6875 38.929688 Z M 22.6875 38.929688 "/>
</g>
</svg>
