<?xml version="1.0" encoding="UTF-8"?>
<svg xmlns="http://www.w3.org/2000/svg" xmlns:xlink="http://www.w3.org/1999/xlink" width="256" height="256" viewBox="0 0 256 256" version="1.1">
<g id="surface1">
<path style=" stroke:none;fill-rule:nonzero;fill:rgb(74.509804%,74.509804%,74.509804%);fill-opacity:1;" d="M 16 80 L 55.75 80 L 103.25 32 L 112 32.25 L 112 224.25 L 104.398438 224.265625 L 55.75 176 L 16 176 Z M 16 80 "/>
<path style=" stroke:none;fill-rule:nonzero;fill:rgb(74.509804%,74.509804%,74.509804%);fill-opacity:1;" d="M 190.078125 16 C 186.5 16.390625 183.148438 17.976562 180.578125 20.5 L 148.578125 52.5 C 144.414062 56.59375 142.765625 62.617188 144.265625 68.257812 C 145.757812 73.90625 150.171875 78.320312 155.820312 79.8125 C 161.46875 81.3125 167.484375 79.664062 171.578125 75.5 L 203.578125 43.5 C 208.789062 38.6875 210.210938 31.015625 207.070312 24.65625 C 203.921875 18.296875 196.96875 14.765625 189.976562 15.976562 Z M 190.078125 16 "/>
<path style=" stroke:none;fill-rule:nonzero;fill:rgb(74.509804%,74.509804%,74.509804%);fill-opacity:1;" d="M 156.476562 176 C 150.507812 177.085938 145.664062 181.445312 143.96875 187.273438 C 142.273438 193.101562 144.023438 199.382812 148.476562 203.5 L 180.476562 235.5 C 184.578125 239.664062 190.59375 241.3125 196.242188 239.8125 C 201.890625 238.320312 206.296875 233.90625 207.796875 228.257812 C 209.289062 222.617188 207.648438 216.601562 203.476562 212.5 L 171.476562 180.5 C 167.59375 176.484375 161.890625 174.78125 156.4375 176.023438 Z M 156.476562 176 "/>
<path style=" stroke:none;fill-rule:nonzero;fill:rgb(74.509804%,74.509804%,74.509804%);fill-opacity:1;" d="M 158.5625 112 C 152.789062 112.179688 147.5625 115.460938 144.882812 120.570312 C 142.203125 125.679688 142.476562 131.84375 145.609375 136.695312 C 148.742188 141.546875 154.234375 144.335938 160 144 L 224.5 144.5 C 230.265625 144.578125 235.632812 141.546875 238.546875 136.5625 C 241.453125 131.578125 241.453125 125.414062 238.546875 120.429688 C 235.632812 115.445312 230.265625 112.414062 224.5 112.5 L 160.015625 112.015625 C 159.523438 111.992188 159.015625 111.992188 158.523438 112.015625 Z M 158.5625 112 "/>
<path style=" stroke:none;fill-rule:nonzero;fill:rgb(74.509804%,74.509804%,74.509804%);fill-opacity:1;" d="M 144 64 L 160 64 L 160 80 L 144 80 Z M 144 64 "/>
<path style=" stroke:none;fill-rule:nonzero;fill:rgb(74.509804%,74.509804%,74.509804%);fill-opacity:1;" d="M 144 176 L 160 176 L 160 192 L 144 192 Z M 144 176 "/>
</g>
</svg>
