<?xml version="1.0" encoding="UTF-8"?>
<svg xmlns="http://www.w3.org/2000/svg" xmlns:xlink="http://www.w3.org/1999/xlink" width="256" height="256" viewBox="0 0 256 256" version="1.1">
<g id="surface1">
<path style=" stroke:none;fill-rule:nonzero;fill:rgb(74.509804%,74.509804%,74.509804%);fill-opacity:1;" d="M 127.507812 0 C 74.617188 0 31.125 48.132812 32.007812 91.5 C 32.992188 139.859375 46.945312 166.625 50.007812 176 L 72.414062 176 C 53.828125 139.335938 55.625 93.5 55.625 93.5 C 55.625 55.539062 87.734375 24.5 127.5 24.5 C 167.273438 24.5 199.5 55.226562 199.375 94.5 C 199 121.289062 196.632812 131.039062 183.289062 171.5 L 208.421875 171.5 C 212.015625 161.1875 224.007812 138.453125 224.007812 93 C 224.007812 47.726562 180.390625 0 127.5 0 Z M 127.507812 0 "/>
<path style=" stroke:none;fill-rule:nonzero;fill:rgb(74.509804%,74.509804%,74.509804%);fill-opacity:1;" d="M 201.59375 112.867188 C 188.210938 109.132812 173.328125 118.8125 168.34375 134.492188 L 161.523438 155.976562 C 156.546875 171.65625 163.359375 187.390625 176.742188 191.125 C 190.125 194.867188 205.007812 185.179688 209.984375 169.507812 L 216.8125 148.023438 C 221.789062 132.34375 214.976562 116.601562 201.59375 112.867188 Z M 201.59375 112.867188 "/>
<path style=" stroke:none;fill-rule:nonzero;fill:rgb(74.509804%,74.509804%,74.509804%);fill-opacity:1;" d="M 55.242188 112.953125 C 68.625 109.21875 83.507812 118.898438 88.484375 134.578125 L 95.3125 156.0625 C 100.289062 171.742188 93.476562 187.476562 80.09375 191.210938 C 66.710938 194.953125 51.820312 185.265625 46.84375 169.59375 L 40.023438 148.109375 C 35.046875 132.429688 41.859375 116.6875 55.242188 112.953125 Z M 55.242188 112.953125 "/>
<path style=" stroke:none;fill-rule:nonzero;fill:rgb(74.509804%,74.509804%,74.509804%);fill-opacity:1;" d="M 112.757812 223.523438 L 143.757812 223.523438 C 152.453125 223.523438 159.507812 230.570312 159.507812 239.273438 C 159.507812 247.96875 152.453125 255.023438 143.757812 255.023438 L 112.757812 255.023438 C 104.0625 255.023438 97.007812 247.96875 97.007812 239.273438 C 97.007812 230.570312 104.0625 223.523438 112.757812 223.523438 Z M 112.757812 223.523438 "/>
<path style=" stroke:none;fill-rule:nonzero;fill:rgb(74.509804%,74.509804%,74.509804%);fill-opacity:1;" d="M 201.507812 150.5625 C 197.882812 151.210938 195.179688 154.25 194.9375 157.921875 C 194.703125 161.585938 197 164.945312 200.507812 166.0625 L 223.992188 174.539062 L 223.492188 202.539062 C 223.414062 211.054688 221.320312 216.421875 218.492188 219.539062 C 215.679688 222.578125 212.0625 224.023438 207.007812 224.023438 L 140.507812 224.023438 C 137.617188 223.976562 134.9375 225.492188 133.484375 227.984375 C 132.023438 230.476562 132.023438 233.5625 133.484375 236.054688 C 134.9375 238.546875 137.617188 240.0625 140.507812 240.023438 L 207.007812 240.023438 C 215.765625 240.023438 224.484375 236.65625 230.507812 230.023438 C 236.523438 223.382812 239.398438 213.875 239.507812 202.515625 L 240 168.921875 L 240 163.421875 L 235 161.421875 L 206.5 150.921875 C 204.929688 150.21875 203.179688 150.046875 201.5 150.421875 Z M 201.507812 150.5625 "/>
</g>
</svg>
