<?xml version="1.0" encoding="UTF-8"?>
<svg xmlns="http://www.w3.org/2000/svg" xmlns:xlink="http://www.w3.org/1999/xlink" width="256" height="256" viewBox="0 0 256 256" version="1.1">
<g id="surface1">
<path style=" stroke:none;fill-rule:nonzero;fill:rgb(74.509804%,74.509804%,74.509804%);fill-opacity:1;" d="M 63.820312 145.757812 C 78.953125 141.335938 95.085938 150.515625 99.867188 166.273438 L 110.664062 201.882812 C 115.445312 217.640625 107.046875 233.992188 91.921875 238.421875 C 76.789062 242.84375 60.648438 233.65625 55.875 217.90625 L 45.070312 182.289062 C 40.296875 166.539062 48.6875 150.179688 63.820312 145.757812 Z M 63.820312 145.757812 "/>
<path style=" stroke:none;fill-rule:nonzero;fill:rgb(74.509804%,74.509804%,74.509804%);fill-opacity:1;" d="M 127.507812 16 C 74.617188 16 31.125 64.132812 32.007812 107.5 C 32.78125 145.351562 44.945312 182.625 48.007812 192 L 72.414062 192 C 53.828125 155.335938 55.625 109.5 55.625 109.5 C 55.625 71.539062 87.734375 40.5 127.5 40.5 C 167.273438 40.5 199.5 69.734375 199.375 109 C 199 135.789062 196.632812 151.539062 183.289062 192 L 208.421875 192 C 212.015625 181.6875 224.007812 140.953125 224.007812 107.5 C 224.007812 62.226562 180.390625 16 127.5 16 Z M 127.507812 16 "/>
<path style=" stroke:none;fill-rule:nonzero;fill:rgb(74.509804%,74.509804%,74.509804%);fill-opacity:1;" d="M 192.1875 146.335938 C 177.054688 141.90625 160.914062 151.09375 156.140625 166.84375 L 145.335938 202.460938 C 140.5625 218.210938 148.953125 234.570312 164.085938 238.992188 C 179.21875 243.414062 195.359375 234.234375 200.132812 218.476562 L 210.929688 182.867188 C 215.710938 167.109375 207.320312 150.757812 192.1875 146.335938 Z M 192.1875 146.335938 "/>
</g>
</svg>
