<?xml version="1.0" encoding="UTF-8"?>
<svg xmlns="http://www.w3.org/2000/svg" xmlns:xlink="http://www.w3.org/1999/xlink" width="256" height="256" viewBox="0 0 256 256" version="1.1">
<g id="surface1">
<path style=" stroke:none;fill-rule:nonzero;fill:rgb(74.509804%,74.509804%,74.509804%);fill-opacity:1;" d="M 112.960938 0.15625 C 105.6875 0.953125 98.820312 3.703125 92.960938 8.15625 C 85.148438 14.101562 79.960938 23.4375 79.960938 35.15625 L 79.960938 120.15625 C 79.960938 120.15625 83.734375 128.273438 87.960938 128.273438 C 92.1875 128.273438 95.960938 120.15625 95.960938 120.15625 L 95.960938 35.15625 C 95.960938 27.976562 98.703125 23.898438 102.960938 20.65625 C 107.210938 17.421875 113.578125 15.859375 119.960938 16.15625 C 126.335938 16.460938 132.507812 18.625 136.960938 22.65625 C 141.414062 26.695312 144.460938 32.015625 144.460938 40.65625 C 144.460938 75.304688 167.882812 96.804688 192.460938 96.164062 C 206.164062 95.804688 219.46875 88.53125 228.460938 75.164062 L 219.460938 59.164062 C 213.453125 73.8125 202.375 79.890625 191.960938 80.164062 C 176.59375 80.5625 160.460938 68.484375 160.460938 40.65625 C 160.460938 27.992188 155.070312 17.554688 147.460938 10.65625 C 139.84375 3.765625 130.164062 0.625 120.460938 0.15625 C 118.03125 0.046875 115.382812 -0.101562 112.960938 0.15625 Z M 223.960938 32.15625 C 223.960938 32.890625 223.976562 33.453125 223.960938 34.15625 L 236.460938 56.15625 C 236.640625 55.507812 236.789062 54.828125 236.960938 54.15625 Z M 223.960938 37.65625 C 223.867188 39.359375 223.640625 41.078125 223.460938 42.65625 L 234.960938 62.164062 C 235.335938 61.164062 235.625 60.203125 235.960938 59.164062 Z M 222.960938 45.65625 C 222.742188 47.101562 222.25 48.328125 221.960938 49.65625 L 232.460938 67.65625 C 232.929688 66.6875 233.53125 65.679688 233.960938 64.65625 Z M 221.460938 52.65625 C 221.078125 54.085938 220.414062 55.367188 219.960938 56.65625 L 229.460938 73.15625 C 230.101562 72.117188 230.867188 71.265625 231.460938 70.15625 Z M 221.460938 52.65625 "/>
<path style=" stroke:none;fill-rule:nonzero;fill:rgb(74.509804%,74.509804%,74.509804%);fill-opacity:1;" d="M 43.632812 96.15625 L 132.367188 96.15625 C 138.789062 96.15625 144 101.367188 144 107.789062 L 144 212.53125 C 144 218.953125 138.789062 224.15625 132.367188 224.15625 L 43.632812 224.15625 C 37.210938 224.15625 32 218.953125 32 212.53125 L 32 107.789062 C 32 101.367188 37.210938 96.15625 43.632812 96.15625 Z M 43.632812 96.15625 "/>
</g>
</svg>
