<?xml version="1.0" encoding="UTF-8"?>
<svg xmlns="http://www.w3.org/2000/svg" xmlns:xlink="http://www.w3.org/1999/xlink" width="256" height="256" viewBox="0 0 256 256" version="1.1">
<g id="surface1">
<path style=" stroke:none;fill-rule:nonzero;fill:rgb(74.509804%,74.509804%,74.509804%);fill-opacity:1;" d="M 96 192 L 96 224 L 7.5 224 C 3.289062 224 0 227.289062 0 231.5 L 0 248.5 C 0 252.710938 3.289062 256 7.5 256 L 216.492188 256 C 220.703125 256 223.992188 252.710938 223.992188 248.5 L 223.992188 231.5 C 223.992188 227.289062 220.703125 224 216.492188 224 L 127.992188 224 L 127.992188 192 Z M 96 192 "/>
<path style=" stroke:none;fill-rule:nonzero;fill:rgb(74.509804%,74.509804%,74.509804%);fill-opacity:1;" d="M 64.796875 33.921875 L 64.796875 127.84375 L 160.046875 127.84375 L 160.046875 64.921875 L 128.046875 33.921875 Z M 32.046875 128.09375 L 32.046875 191.421875 L 191.546875 191.421875 L 191.546875 128.09375 L 176.296875 128.09375 L 176.265625 143.773438 L 47.804688 144.335938 L 47.804688 128.085938 Z M 32.046875 128.09375 "/>
</g>
</svg>
