<?xml version="1.0" encoding="UTF-8"?>
<svg xmlns="http://www.w3.org/2000/svg" xmlns:xlink="http://www.w3.org/1999/xlink" width="16" height="16" viewBox="0 0 16 16" version="1.1">
<g id="surface1">
<path style=" stroke:none;fill-rule:evenodd;fill:rgb(71.764706%,16.470588%,5.098039%);fill-opacity:1;" d="M 2.015625 4.921875 L 3.71875 6.589844 L 3.667969 4.253906 L 2.015625 4.246094 Z M 2.015625 4.921875 "/>
<path style="fill-rule:evenodd;fill:rgb(94.901961%,94.901961%,94.901961%);fill-opacity:1;stroke-width:5.03546;stroke-linecap:butt;stroke-linejoin:miter;stroke:rgb(68.627451%,68.627451%,68.627451%);stroke-opacity:1;stroke-miterlimit:4;" d="M 97.045898 1029.779172 L 433.959961 1028.680539 L 435.058594 664.788937 L 347.045898 575.555539 L 97.045898 575.555539 Z M 97.045898 1029.779172 " transform="matrix(0.032,0,0,0.032,0,-17.67559)"/>
<path style="fill-rule:evenodd;fill:rgb(68.627451%,68.627451%,68.627451%);fill-opacity:1;stroke-width:5.03546;stroke-linecap:butt;stroke-linejoin:miter;stroke:rgb(68.627451%,68.627451%,68.627451%);stroke-opacity:1;stroke-miterlimit:4;" d="M 431.518555 662.957883 L 349.365234 662.347531 L 350.097656 578.607297 Z M 431.518555 662.957883 " transform="matrix(0.032,0,0,0.032,0,-17.67559)"/>
<path style=" stroke:none;fill-rule:nonzero;fill:rgb(94.117647%,22.352941%,8.627451%);fill-opacity:1;" d="M 2.019531 2.234375 L 9.21875 2.234375 L 9.21875 4.933594 L 2.019531 4.933594 Z M 2.019531 2.234375 "/>
<path style=" stroke:none;fill-rule:nonzero;fill:rgb(94.117647%,22.352941%,8.627451%);fill-opacity:1;" d="M 8.367188 8.722656 L 9.207031 10.121094 L 7.546875 10.109375 Z M 8.367188 8.722656 "/>
<path style=" stroke:none;fill-rule:nonzero;fill:rgb(50.196078%,0%,0%);fill-opacity:1;" d="M 6.886719 10.074219 L 9.882812 10.074219 L 8.375 15.113281 Z M 6.886719 10.074219 "/>
<path style=" stroke:none;fill-rule:nonzero;fill:rgb(94.117647%,22.352941%,8.627451%);fill-opacity:1;" d="M 4.371094 10.300781 L 8.371094 15.109375 L 6.960938 10.074219 L 4.609375 10.066406 Z M 4.371094 10.300781 "/>
<path style=" stroke:none;fill-rule:nonzero;fill:rgb(94.117647%,22.352941%,8.627451%);fill-opacity:1;" d="M 12.371094 10.300781 L 8.371094 15.109375 L 9.78125 10.074219 L 12.132812 10.066406 Z M 12.371094 10.300781 "/>
<path style=" stroke:none;fill-rule:nonzero;fill:rgb(83.137255%,0%,0%);fill-opacity:1;" d="M 4.601562 10.074219 L 6.960938 10.078125 L 6.625 8.707031 L 5.96875 8.707031 Z M 4.601562 10.074219 "/>
<path style=" stroke:none;fill-rule:nonzero;fill:rgb(83.137255%,0%,0%);fill-opacity:1;" d="M 12.136719 10.074219 L 9.78125 10.078125 L 10.117188 8.707031 L 10.773438 8.707031 Z M 12.136719 10.074219 "/>
<path style=" stroke:none;fill-rule:nonzero;fill:rgb(50.196078%,0%,0%);fill-opacity:1;" d="M 8.398438 8.71875 L 6.617188 8.707031 L 6.953125 10.078125 L 7.609375 10.078125 Z M 8.398438 8.71875 "/>
<path style=" stroke:none;fill-rule:nonzero;fill:rgb(50.196078%,0%,0%);fill-opacity:1;" d="M 8.339844 8.71875 L 10.125 8.707031 L 9.789062 10.078125 L 9.132812 10.078125 Z M 8.339844 8.71875 "/>
<path style="fill:none;stroke-width:9.063828;stroke-linecap:butt;stroke-linejoin:miter;stroke:rgb(100%,100%,100%);stroke-opacity:1;stroke-miterlimit:4;" d="M 384.422793 735.888523 L 384.422793 679.492039 C 384.422793 679.492039 415.306582 673.510594 415.184512 693.774266 C 415.062441 714.037937 385.033145 708.544773 385.033145 708.544773 " transform="matrix(0.032,0,0,0.032,-7.899186,-19.017183)"/>
<path style="fill:none;stroke-width:9;stroke-linecap:butt;stroke-linejoin:miter;stroke:rgb(100%,100%,100%);stroke-opacity:1;stroke-miterlimit:4;" d="M 392.479434 710.497898 L 418.35834 734.911961 " transform="matrix(0.032,0,0,0.032,-7.899186,-19.017183)"/>
<path style="fill:none;stroke-width:9;stroke-linecap:butt;stroke-linejoin:miter;stroke:rgb(100%,100%,100%);stroke-opacity:1;stroke-miterlimit:4;" d="M 193.237305 637.689328 L 193.237305 690.667844 L 213.378906 690.667844 C 213.378906 690.667844 229.248047 691.522336 228.637695 676.751828 C 228.149414 661.98132 214.72168 662.225461 214.72168 662.225461 L 196.533203 662.225461 L 214.477539 662.103391 C 214.477539 662.103391 225.585938 661.73718 225.463867 649.408078 C 225.341797 636.956906 210.083008 637.689328 210.083008 637.689328 Z M 193.237305 637.689328 " transform="matrix(0.032,0,0,0.032,0,-17.67559)"/>
</g>
</svg>
