<?xml version="1.0" encoding="UTF-8"?>
<svg xmlns="http://www.w3.org/2000/svg" xmlns:xlink="http://www.w3.org/1999/xlink" width="16" height="16" viewBox="0 0 16 16" version="1.1">
<g id="surface1">
<path style=" stroke:none;fill-rule:evenodd;fill:rgb(20%,20%,20%);fill-opacity:1;" d="M 2.015625 4.921875 L 3.71875 6.589844 L 3.667969 4.253906 L 2.015625 4.246094 Z M 2.015625 4.921875 "/>
<path style="fill-rule:evenodd;fill:rgb(94.901961%,94.901961%,94.901961%);fill-opacity:1;stroke-width:5.03546;stroke-linecap:butt;stroke-linejoin:miter;stroke:rgb(68.627451%,68.627451%,68.627451%);stroke-opacity:1;stroke-miterlimit:4;" d="M 97.045898 1029.779172 L 433.959961 1028.680539 L 435.058594 664.788937 L 347.045898 575.555539 L 97.045898 575.555539 Z M 97.045898 1029.779172 " transform="matrix(0.032,0,0,0.032,0,-17.67559)"/>
<path style="fill-rule:evenodd;fill:rgb(68.627451%,68.627451%,68.627451%);fill-opacity:1;stroke-width:5.03546;stroke-linecap:butt;stroke-linejoin:miter;stroke:rgb(68.627451%,68.627451%,68.627451%);stroke-opacity:1;stroke-miterlimit:4;" d="M 431.518555 662.957883 L 349.365234 662.347531 L 350.097656 578.607297 Z M 431.518555 662.957883 " transform="matrix(0.032,0,0,0.032,0,-17.67559)"/>
<path style=" stroke:none;fill-rule:nonzero;fill:rgb(22.352941%,25.098039%,31.372549%);fill-opacity:1;" d="M 2.019531 2.234375 L 9.21875 2.234375 L 9.21875 4.933594 L 2.019531 4.933594 Z M 2.019531 2.234375 "/>
<path style=" stroke:none;fill-rule:nonzero;fill:rgb(36.470588%,41.568627%,48.235294%);fill-opacity:1;" d="M 9.820312 8.710938 L 10.140625 8.820312 L 10.140625 8.964844 L 9.867188 9.042969 L 9.867188 9.484375 L 10.460938 9.320312 L 10.121094 9.496094 L 10.128906 9.828125 L 9.875 9.910156 L 9.875 10.328125 L 10.425781 10.195312 L 10.140625 10.359375 L 10.140625 10.679688 L 9.859375 10.773438 L 9.875 11.171875 L 10.472656 11.007812 L 10.140625 11.203125 L 10.132812 11.511719 L 9.867188 11.589844 L 9.875 11.984375 L 10.457031 11.835938 L 10.089844 12.066406 L 10.078125 12.195312 L 11.003906 12.195312 L 10.996094 11.761719 L 11.261719 11.703125 L 11.253906 11.273438 L 10.628906 11.410156 L 10.992188 11.257812 L 10.996094 10.953125 L 11.273438 10.871094 L 11.273438 10.433594 L 10.789062 10.570312 L 10.984375 10.441406 L 10.988281 10.121094 L 11.25 10.046875 L 11.25 9.605469 L 10.675781 9.746094 L 10.964844 9.59375 L 10.980469 9.234375 L 11.242188 9.195312 L 11.257812 8.761719 L 10.734375 8.878906 L 11.003906 8.667969 L 11.003906 8.535156 L 9.84375 8.566406 Z M 9.820312 8.710938 "/>
<path style=" stroke:none;fill-rule:nonzero;fill:rgb(40%,40%,40%);fill-opacity:1;" d="M 9.886719 13.144531 L 9.894531 14.054688 L 9.632812 14.054688 L 9.632812 14.378906 L 9.164062 14.390625 L 9.15625 14.101562 L 8.539062 14.109375 L 8.527344 15.121094 L 9.164062 15.121094 L 9.164062 14.859375 L 9.636719 14.855469 L 9.636719 15.179688 L 11.503906 15.175781 L 11.511719 14.859375 L 12.003906 14.859375 L 12.003906 15.136719 L 12.609375 15.136719 L 12.605469 14.089844 L 12.003906 14.09375 L 12.003906 14.402344 L 11.503906 14.402344 L 11.484375 14.042969 L 11.269531 14.046875 L 11.269531 13.136719 Z M 9.886719 13.144531 "/>
<path style=" stroke:none;fill-rule:nonzero;fill:rgb(22.352941%,25.098039%,31.372549%);fill-opacity:1;" d="M 5.699219 12.828125 L 5.683594 13.078125 L 6.246094 13.605469 L 9.195312 13.636719 L 9.582031 13.207031 L 11.597656 13.1875 L 11.597656 12.003906 L 9.625 12.003906 L 8.839844 12.835938 Z M 5.699219 12.828125 "/>
<path style=" stroke:none;fill-rule:nonzero;fill:rgb(22.352941%,25.098039%,31.372549%);fill-opacity:1;" d="M 5.699219 7.996094 L 5.683594 7.746094 L 6.25 7.21875 L 9.199219 7.1875 L 9.582031 7.617188 L 11.597656 7.636719 L 11.597656 8.820312 L 9.625 8.820312 L 8.839844 7.988281 Z M 5.699219 7.996094 "/>
<path style=" stroke:none;fill-rule:nonzero;fill:rgb(100%,72.156863%,0%);fill-opacity:1;" d="M 4.609375 7.988281 L 8.839844 7.988281 L 8.839844 12.832031 L 4.609375 12.832031 Z M 4.609375 7.988281 "/>
<path style=" stroke:none;fill-rule:nonzero;fill:rgb(98.039216%,92.54902%,42.745098%);fill-opacity:1;" d="M 4.925781 8.417969 L 8.472656 8.417969 L 8.472656 10.289062 L 4.925781 10.289062 Z M 4.925781 8.417969 "/>
<path style=" stroke:none;fill-rule:nonzero;fill:rgb(98.039216%,92.54902%,42.745098%);fill-opacity:1;" d="M 4.953125 10.59375 L 8.5 10.59375 L 8.5 12.460938 L 4.953125 12.460938 Z M 4.953125 10.59375 "/>
<path style=" stroke:none;fill-rule:nonzero;fill:rgb(15.686275%,13.333333%,4.313725%);fill-opacity:1;" d="M 6.035156 9.152344 L 7.460938 9.152344 L 7.460938 9.609375 L 6.035156 9.609375 Z M 6.035156 9.152344 "/>
<path style=" stroke:none;fill-rule:nonzero;fill:rgb(15.686275%,13.333333%,4.313725%);fill-opacity:1;" d="M 6.03125 11.269531 L 7.453125 11.269531 L 7.453125 11.726562 L 6.03125 11.726562 Z M 6.03125 11.269531 "/>
<path style="fill:none;stroke-width:9;stroke-linecap:butt;stroke-linejoin:miter;stroke:rgb(100%,100%,100%);stroke-opacity:1;stroke-miterlimit:4;" d="M 145.996094 644.281125 C 145.996094 644.281125 138.793945 636.590695 123.291016 636.590695 C 107.788086 636.712766 99.731445 652.581906 99.975586 664.911008 C 100.219727 677.240109 110.961914 690.423703 123.168945 691.644406 C 135.375977 692.865109 144.53125 686.517453 144.53125 686.517453 L 144.042969 666.375852 L 127.197266 666.619992 " transform="matrix(0.032,0,0,0.032,0,-17.67559)"/>
<path style="fill:none;stroke-width:9;stroke-linecap:butt;stroke-linejoin:miter;stroke:rgb(100%,100%,100%);stroke-opacity:1;stroke-miterlimit:4;" d="M 161.010742 637.811398 L 199.21875 638.42175 L 164.550781 690.545773 L 207.397461 690.301633 " transform="matrix(0.032,0,0,0.032,0,-17.67559)"/>
<path style="fill:none;stroke-width:9;stroke-linecap:butt;stroke-linejoin:miter;stroke:rgb(100%,100%,100%);stroke-opacity:1;stroke-miterlimit:4;" d="M 133.386086 354.218371 L 133.264016 304.657824 " transform="matrix(0.032,0,0,0.032,2.782427,-6.682644)"/>
<path style=" stroke:none;fill-rule:nonzero;fill:rgb(100%,100%,100%);fill-opacity:1;" d="M 6.910156 2.65625 L 7.195312 2.65625 L 7.195312 2.933594 L 6.910156 2.933594 Z M 6.910156 2.65625 "/>
<path style="fill:none;stroke-width:9.063828;stroke-linecap:butt;stroke-linejoin:miter;stroke:rgb(100%,100%,100%);stroke-opacity:1;stroke-miterlimit:4;" d="M 239.868164 695.062375 L 239.868164 638.665891 C 239.868164 638.665891 270.751953 632.684445 270.629883 652.948117 C 270.507812 673.211789 240.478516 667.718625 240.478516 667.718625 " transform="matrix(0.032,0,0,0.032,0,-17.67559)"/>
</g>
</svg>
