<?xml version="1.0" encoding="UTF-8"?>
<svg xmlns="http://www.w3.org/2000/svg" xmlns:xlink="http://www.w3.org/1999/xlink" width="16" height="16" viewBox="0 0 16 16" version="1.1">
<g id="surface1">
<path style=" stroke:none;fill-rule:evenodd;fill:rgb(0%,40%,50.196078%);fill-opacity:1;" d="M 2.015625 4.921875 L 3.71875 6.589844 L 3.667969 4.253906 L 2.015625 4.246094 Z M 2.015625 4.921875 "/>
<path style="fill-rule:evenodd;fill:rgb(94.901961%,94.901961%,94.901961%);fill-opacity:1;stroke-width:5.03546;stroke-linecap:butt;stroke-linejoin:miter;stroke:rgb(68.627451%,68.627451%,68.627451%);stroke-opacity:1;stroke-miterlimit:4;" d="M 97.045898 1029.779172 L 433.959961 1028.680539 L 435.058594 664.788937 L 347.045898 575.555539 L 97.045898 575.555539 Z M 97.045898 1029.779172 " transform="matrix(0.032,0,0,0.032,0,-17.67559)"/>
<path style="fill-rule:evenodd;fill:rgb(68.627451%,68.627451%,68.627451%);fill-opacity:1;stroke-width:5.03546;stroke-linecap:butt;stroke-linejoin:miter;stroke:rgb(68.627451%,68.627451%,68.627451%);stroke-opacity:1;stroke-miterlimit:4;" d="M 431.518555 662.957883 L 349.365234 662.347531 L 350.097656 578.607297 Z M 431.518555 662.957883 " transform="matrix(0.032,0,0,0.032,0,-17.67559)"/>
<path style=" stroke:none;fill-rule:nonzero;fill:rgb(0%,73.333333%,94.901961%);fill-opacity:1;" d="M 2.019531 2.234375 L 9.21875 2.234375 L 9.21875 4.933594 L 2.019531 4.933594 Z M 2.019531 2.234375 "/>
<path style=" stroke:none;fill-rule:nonzero;fill:rgb(0%,73.333333%,94.901961%);fill-opacity:1;" d="M 3.746094 11.226562 L 13.261719 11.226562 L 13.261719 11.613281 L 3.746094 11.613281 Z M 3.746094 11.226562 "/>
<path style=" stroke:none;fill-rule:nonzero;fill:rgb(0%,73.333333%,94.901961%);fill-opacity:1;" d="M 3.746094 12.199219 L 13.273438 12.199219 L 13.273438 12.589844 L 3.746094 12.589844 Z M 3.746094 12.199219 "/>
<path style=" stroke:none;fill-rule:nonzero;fill:rgb(0%,73.333333%,94.901961%);fill-opacity:1;" d="M 3.746094 13.085938 L 13.347656 13.085938 L 13.347656 13.476562 L 3.746094 13.476562 Z M 3.746094 13.085938 "/>
<path style=" stroke:none;fill-rule:nonzero;fill:rgb(0%,73.333333%,94.901961%);fill-opacity:1;" d="M 3.746094 13.9375 L 10.269531 13.9375 L 10.269531 14.324219 L 3.746094 14.324219 Z M 3.746094 13.9375 "/>
<path style="fill-rule:nonzero;fill:rgb(37.254902%,73.72549%,82.745098%);fill-opacity:1;stroke-width:4.506265;stroke-linecap:round;stroke-linejoin:round;stroke:rgb(0%,73.333333%,94.901961%);stroke-opacity:1;stroke-miterlimit:4;" d="M 265.771913 775.244762 L 413.477021 775.289093 L 413.549415 884.664055 L 265.844388 884.741794 Z M 265.771913 775.244762 " transform="matrix(0.032,0.000016842,-0.0000211804,0.032,0,-17.67559)"/>
<path style=" stroke:none;fill-rule:nonzero;fill:rgb(98.039216%,92.54902%,42.745098%);fill-opacity:1;" d="M 12.792969 8.164062 C 12.792969 8.433594 12.574219 8.652344 12.304688 8.652344 C 12.035156 8.652344 11.8125 8.433594 11.8125 8.164062 C 11.8125 7.894531 12.03125 7.671875 12.300781 7.671875 C 12.574219 7.671875 12.792969 7.890625 12.792969 8.160156 "/>
<path style="fill-rule:nonzero;fill:rgb(0%,40%,50.196078%);fill-opacity:1;stroke-width:0.187761;stroke-linecap:butt;stroke-linejoin:miter;stroke:rgb(0%,0%,0%);stroke-opacity:1;stroke-miterlimit:4;" d="M 267.578125 842.279172 L 267.456055 882.806516 L 410.766602 882.684445 L 410.400391 849.115109 C 410.400391 849.115109 390.136719 855.584836 372.680664 853.631711 C 355.102539 851.678586 328.491211 831.659055 309.814453 830.804562 C 291.137695 830.072141 267.578125 842.279172 267.578125 842.279172 Z M 267.578125 842.279172 " transform="matrix(0.032,0,0,0.032,0,-17.67559)"/>
<path style=" stroke:none;fill-rule:nonzero;fill:rgb(0%,73.333333%,94.901961%);fill-opacity:1;" d="M 3.746094 10.3125 L 7.929688 10.3125 L 7.929688 10.699219 L 3.746094 10.699219 Z M 3.746094 10.3125 "/>
<path style=" stroke:none;fill-rule:nonzero;fill:rgb(0%,73.333333%,94.901961%);fill-opacity:1;" d="M 3.746094 9.421875 L 7.929688 9.421875 L 7.929688 9.8125 L 3.746094 9.8125 Z M 3.746094 9.421875 "/>
<path style=" stroke:none;fill-rule:nonzero;fill:rgb(0%,73.333333%,94.901961%);fill-opacity:1;" d="M 3.746094 8.574219 L 7.929688 8.574219 L 7.929688 8.964844 L 3.746094 8.964844 Z M 3.746094 8.574219 "/>
<path style=" stroke:none;fill-rule:nonzero;fill:rgb(0%,73.333333%,94.901961%);fill-opacity:1;" d="M 3.746094 7.75 L 7.929688 7.75 L 7.929688 8.136719 L 3.746094 8.136719 Z M 3.746094 7.75 "/>
<path style=" stroke:none;fill-rule:nonzero;fill:rgb(0%,73.333333%,94.901961%);fill-opacity:1;" d="M 4.679688 6.960938 L 7.976562 6.960938 L 7.976562 7.351562 L 4.679688 7.351562 Z M 4.679688 6.960938 "/>
</g>
</svg>
