<?xml version="1.0" encoding="UTF-8"?>
<svg xmlns="http://www.w3.org/2000/svg" xmlns:xlink="http://www.w3.org/1999/xlink" width="128" height="128" viewBox="0 0 128 128" version="1.1">
<g id="surface1">
<path style=" stroke:none;fill-rule:nonzero;fill:rgb(100%,100%,100%);fill-opacity:1;" d="M 82.417969 5.332031 C 78.695312 5.347656 75.796875 5.351562 74.667969 5.417969 C 70.148438 5.683594 67.894531 8.503906 67 12.667969 C 66.886719 14.761719 67 49.332031 67 49.332031 C 67 53.59375 70.40625 57.082031 74.667969 57.082031 L 114.917969 57.082031 C 119.179688 57.082031 122.582031 53.59375 122.582031 49.332031 C 122.582031 45.070312 123.101562 13.226562 122 10.332031 C 120.898438 7.441406 118.214844 5.417969 114.917969 5.417969 C 112.445312 5.417969 93.582031 5.296875 82.417969 5.332031 Z M 58.582031 9.25 C 56.628906 9.355469 54.746094 10.179688 53.332031 11.75 C 50.507812 14.890625 50.777344 19.757812 53.917969 22.582031 C 57.058594 25.40625 61.84375 25.140625 64.667969 22 C 67.492188 18.859375 67.222656 13.992188 64.082031 11.167969 C 62.511719 9.753906 60.539062 9.144531 58.582031 9.25 Z M 77.417969 11.417969 L 112.082031 11.417969 C 114.558594 11.417969 116.582031 13.359375 116.582031 15.832031 L 116.582031 46.667969 C 116.582031 49.140625 114.558594 51.082031 112.082031 51.082031 L 77.417969 51.082031 C 74.941406 51.082031 72.917969 49.140625 72.917969 46.667969 L 72.917969 15.832031 C 72.917969 13.359375 74.941406 11.417969 77.417969 11.417969 Z M 34.082031 22.25 C 32.695312 22.324219 31.335938 22.886719 30.332031 24 C 28.332031 26.226562 28.523438 29.664062 30.75 31.667969 C 32.976562 33.667969 36.414062 33.476562 38.417969 31.25 C 40.417969 29.023438 40.226562 25.585938 38 23.582031 C 36.886719 22.582031 35.46875 22.175781 34.082031 22.25 Z M 18.917969 45.832031 C 18.179688 45.929688 17.429688 46.21875 16.832031 46.75 C 15.242188 48.164062 15.085938 50.578125 16.5 52.167969 C 17.914062 53.757812 20.328125 53.914062 21.917969 52.5 C 23.507812 51.085938 23.664062 48.671875 22.25 47.082031 C 21.367188 46.089844 20.140625 45.671875 18.917969 45.832031 Z M 20.75 70.917969 C 17.027344 70.929688 14.210938 70.933594 13.082031 71 C 8.566406 71.265625 6.226562 74.085938 5.332031 78.25 C 5.21875 80.34375 5.332031 114.917969 5.332031 114.917969 C 5.332031 119.179688 8.820312 122.667969 13.082031 122.667969 L 53.25 122.667969 C 57.511719 122.667969 60.917969 119.179688 60.917969 114.917969 C 60.917969 110.65625 61.519531 78.808594 60.417969 75.917969 C 59.316406 73.023438 56.546875 71 53.25 71 C 50.777344 71 31.914062 70.878906 20.75 70.917969 Z M 15.75 77 L 50.417969 77 C 52.890625 77 54.917969 78.941406 54.917969 81.417969 L 54.917969 112.25 C 54.917969 114.726562 52.890625 116.667969 50.417969 116.667969 L 15.75 116.667969 C 13.273438 116.667969 11.25 114.726562 11.25 112.25 L 11.25 81.417969 C 11.25 78.941406 13.273438 77 15.75 77 Z M 17.25 82.917969 L 17.25 110.75 L 49 110.75 L 49 82.917969 Z M 17.25 82.917969 "/>
</g>
</svg>
