<?xml version="1.0" encoding="UTF-8"?>
<svg xmlns="http://www.w3.org/2000/svg" xmlns:xlink="http://www.w3.org/1999/xlink" width="128" height="128" viewBox="0 0 128 128" version="1.1">
<g id="surface1">
<path style=" stroke:none;fill-rule:nonzero;fill:rgb(100%,100%,100%);fill-opacity:1;" d="M 82.417969 5.332031 C 78.695312 5.347656 75.796875 5.351562 74.667969 5.417969 C 70.148438 5.683594 67.894531 8.503906 67 12.667969 C 66.886719 14.761719 67 49.332031 67 49.332031 C 67 53.59375 70.40625 57.082031 74.667969 57.082031 L 105 57.082031 C 101.75 59.808594 100.179688 64.191406 101.332031 68.582031 C 102.925781 74.65625 109.09375 78.34375 115.167969 76.75 C 121.238281 75.15625 124.84375 68.90625 123.25 62.832031 C 122.5 59.980469 120.703125 57.722656 118.417969 56.25 C 120.90625 54.964844 122.582031 52.335938 122.582031 49.332031 C 122.582031 45.070312 123.101562 13.226562 122 10.332031 C 120.898438 7.441406 118.214844 5.417969 114.917969 5.417969 C 112.445312 5.417969 93.582031 5.296875 82.417969 5.332031 Z M 77.417969 11.417969 L 112.082031 11.417969 C 114.558594 11.417969 116.582031 13.359375 116.582031 15.832031 L 116.582031 46.667969 C 116.582031 49.140625 114.558594 51.082031 112.082031 51.082031 L 77.417969 51.082031 C 74.941406 51.082031 72.917969 49.140625 72.917969 46.667969 L 72.917969 15.832031 C 72.917969 13.359375 74.941406 11.417969 77.417969 11.417969 Z M 58.917969 11.917969 C 58.558594 11.9375 58.195312 11.988281 57.832031 12.082031 C 54.9375 12.84375 53.238281 15.769531 54 18.667969 C 54.761719 21.5625 57.6875 23.34375 60.582031 22.582031 C 63.480469 21.824219 65.261719 18.8125 64.5 15.917969 C 63.835938 13.382812 61.4375 11.777344 58.917969 11.917969 Z M 78.917969 17.332031 L 78.917969 45.167969 L 110.582031 45.167969 L 110.582031 17.332031 Z M 34.082031 23.667969 C 31.976562 23.972656 30.527344 25.976562 30.832031 28.082031 C 31.140625 30.1875 33.0625 31.640625 35.167969 31.332031 C 37.273438 31.027344 38.722656 29.023438 38.417969 26.917969 C 38.109375 24.8125 36.1875 23.359375 34.082031 23.667969 Z M 20.75 70.917969 C 17.027344 70.929688 14.210938 70.933594 13.082031 71 C 8.566406 71.265625 6.226562 74.085938 5.332031 78.25 C 5.21875 80.34375 5.332031 114.917969 5.332031 114.917969 C 5.332031 119.179688 8.820312 122.667969 13.082031 122.667969 L 53.25 122.667969 C 57.511719 122.667969 60.917969 119.179688 60.917969 114.917969 C 60.917969 110.65625 61.519531 78.808594 60.417969 75.917969 C 59.316406 73.023438 56.546875 71 53.25 71 C 50.777344 71 31.914062 70.878906 20.75 70.917969 Z M 15.75 77 L 50.417969 77 C 52.890625 77 54.917969 78.941406 54.917969 81.417969 L 54.917969 112.25 C 54.917969 114.726562 52.890625 116.667969 50.417969 116.667969 L 15.75 116.667969 C 13.273438 116.667969 11.25 114.726562 11.25 112.25 L 11.25 81.417969 C 11.25 78.941406 13.273438 77 15.75 77 Z M 17.25 82.917969 L 17.25 110.75 L 49 110.75 L 49 82.917969 Z M 17.25 82.917969 "/>
</g>
</svg>
