<?xml version="1.0" encoding="UTF-8"?>
<svg xmlns="http://www.w3.org/2000/svg" xmlns:xlink="http://www.w3.org/1999/xlink" width="128" height="128" viewBox="0 0 128 128" version="1.1">
<g id="surface1">
<path style=" stroke:none;fill-rule:nonzero;fill:rgb(100%,100%,100%);fill-opacity:1;" d="M 82.417969 5.332031 C 78.695312 5.347656 75.796875 5.351562 74.667969 5.417969 C 70.148438 5.683594 67.894531 8.503906 67 12.667969 C 66.886719 14.761719 67 49.332031 67 49.332031 C 67 53.59375 70.40625 57.082031 74.667969 57.082031 L 114.917969 57.082031 C 119.179688 57.082031 122.582031 53.59375 122.582031 49.332031 C 122.582031 45.070312 123.101562 13.226562 122 10.332031 C 120.898438 7.441406 118.214844 5.417969 114.917969 5.417969 C 112.445312 5.417969 93.582031 5.296875 82.417969 5.332031 Z M 77.417969 11.417969 L 112.082031 11.417969 C 114.558594 11.417969 116.582031 13.359375 116.582031 15.832031 L 116.582031 46.667969 C 116.582031 49.140625 114.558594 51.082031 112.082031 51.082031 L 77.417969 51.082031 C 74.941406 51.082031 72.917969 49.140625 72.917969 46.667969 L 72.917969 15.832031 C 72.917969 13.359375 74.941406 11.417969 77.417969 11.417969 Z M 110.25 60.582031 C 107.273438 60.917969 105.164062 63.605469 105.5 66.582031 C 105.835938 69.558594 108.523438 71.667969 111.5 71.332031 C 114.476562 70.996094 116.585938 68.394531 116.25 65.417969 C 115.914062 62.441406 113.226562 60.246094 110.25 60.582031 Z M 20.75 70.917969 C 17.027344 70.929688 14.210938 70.933594 13.082031 71 C 8.566406 71.265625 6.226562 74.085938 5.332031 78.25 C 5.21875 80.34375 5.332031 114.917969 5.332031 114.917969 C 5.332031 119.179688 8.820312 122.667969 13.082031 122.667969 L 53.25 122.667969 C 54.324219 122.871094 55.433594 122.964844 56.582031 122.832031 C 62.820312 122.128906 67.371094 116.488281 66.667969 110.25 C 66.246094 106.535156 64.019531 103.488281 61 101.75 C 61.097656 90.816406 61.15625 77.855469 60.417969 75.917969 C 59.316406 73.023438 56.546875 71 53.25 71 C 50.777344 71 31.914062 70.878906 20.75 70.917969 Z M 15.75 77 L 50.417969 77 C 52.890625 77 54.917969 78.941406 54.917969 81.417969 L 54.917969 112.25 C 54.917969 114.726562 52.890625 116.667969 50.417969 116.667969 L 15.75 116.667969 C 13.273438 116.667969 11.25 114.726562 11.25 112.25 L 11.25 81.417969 C 11.25 78.941406 13.273438 77 15.75 77 Z M 101.667969 83.917969 C 97.46875 84.390625 94.527344 88.21875 95 92.417969 C 95.472656 96.613281 99.21875 99.640625 103.417969 99.167969 C 107.613281 98.691406 110.640625 94.863281 110.167969 90.667969 C 109.691406 86.46875 105.863281 83.441406 101.667969 83.917969 Z M 82.667969 99.167969 C 82.046875 99.109375 81.476562 99.175781 80.832031 99.25 C 75.679688 99.832031 71.917969 104.429688 72.5 109.582031 C 73.082031 114.738281 77.761719 118.496094 82.917969 117.917969 C 88.070312 117.335938 91.746094 112.652344 91.167969 107.5 C 90.65625 102.992188 87.015625 99.558594 82.667969 99.167969 Z M 82.667969 99.167969 "/>
</g>
</svg>
