<?xml version="1.0" encoding="UTF-8"?>
<svg xmlns="http://www.w3.org/2000/svg" xmlns:xlink="http://www.w3.org/1999/xlink" width="128" height="128" viewBox="0 0 128 128" version="1.1">
<g id="surface1">
<path style=" stroke:none;fill-rule:nonzero;fill:rgb(100%,100%,100%);fill-opacity:1;" d="M 74.167969 13.75 C 70.832031 14.125 68.457031 17.164062 68.832031 20.5 C 69.210938 23.835938 72.164062 26.210938 75.5 25.832031 C 78.835938 25.457031 81.292969 22.503906 80.917969 19.167969 C 80.539062 15.832031 77.503906 13.375 74.167969 13.75 Z M 58.167969 18 C 56.039062 18 54.332031 19.707031 54.332031 21.832031 C 54.332031 23.960938 56.039062 25.667969 58.167969 25.667969 C 60.292969 25.667969 62.082031 23.960938 62.082031 21.832031 C 62.082031 19.707031 60.292969 18 58.167969 18 Z M 43.332031 23.667969 C 31.152344 23.667969 22.417969 31 22.417969 42.917969 L 22.417969 53.332031 L 19 53.332031 C 15.519531 53.332031 13.75 55.089844 13.75 58.582031 L 13.75 88.25 C 13.75 89.960938 15.519531 93.5 19 93.5 L 70.082031 93.5 C 72.894531 93.484375 74.667969 89.960938 74.667969 88.25 L 74.667969 58.582031 C 74.667969 55.089844 72.898438 53.332031 69.417969 53.332031 L 65.917969 53.332031 L 65.917969 42.917969 C 65.917969 30.695312 57.265625 23.667969 45.082031 23.667969 Z M 43.332031 32.417969 L 45.082031 32.417969 C 57.265625 32.417969 57.25 42.839844 57.25 46.332031 L 57.25 53.332031 L 31.167969 53.332031 L 31.167969 46.332031 C 31.167969 42.839844 31.152344 32.417969 43.332031 32.417969 Z M 43.332031 32.417969 "/>
</g>
</svg>
