<?xml version="1.0" encoding="UTF-8"?>
<svg xmlns="http://www.w3.org/2000/svg" xmlns:xlink="http://www.w3.org/1999/xlink" width="128" height="128" viewBox="0 0 128 128" version="1.1">
<g id="surface1">
<path style=" stroke:none;fill-rule:nonzero;fill:rgb(100%,100%,100%);fill-opacity:1;" d="M 43.324219 23.675781 C 31.144531 23.675781 22.441406 30.964844 22.441406 42.882812 L 22.441406 53.359375 L 18.960938 53.359375 C 15.480469 53.359375 13.738281 55.105469 13.738281 58.59375 L 13.738281 88.277344 C 13.738281 89.988281 15.480469 93.515625 18.960938 93.515625 L 70.101562 93.515625 C 72.910156 93.496094 74.652344 89.988281 74.652344 88.277344 L 74.652344 58.59375 C 74.652344 55.105469 72.910156 53.339844 69.429688 53.339844 L 65.949219 53.359375 L 65.949219 42.882812 C 65.949219 30.660156 57.25 23.675781 45.066406 23.675781 Z M 43.324219 32.40625 L 45.066406 32.40625 C 57.25 32.40625 57.25 42.882812 57.25 46.375 L 57.25 53.359375 L 31.144531 53.359375 L 31.144531 46.375 C 31.144531 42.882812 31.144531 32.40625 43.324219 32.40625 Z M 43.324219 32.40625 "/>
</g>
</svg>
