<?xml version="1.0" encoding="UTF-8"?>
<svg xmlns="http://www.w3.org/2000/svg" xmlns:xlink="http://www.w3.org/1999/xlink" width="22" height="22" viewBox="0 0 22 22" version="1.1">
<g id="surface1">
<path style=" stroke:none;fill-rule:evenodd;fill:rgb(0%,26.666667%,33.333333%);fill-opacity:1;" d="M 2.773438 6.769531 L 5.117188 9.0625 L 5.042969 5.847656 L 2.773438 5.835938 Z M 2.773438 6.769531 "/>
<path style="fill-rule:evenodd;fill:rgb(94.901961%,94.901961%,94.901961%);fill-opacity:1;stroke-width:5.03546;stroke-linecap:butt;stroke-linejoin:miter;stroke:rgb(68.627451%,68.627451%,68.627451%);stroke-opacity:1;stroke-miterlimit:4;" d="M 97.034801 1029.812464 L 433.948864 1028.658344 L 435.102983 664.755646 L 347.034801 575.533344 L 97.034801 575.533344 Z M 97.034801 1029.812464 " transform="matrix(0.044,0,0,0.044,0,-24.303936)"/>
<path style=" stroke:none;fill-rule:nonzero;fill:rgb(21.568627%,67.058824%,78.431373%);fill-opacity:1;" d="M 11.179688 9.875 C 11.109375 10.058594 11.03125 10.242188 10.953125 10.421875 C 10.945312 10.4375 10.9375 10.449219 10.929688 10.464844 C 10.855469 10.625 10.785156 10.777344 10.703125 10.933594 C 10.6875 10.964844 10.671875 11 10.65625 11.03125 C 10.582031 11.167969 10.507812 11.3125 10.429688 11.445312 C 10.402344 11.492188 10.375 11.542969 10.347656 11.589844 C 9.660156 12.738281 8.757812 13.941406 8.042969 14.949219 C 7.480469 15.707031 7.152344 16.527344 7.058594 17.316406 C 7.058594 19.28125 8.902344 20.875 11.179688 20.875 C 13.457031 20.875 15.300781 19.28125 15.300781 17.316406 C 15.300781 16.082031 14.3125 14.8125 13.175781 13.179688 C 12.8125 12.675781 12.464844 12.144531 12.152344 11.640625 C 11.984375 11.367188 11.816406 11.085938 11.652344 10.792969 C 11.601562 10.699219 11.550781 10.601562 11.5 10.507812 C 11.390625 10.304688 11.28125 10.089844 11.179688 9.875 Z M 11.179688 9.875 "/>
<path style=" stroke:none;fill-rule:nonzero;fill:rgb(0%,53.333333%,66.666667%);fill-opacity:1;" d="M 8.035156 14.949219 C 7.46875 15.707031 7.144531 16.527344 7.050781 17.316406 C 7.050781 19.28125 8.890625 20.875 11.167969 20.875 C 13.445312 20.875 15.289062 19.28125 15.289062 17.316406 C 7.628906 19.609375 8.753906 14.527344 11.773438 15.394531 C 15.097656 16.351562 13.210938 14.023438 11.035156 13.777344 C 9.277344 13.578125 8.035156 14.949219 8.035156 14.949219 Z M 8.035156 14.949219 "/>
<path style="fill-rule:evenodd;fill:rgb(68.627451%,68.627451%,68.627451%);fill-opacity:1;stroke-width:5.03546;stroke-linecap:butt;stroke-linejoin:miter;stroke:rgb(68.627451%,68.627451%,68.627451%);stroke-opacity:1;stroke-miterlimit:4;" d="M 431.551847 662.891299 L 349.34304 662.358629 L 350.142045 578.55181 Z M 431.551847 662.891299 " transform="matrix(0.044,0,0,0.044,0,-24.303936)"/>
<path style=" stroke:none;fill-rule:nonzero;fill:rgb(0%,53.333333%,66.666667%);fill-opacity:1;" d="M 2.777344 3.070312 L 12.675781 3.070312 L 12.675781 6.785156 L 2.777344 6.785156 Z M 2.777344 3.070312 "/>
<path style="fill:none;stroke-width:9;stroke-linecap:butt;stroke-linejoin:miter;stroke:rgb(100%,100%,100%);stroke-opacity:1;stroke-miterlimit:4;" d="M 133.305681 354.13005 L 133.305681 304.680477 " transform="matrix(0.044,0,0,0.044,-0.674044,-9.495785)"/>
<path style=" stroke:none;fill-rule:nonzero;fill:rgb(100%,100%,100%);fill-opacity:1;" d="M 5.003906 3.347656 L 5.394531 3.347656 L 5.394531 3.730469 L 5.003906 3.730469 Z M 5.003906 3.347656 "/>
<path style="fill:none;stroke-width:9;stroke-linecap:butt;stroke-linejoin:miter;stroke:rgb(100%,100%,100%);stroke-opacity:1;stroke-miterlimit:4;" d="M 122.83985 699.591325 L 122.83985 642.329251 " transform="matrix(0.044,0,0,0.044,1.391922,-24.719518)"/>
<path style="fill:none;stroke-width:8.670217;stroke-linecap:butt;stroke-linejoin:miter;stroke:rgb(100%,100%,100%);stroke-opacity:1;stroke-miterlimit:4;" d="M 96.206327 642.773143 L 149.384594 642.773143 " transform="matrix(0.044,0,0,0.044,1.391922,-24.719518)"/>
<path style="fill:none;stroke-width:9;stroke-linecap:butt;stroke-linejoin:miter;stroke:rgb(100%,100%,100%);stroke-opacity:1;stroke-miterlimit:4;" d="M 236.949574 633.328089 L 275.12429 633.949538 L 240.411932 688.992151 " transform="matrix(0.044,0,0,0.044,0,-24.303936)"/>
<path style="fill:none;stroke-width:9;stroke-linecap:round;stroke-linejoin:round;stroke:rgb(100%,100%,100%);stroke-opacity:1;stroke-miterlimit:4;" d="M 210.227273 686.506356 C 202.947443 686.861469 193.536932 683.576668 193.359375 672.923259 C 193.181818 662.26985 210.493608 659.073827 210.493608 659.073827 C 210.493608 659.073827 194.602273 654.279793 195.046165 644.869282 C 195.490057 635.547549 204.545455 632.351526 210.671165 632.529083 C 216.796875 632.70664 225.230824 635.991441 225.319602 645.668288 C 225.408381 655.433913 210.493608 658.274822 210.493608 658.274822 C 210.493608 658.274822 227.450284 662.624964 227.183949 672.923259 C 226.917614 683.132776 217.595881 686.151242 210.227273 686.506356 Z M 210.227273 686.506356 " transform="matrix(0.044,0,0,0.044,0,-24.303936)"/>
</g>
</svg>
