<?xml version="1.0" encoding="UTF-8"?>
<svg xmlns="http://www.w3.org/2000/svg" xmlns:xlink="http://www.w3.org/1999/xlink" width="22" height="22" viewBox="0 0 22 22" version="1.1">
<g id="surface1">
<path style=" stroke:none;fill-rule:evenodd;fill:rgb(20%,20%,20%);fill-opacity:1;" d="M 2.773438 6.769531 L 5.117188 9.0625 L 5.042969 5.847656 L 2.773438 5.835938 Z M 2.773438 6.769531 "/>
<path style="fill-rule:evenodd;fill:rgb(94.901961%,94.901961%,94.901961%);fill-opacity:1;stroke-width:5.03546;stroke-linecap:butt;stroke-linejoin:miter;stroke:rgb(68.627451%,68.627451%,68.627451%);stroke-opacity:1;stroke-miterlimit:4;" d="M 97.034801 1029.812464 L 433.948864 1028.658344 L 435.102983 664.755646 L 347.034801 575.533344 L 97.034801 575.533344 Z M 97.034801 1029.812464 " transform="matrix(0.044,0,0,0.044,0,-24.303936)"/>
<path style="fill-rule:evenodd;fill:rgb(68.627451%,68.627451%,68.627451%);fill-opacity:1;stroke-width:5.03546;stroke-linecap:butt;stroke-linejoin:miter;stroke:rgb(68.627451%,68.627451%,68.627451%);stroke-opacity:1;stroke-miterlimit:4;" d="M 431.551847 662.891299 L 349.34304 662.358629 L 350.142045 578.55181 Z M 431.551847 662.891299 " transform="matrix(0.044,0,0,0.044,0,-24.303936)"/>
<path style=" stroke:none;fill-rule:nonzero;fill:rgb(22.352941%,25.098039%,31.372549%);fill-opacity:1;" d="M 2.777344 3.070312 L 12.675781 3.070312 L 12.675781 6.785156 L 2.777344 6.785156 Z M 2.777344 3.070312 "/>
<path style=" stroke:none;fill-rule:nonzero;fill:rgb(22.352941%,25.098039%,31.372549%);fill-opacity:1;" d="M 6.40625 12.445312 L 16.167969 12.445312 C 16.507812 12.445312 16.785156 12.722656 16.785156 13.066406 L 16.785156 20.230469 C 16.785156 20.574219 16.507812 20.851562 16.167969 20.851562 L 6.40625 20.851562 C 6.066406 20.851562 5.785156 20.574219 5.785156 20.230469 L 5.785156 13.066406 C 5.785156 12.722656 6.066406 12.445312 6.40625 12.445312 Z M 6.40625 12.445312 "/>
<path style=" stroke:none;fill-rule:nonzero;fill:rgb(100%,100%,100%);fill-opacity:1;" d="M 7.25 13.433594 L 15.371094 13.433594 C 15.628906 13.433594 15.835938 13.640625 15.835938 13.894531 L 15.835938 19.238281 C 15.835938 19.492188 15.628906 19.699219 15.371094 19.699219 L 7.25 19.699219 C 6.992188 19.699219 6.785156 19.492188 6.785156 19.238281 L 6.785156 13.894531 C 6.785156 13.640625 6.992188 13.433594 7.25 13.433594 Z M 7.25 13.433594 "/>
<path style=" stroke:none;fill-rule:nonzero;fill:rgb(22.352941%,25.098039%,31.372549%);fill-opacity:1;" d="M 7.894531 14.078125 L 11.601562 14.078125 C 11.808594 14.078125 11.976562 14.242188 11.976562 14.449219 L 11.976562 18.757812 C 11.976562 18.960938 11.808594 19.128906 11.601562 19.128906 L 7.894531 19.128906 C 7.6875 19.128906 7.519531 18.960938 7.519531 18.757812 L 7.519531 14.449219 C 7.519531 14.242188 7.6875 14.078125 7.894531 14.078125 Z M 7.894531 14.078125 "/>
<path style=" stroke:none;fill-rule:nonzero;fill:rgb(100%,100%,100%);fill-opacity:1;" d="M 8.550781 14.792969 L 8.550781 15.582031 L 10.191406 15.589844 C 10.191406 15.589844 9.558594 16.417969 9.34375 17.042969 C 9.132812 17.667969 9.109375 18.554688 9.109375 18.554688 L 9.90625 18.5625 C 9.90625 18.5625 9.917969 17.6875 10.132812 17.050781 C 10.347656 16.417969 11.125 15.558594 11.125 15.558594 L 11.125 14.785156 Z M 8.550781 14.792969 "/>
<path style=" stroke:none;fill-rule:nonzero;fill:rgb(22.352941%,25.098039%,31.372549%);fill-opacity:1;" d="M 12.777344 16.671875 L 12.785156 15.980469 L 15.132812 15.992188 L 15.132812 16.597656 L 13.800781 18.109375 L 15.125 18.101562 L 15.117188 18.785156 L 12.785156 18.765625 L 12.777344 18.167969 L 14.171875 16.65625 Z M 12.777344 16.671875 "/>
<path style="fill:none;stroke-width:9;stroke-linecap:butt;stroke-linejoin:miter;stroke:rgb(100%,100%,100%);stroke-opacity:1;stroke-miterlimit:4;" d="M 125.355114 638.210901 L 163.52983 638.83235 L 128.90625 693.874964 " transform="matrix(0.044,0,0,0.044,0,-24.303936)"/>
<path style="fill:none;stroke-width:9;stroke-linecap:butt;stroke-linejoin:miter;stroke:rgb(100%,100%,100%);stroke-opacity:1;stroke-miterlimit:4;" d="M 188.565341 638.654793 L 226.740057 639.187464 L 192.116477 689.6136 L 234.818892 689.879935 " transform="matrix(0.044,0,0,0.044,0,-24.303936)"/>
</g>
</svg>
