<?xml version="1.0" encoding="UTF-8"?>
<svg xmlns="http://www.w3.org/2000/svg" xmlns:xlink="http://www.w3.org/1999/xlink" width="22" height="22" viewBox="0 0 22 22" version="1.1">
<g id="surface1">
<path style=" stroke:none;fill-rule:evenodd;fill:rgb(39.215686%,39.215686%,39.215686%);fill-opacity:1;" d="M 2.773438 6.769531 L 5.117188 9.0625 L 5.042969 5.847656 L 2.773438 5.835938 Z M 2.773438 6.769531 "/>
<path style="fill-rule:evenodd;fill:rgb(94.901961%,94.901961%,94.901961%);fill-opacity:1;stroke-width:5.03546;stroke-linecap:butt;stroke-linejoin:miter;stroke:rgb(68.627451%,68.627451%,68.627451%);stroke-opacity:1;stroke-miterlimit:4;" d="M 97.034801 1029.812464 L 433.948864 1028.658344 L 435.102983 664.755646 L 347.034801 575.533344 L 97.034801 575.533344 Z M 97.034801 1029.812464 " transform="matrix(0.044,0,0,0.044,0,-24.303936)"/>
<path style="fill-rule:evenodd;fill:rgb(68.627451%,68.627451%,68.627451%);fill-opacity:1;stroke-width:5.03546;stroke-linecap:butt;stroke-linejoin:miter;stroke:rgb(68.627451%,68.627451%,68.627451%);stroke-opacity:1;stroke-miterlimit:4;" d="M 431.551847 662.891299 L 349.34304 662.358629 L 350.142045 578.55181 Z M 431.551847 662.891299 " transform="matrix(0.044,0,0,0.044,0,-24.303936)"/>
<path style=" stroke:none;fill-rule:nonzero;fill:rgb(60%,60%,60%);fill-opacity:1;" d="M 2.777344 3.070312 L 12.238281 3.070312 L 12.238281 6.785156 L 2.777344 6.785156 Z M 2.777344 3.070312 "/>
<path style=" stroke:none;fill-rule:nonzero;fill:rgb(80%,80%,80%);fill-opacity:0.588235;" d="M 11.265625 13.34375 C 9.800781 13.269531 8.449219 12.863281 7.863281 12.324219 C 7.714844 12.1875 7.597656 11.992188 7.597656 11.882812 C 7.597656 11.699219 7.824219 11.429688 8.136719 11.226562 C 9.480469 10.367188 12.265625 10.140625 14.308594 10.71875 C 15.011719 10.921875 15.546875 11.195312 15.839844 11.507812 C 16.039062 11.71875 16.078125 11.851562 15.992188 12.042969 C 15.785156 12.488281 14.882812 12.945312 13.742188 13.171875 C 13.285156 13.265625 12.851562 13.316406 12.308594 13.34375 C 11.835938 13.371094 11.777344 13.371094 11.265625 13.34375 Z M 11.265625 13.34375 "/>
<path style=" stroke:none;fill-rule:nonzero;fill:rgb(80%,80%,80%);fill-opacity:0.588235;" d="M 11.414062 20.910156 C 10.289062 20.851562 9.25 20.542969 8.800781 20.125 C 8.6875 20.019531 8.597656 19.871094 8.597656 19.789062 C 8.597656 19.648438 8.769531 19.441406 9.011719 19.285156 C 10.042969 18.625 12.179688 18.453125 13.746094 18.898438 C 14.289062 19.050781 14.699219 19.261719 14.921875 19.5 C 15.074219 19.660156 15.105469 19.765625 15.039062 19.910156 C 14.882812 20.253906 14.1875 20.601562 13.3125 20.777344 C 12.964844 20.847656 12.628906 20.890625 12.214844 20.910156 C 11.851562 20.929688 11.804688 20.929688 11.414062 20.910156 Z M 11.414062 20.910156 "/>
<path style=" stroke:none;fill-rule:nonzero;fill:rgb(58.823529%,58.823529%,58.823529%);fill-opacity:0.588235;" d="M 11.339844 20.914062 C 10.136719 20.828125 9.15625 20.5 8.730469 20.039062 C 8.582031 19.875 8.539062 19.785156 8.496094 19.527344 C 8.371094 18.8125 7.160156 12.296875 7.128906 12.175781 C 6.914062 11.347656 7.796875 10.59375 9.476562 10.179688 C 9.859375 10.085938 10.445312 9.992188 10.90625 9.953125 C 11.324219 9.914062 12.289062 9.914062 12.707031 9.953125 C 14.738281 10.132812 16.257812 10.832031 16.484375 11.691406 C 16.53125 11.859375 16.527344 11.984375 16.46875 12.214844 C 16.410156 12.464844 15.105469 19.542969 15.105469 19.621094 C 15.105469 19.652344 15.070312 19.746094 15.03125 19.828125 C 14.824219 20.238281 14.136719 20.601562 13.207031 20.792969 C 12.691406 20.898438 11.882812 20.949219 11.339844 20.914062 Z M 11.339844 20.914062 "/>
<path style="fill-rule:nonzero;fill:rgb(0%,40%,50.196078%);fill-opacity:1;stroke-width:1;stroke-linecap:butt;stroke-linejoin:miter;stroke:rgb(0%,40%,50.196078%);stroke-opacity:1;stroke-miterlimit:4;" d="M 68.805936 87.333945 L 64.771625 94.419415 L 68.873739 101.470983 L 68.873739 98.35202 L 72.297818 98.318119 C 74.43363 98.250315 75.58629 96.589128 75.58629 96.589128 L 80.739359 87.774668 C 81.858118 85.265937 80.671556 83.60475 80.671556 83.60475 L 77.077968 77.434628 L 69.992498 81.536742 L 74.535335 89.435855 C 74.704844 89.842676 74.43363 90.181694 73.959005 90.181694 L 68.839837 90.215595 Z M 68.805936 87.333945 " transform="matrix(0.115223,0,0,0.115223,4.48997,7.366844)"/>
<path style="fill-rule:nonzero;fill:rgb(0%,40%,50.196078%);fill-opacity:1;stroke-width:1;stroke-linecap:butt;stroke-linejoin:miter;stroke:rgb(0%,40%,50.196078%);stroke-opacity:1;stroke-miterlimit:4;" d="M 58.465895 86.249088 L 54.329879 79.231421 L 46.193454 79.265323 L 48.871694 80.790903 L 47.210507 83.808161 C 46.193454 85.672758 47.040999 87.503454 47.040999 87.503454 L 52.160166 96.385718 C 53.753549 98.589333 55.787656 98.385922 55.787656 98.385922 L 62.907028 98.35202 L 62.907028 90.147792 L 53.787451 90.181694 C 53.346728 90.11389 53.177219 89.707069 53.448433 89.266346 L 55.957164 84.825214 Z M 58.465895 86.249088 " transform="matrix(0.115223,0,0,0.115223,4.48997,7.366844)"/>
<path style="fill-rule:nonzero;fill:rgb(0%,40%,50.196078%);fill-opacity:1;stroke-width:1;stroke-linecap:butt;stroke-linejoin:miter;stroke:rgb(0%,40%,50.196078%);stroke-opacity:1;stroke-miterlimit:4;" d="M 64.568214 77.841449 L 72.738541 77.773645 L 76.772852 70.722077 L 74.094612 72.281558 L 72.365622 69.332104 C 71.212961 67.53531 69.212757 67.3319 69.212757 67.3319 L 58.974422 67.264096 C 56.26228 67.569212 55.414736 69.43381 55.414736 69.43381 L 51.888952 75.637834 L 59.008324 79.706046 L 63.551161 71.806934 C 63.822375 71.467916 64.229197 71.535719 64.466509 71.976442 L 67.076945 76.383673 Z M 64.568214 77.841449 " transform="matrix(0.115223,0,0,0.115223,4.48997,7.366844)"/>
<path style="fill:none;stroke-width:9;stroke-linecap:butt;stroke-linejoin:miter;stroke:rgb(100%,100%,100%);stroke-opacity:1;stroke-miterlimit:4;" d="M 134.055398 695.117862 L 199.307528 632.173969 " transform="matrix(0.044,0,0,0.044,0,-24.303936)"/>
<path style="fill-rule:nonzero;fill:rgb(60%,60%,60%);fill-opacity:1;stroke-width:9.11013;stroke-linecap:butt;stroke-linejoin:bevel;stroke:rgb(100%,100%,100%);stroke-opacity:1;stroke-miterlimit:4;" d="M 153.941761 642.561043 C 153.941761 648.33164 149.236506 653.036896 143.465909 653.036896 C 137.695313 653.036896 132.990057 648.33164 132.990057 642.561043 C 132.990057 636.790447 137.695313 632.173969 143.465909 632.173969 C 149.236506 632.173969 153.941761 636.790447 153.941761 642.561043 Z M 153.941761 642.561043 " transform="matrix(0.044,0,0,0.044,0,-24.303936)"/>
<path style="fill-rule:nonzero;fill:rgb(60%,60%,60%);fill-opacity:1;stroke-width:9.11013;stroke-linecap:butt;stroke-linejoin:bevel;stroke:rgb(100%,100%,100%);stroke-opacity:1;stroke-miterlimit:4;" d="M 199.840199 684.908344 C 199.840199 690.678941 195.223722 695.384197 189.453125 695.384197 C 183.682528 695.384197 178.977273 690.678941 178.977273 684.908344 C 178.977273 679.137748 183.682528 674.521271 189.453125 674.521271 C 195.223722 674.521271 199.840199 679.137748 199.840199 684.908344 Z M 199.840199 684.908344 " transform="matrix(0.044,0,0,0.044,0,-24.303936)"/>
</g>
</svg>
