<?xml version="1.0" encoding="UTF-8"?>
<svg xmlns="http://www.w3.org/2000/svg" xmlns:xlink="http://www.w3.org/1999/xlink" width="128" height="128" viewBox="0 0 128 128" version="1.1">
<g id="surface1">
<path style=" stroke:none;fill-rule:nonzero;fill:rgb(74.509804%,74.509804%,74.509804%);fill-opacity:1;" d="M 56.480469 0.078125 C 52.84375 0.476562 49.410156 1.851562 46.480469 4.078125 C 42.574219 7.050781 39.980469 11.71875 39.980469 17.578125 L 39.980469 60.078125 C 39.980469 60.078125 41.867188 64.136719 43.980469 64.136719 C 46.09375 64.136719 47.980469 60.078125 47.980469 60.078125 L 47.980469 17.578125 C 47.980469 13.988281 49.351562 11.949219 51.480469 10.328125 C 53.605469 8.710938 56.789062 7.929688 59.980469 8.078125 C 63.167969 8.230469 66.253906 9.3125 68.480469 11.328125 C 70.707031 13.347656 72.230469 16.007812 72.230469 20.328125 C 72.230469 37.652344 83.941406 48.402344 96.230469 48.082031 C 103.082031 47.902344 109.734375 44.265625 114.230469 37.582031 L 109.730469 29.582031 C 106.726562 36.90625 101.1875 39.945312 95.980469 40.082031 C 88.296875 40.28125 80.230469 34.242188 80.230469 20.328125 C 80.230469 13.996094 77.535156 8.777344 73.730469 5.328125 C 69.921875 1.882812 65.082031 0.3125 60.230469 0.078125 C 59.015625 0.0234375 57.691406 -0.0507812 56.480469 0.078125 Z M 111.980469 16.078125 C 111.980469 16.445312 111.988281 16.726562 111.980469 17.078125 L 118.230469 28.078125 C 118.320312 27.753906 118.394531 27.414062 118.480469 27.078125 Z M 111.980469 18.828125 C 111.933594 19.679688 111.820312 20.539062 111.730469 21.328125 L 117.480469 31.082031 C 117.667969 30.582031 117.8125 30.101562 117.980469 29.582031 Z M 111.480469 22.828125 C 111.371094 23.550781 111.125 24.164062 110.980469 24.828125 L 116.230469 33.828125 C 116.464844 33.34375 116.765625 32.839844 116.980469 32.328125 Z M 110.730469 26.328125 C 110.539062 27.042969 110.207031 27.683594 109.980469 28.328125 L 114.730469 36.578125 C 115.050781 36.058594 115.433594 35.632812 115.730469 35.078125 Z M 110.730469 26.328125 "/>
<path style=" stroke:none;fill-rule:nonzero;fill:rgb(74.509804%,74.509804%,74.509804%);fill-opacity:1;" d="M 21.816406 48.078125 L 66.183594 48.078125 C 69.394531 48.078125 72 50.683594 72 53.894531 L 72 106.265625 C 72 109.476562 69.394531 112.078125 66.183594 112.078125 L 21.816406 112.078125 C 18.605469 112.078125 16 109.476562 16 106.265625 L 16 53.894531 C 16 50.683594 18.605469 48.078125 21.816406 48.078125 Z M 21.816406 48.078125 "/>
</g>
</svg>
