<?xml version="1.0" encoding="UTF-8"?>
<svg xmlns="http://www.w3.org/2000/svg" xmlns:xlink="http://www.w3.org/1999/xlink" width="128" height="128" viewBox="0 0 128 128" version="1.1">
<g id="surface1">
<path style=" stroke:none;fill-rule:nonzero;fill:rgb(74.509804%,74.509804%,74.509804%);fill-opacity:1;" d="M 19.761719 8 C 13.191406 8 8.007812 13.183594 8.007812 19.75 L 8.007812 108.246094 C 8.007812 114.8125 13.191406 119.996094 19.761719 119.996094 L 92.261719 119.996094 C 98.828125 119.996094 104.011719 114.816406 104.011719 108.246094 L 104.011719 19.75 C 104.011719 13.183594 98.828125 8 92.261719 8 Z M 16.011719 16 L 96.011719 16 L 96.011719 104 L 16.011719 104 Z M 16.011719 16 "/>
</g>
</svg>
