<?xml version="1.0" encoding="UTF-8"?>
<svg xmlns="http://www.w3.org/2000/svg" xmlns:xlink="http://www.w3.org/1999/xlink" width="128" height="128" viewBox="0 0 128 128" version="1.1">
<g id="surface1">
<path style=" stroke:none;fill-rule:nonzero;fill:rgb(74.509804%,74.509804%,74.509804%);fill-opacity:1;" d="M 8 16 C 3.566406 16 0 19.566406 0 24 L 0 104 C 0 108.433594 3.566406 112 8 112 L 120 112 C 124.433594 112 128 108.433594 128 104 L 128 24 C 128 19.566406 124.433594 16 120 16 Z M 16 32 L 32 32 L 32 48 L 16 48 Z M 40 32 L 56 32 L 56 48 L 40 48 Z M 64 32 L 80 32 L 80 48 L 64 48 Z M 88 32 L 104 32 L 104 48 L 88 48 Z M 24 56 L 40 56 L 40 72 L 24 72 Z M 48 56 L 64 56 L 64 72 L 48 72 Z M 72 56 L 88 56 L 88 72 L 72 72 Z M 96 56 L 112 56 L 112 72 L 96 72 Z M 16 80 L 32 80 L 32 96 L 16 96 Z M 40 80 L 88 80 L 88 96 L 40 96 Z M 96 80 L 120 80 L 120 96 L 96 96 Z M 96 80 "/>
</g>
</svg>
