<?xml version="1.0" encoding="UTF-8"?>
<svg xmlns="http://www.w3.org/2000/svg" xmlns:xlink="http://www.w3.org/1999/xlink" width="128" height="128" viewBox="0 0 128 128" version="1.1">
<g id="surface1">
<path style=" stroke:none;fill-rule:nonzero;fill:rgb(74.509804%,74.509804%,74.509804%);fill-opacity:1;" d="M 62.117188 0 L 54.574219 0.21875 L 54.808594 4.21875 C 55.164062 7.945312 53.285156 11.976562 50.339844 13.96875 C 47.679688 15.960938 43.523438 15.558594 38.335938 15.71875 C 35.714844 15.746094 33.046875 16.390625 30.574219 17.96875 C 28.101562 19.550781 25.679688 22.34375 25.160156 25.96875 C 23.96875 33.109375 28.578125 39.039062 33.867188 40.21875 C 39.945312 41.628906 46.25 40.824219 53.632812 40.21875 C 55.558594 40.0625 58.152344 40.382812 59.75 41.21875 C 62.261719 43.304688 61.890625 44.441406 61.867188 48.21875 L 19.28125 48.21875 L 17.632812 53.96875 L 2.808594 109.96875 L -0.015625 120.21875 L 124.457031 120.21875 L 121.632812 109.96875 L 107.28125 55.46875 L 96.21875 73.21875 L 104.691406 104.21875 L 19.75 104.21875 L 30.574219 64.21875 L 55.046875 64.21875 C 55.121094 64.136719 55.203125 64.050781 55.28125 63.972656 L 65.398438 56.972656 L 69.398438 48.472656 L 69.398438 44.472656 C 69.375 39.578125 66.34375 35.699219 63.046875 33.972656 C 59.75 32.242188 56.042969 31.964844 52.929688 32.222656 C 45.429688 32.835938 39.832031 33.222656 35.515625 32.222656 L 35.28125 32.222656 C 33.777344 31.886719 32.136719 30.542969 32.691406 27.222656 C 32.835938 26.226562 33.277344 25.648438 34.339844 24.972656 C 35.402344 24.292969 36.992188 23.730469 38.339844 23.722656 L 38.574219 23.722656 C 42.820312 23.585938 48.941406 24.664062 54.339844 20.472656 C 60.503906 15.683594 63.027344 9.308594 62.339844 3.472656 Z M 62.117188 0 "/>
<path style=" stroke:none;fill-rule:nonzero;fill:rgb(74.509804%,74.509804%,74.509804%);fill-opacity:1;" d="M 100.742188 16.558594 C 100.742188 16.558594 81.777344 44.609375 70.324219 64.3125 L 59.738281 73.652344 L 60.019531 86.242188 L 54.273438 96.203125 L 59.507812 96.195312 L 65.082031 91.527344 L 77.695312 87.828125 L 82.171875 75.980469 L 113.683594 25.0625 Z M 100.742188 16.558594 "/>
<path style=" stroke:none;fill-rule:nonzero;fill:rgb(74.509804%,74.509804%,74.509804%);fill-opacity:1;" d="M 112.738281 19.507812 C 112.753906 21.375 111.824219 23.109375 110.304688 24.046875 C 108.785156 24.984375 106.910156 24.984375 105.390625 24.046875 C 103.871094 23.109375 102.941406 21.375 102.957031 19.507812 C 102.941406 17.640625 103.871094 15.910156 105.390625 14.972656 C 106.910156 14.035156 108.785156 14.035156 110.304688 14.972656 C 111.824219 15.910156 112.753906 17.640625 112.738281 19.507812 Z M 112.738281 19.507812 "/>
</g>
</svg>
