<?xml version="1.0" encoding="UTF-8"?>
<svg xmlns="http://www.w3.org/2000/svg" xmlns:xlink="http://www.w3.org/1999/xlink" width="128" height="128" viewBox="0 0 128 128" version="1.1">
<g id="surface1">
<path style=" stroke:none;fill-rule:nonzero;fill:rgb(74.509804%,74.509804%,74.509804%);fill-opacity:1;" d="M 25.28125 32 C 11.316406 32 0.03125 46.328125 0.03125 64 C 0.03125 81.671875 11.316406 96 25.28125 96 C 39.242188 96 50.53125 81.671875 50.53125 64 C 50.53125 46.328125 39.242188 32 25.28125 32 Z M 24.03125 48 L 32.03125 48 L 32.03125 56 L 40.03125 56 L 40.03125 64 L 32.03125 64 L 32.03125 72 L 24.03125 72 L 24.03125 64 L 16.03125 64 L 16.03125 56 L 24.03125 56 Z M 24.03125 48 "/>
<path style=" stroke:none;fill-rule:nonzero;fill:rgb(74.509804%,74.509804%,74.509804%);fill-opacity:1;" d="M 102.71875 32 C 88.757812 32 77.46875 46.328125 77.46875 64 C 77.46875 81.671875 88.757812 96 102.71875 96 C 116.683594 96 127.96875 81.671875 127.96875 64 C 127.96875 46.328125 116.683594 32 102.71875 32 Z M 91.96875 44 C 96.386719 44 99.96875 47.582031 99.96875 52 C 99.96875 56.417969 96.386719 60 91.96875 60 C 87.550781 60 83.96875 56.417969 83.96875 52 C 83.96875 47.582031 87.550781 44 91.96875 44 Z M 107.96875 60 C 112.386719 60 115.96875 63.582031 115.96875 68 C 115.96875 72.417969 112.386719 76 107.96875 76 C 103.550781 76 99.96875 72.417969 99.96875 68 C 99.96875 63.582031 103.550781 60 107.96875 60 Z M 107.96875 60 "/>
<path style=" stroke:none;fill-rule:nonzero;fill:rgb(74.509804%,74.509804%,74.509804%);fill-opacity:1;" d="M 24 32 L 24 48 L 32 48 L 32 56 L 40 56 L 40 64 L 32 64 L 32 72 L 24 72 L 24 80 L 104 80 L 103.257812 75.09375 C 100.921875 73.699219 98.222656 70.820312 98.222656 67.902344 C 98.222656 64.980469 101.070312 61.660156 103.40625 60.261719 L 103.96875 31.941406 Z M 92 44 C 96.417969 44 100 47.582031 100 52 C 100 56.417969 96.417969 60 92 60 C 87.582031 60 84 56.417969 84 52 C 84 47.582031 87.582031 44 92 44 Z M 92 44 "/>
</g>
</svg>
