<?xml version="1.0" encoding="UTF-8"?>
<svg xmlns="http://www.w3.org/2000/svg" xmlns:xlink="http://www.w3.org/1999/xlink" width="24" height="24" viewBox="0 0 24 24" version="1.1">
<g id="surface1">
<path style=" stroke:none;fill-rule:nonzero;fill:rgb(100%,100%,100%);fill-opacity:1;" d="M 10.890625 0.875 C 10.613281 0.878906 10.332031 0.929688 10.0625 1.046875 C 8.984375 1.519531 8.496094 2.78125 8.96875 3.859375 C 9.441406 4.9375 10.6875 5.425781 11.765625 4.953125 C 12.09375 4.8125 12.351562 4.585938 12.5625 4.328125 C 12.558594 6.347656 12.5625 9.25 12.5625 9.25 C 12.5625 10.046875 13.203125 10.703125 14 10.703125 L 21.546875 10.703125 C 22.347656 10.703125 22.984375 10.046875 22.984375 9.25 C 22.984375 8.449219 23.082031 2.480469 22.875 1.9375 C 22.667969 1.394531 22.164062 1.015625 21.546875 1.015625 C 21.082031 1.015625 17.546875 0.992188 15.453125 1 C 14.753906 1.003906 14.210938 1.003906 14 1.015625 C 13.351562 1.054688 12.945312 1.375 12.71875 1.875 C 12.316406 1.242188 11.617188 0.867188 10.890625 0.875 Z M 14.515625 2.140625 L 21.015625 2.140625 C 21.480469 2.140625 21.859375 2.503906 21.859375 2.96875 L 21.859375 8.75 C 21.859375 9.214844 21.480469 9.578125 21.015625 9.578125 L 14.515625 9.578125 C 14.050781 9.578125 13.671875 9.214844 13.671875 8.75 L 13.671875 2.96875 C 13.671875 2.503906 14.050781 2.140625 14.515625 2.140625 Z M 6.3125 3.25 C 6.082031 3.253906 5.847656 3.292969 5.625 3.390625 C 4.734375 3.78125 4.328125 4.828125 4.71875 5.71875 C 5.109375 6.609375 6.140625 7.015625 7.03125 6.625 C 7.921875 6.234375 8.34375 5.1875 7.953125 4.296875 C 7.660156 3.628906 7 3.242188 6.3125 3.25 Z M 3.546875 7.765625 C 3.359375 7.769531 3.164062 7.8125 2.984375 7.890625 C 2.257812 8.207031 1.933594 9.054688 2.25 9.78125 C 2.566406 10.507812 3.414062 10.832031 4.140625 10.515625 C 4.867188 10.199219 5.191406 9.351562 4.875 8.625 C 4.636719 8.082031 4.105469 7.757812 3.546875 7.765625 Z M 3.484375 13.21875 C 3.359375 13.21875 3.234375 13.257812 3.109375 13.3125 C 3.105469 13.316406 3.097656 13.308594 3.09375 13.3125 C 2.886719 13.316406 2.546875 13.304688 2.453125 13.3125 C 1.605469 13.363281 1.167969 13.890625 1 14.671875 C 0.988281 14.863281 0.996094 16.539062 1 18.171875 C 1 18.207031 1 18.214844 1 18.25 C 1.003906 19.917969 1 21.546875 1 21.546875 C 1 22.347656 1.652344 23 2.453125 23 L 9.984375 23 C 10.785156 23 11.421875 22.347656 11.421875 21.546875 C 11.421875 20.75 11.535156 14.777344 11.328125 14.234375 C 11.121094 13.691406 10.601562 13.3125 9.984375 13.3125 C 9.519531 13.3125 5.984375 13.289062 3.890625 13.296875 C 3.765625 13.242188 3.625 13.21875 3.484375 13.21875 Z M 2.953125 14.4375 L 9.453125 14.4375 C 9.917969 14.4375 10.296875 14.800781 10.296875 15.265625 L 10.296875 21.046875 C 10.296875 21.511719 9.917969 21.875 9.453125 21.875 L 2.953125 21.875 C 2.488281 21.875 2.109375 21.511719 2.109375 21.046875 L 2.109375 15.265625 C 2.109375 14.800781 2.488281 14.4375 2.953125 14.4375 Z M 3.234375 15.546875 L 3.234375 20.765625 L 9.1875 20.765625 L 9.1875 15.546875 Z M 3.234375 15.546875 "/>
</g>
</svg>
