<?xml version="1.0" encoding="UTF-8"?>
<svg xmlns="http://www.w3.org/2000/svg" xmlns:xlink="http://www.w3.org/1999/xlink" width="24" height="24" viewBox="0 0 24 24" version="1.1">
<g id="surface1">
<path style=" stroke:none;fill-rule:nonzero;fill:rgb(100%,100%,100%);fill-opacity:1;" d="M 13.96875 3.078125 C 13.613281 3.117188 13.351562 3.441406 13.390625 3.796875 C 13.429688 4.152344 13.753906 4.398438 14.109375 4.359375 C 14.464844 4.320312 14.726562 3.996094 14.6875 3.640625 C 14.648438 3.285156 14.324219 3.039062 13.96875 3.078125 Z M 8.125 4.4375 C 5.839844 4.4375 4.203125 5.8125 4.203125 8.046875 L 4.203125 10 L 3.5625 10 C 2.910156 10 2.578125 10.328125 2.578125 10.984375 L 2.578125 16.546875 C 2.578125 16.867188 2.910156 17.53125 3.5625 17.53125 L 13.140625 17.53125 C 13.667969 17.527344 14 16.867188 14 16.546875 L 14 10.984375 C 14 10.328125 13.667969 10 13.015625 10 L 12.359375 10 L 12.359375 8.046875 C 12.359375 5.753906 10.738281 4.4375 8.453125 4.4375 Z M 17.578125 4.4375 C 17.027344 4.5 16.640625 4.996094 16.703125 5.546875 C 16.765625 6.097656 17.261719 6.5 17.8125 6.4375 C 18.363281 6.375 18.75 5.878906 18.6875 5.328125 C 18.625 4.777344 18.128906 4.375 17.578125 4.4375 Z M 8.125 6.078125 L 8.453125 6.078125 C 10.738281 6.078125 10.734375 8.03125 10.734375 8.6875 L 10.734375 10 L 5.84375 10 L 5.84375 8.6875 C 5.84375 8.03125 5.839844 6.078125 8.125 6.078125 Z M 20.046875 7.984375 C 19.316406 8.066406 18.792969 8.722656 18.875 9.453125 C 18.957031 10.183594 19.613281 10.707031 20.34375 10.625 C 21.074219 10.542969 21.597656 9.886719 21.515625 9.15625 C 21.433594 8.425781 20.777344 7.902344 20.046875 7.984375 Z M 20.109375 12.828125 C 19.988281 12.816406 19.875 12.828125 19.75 12.84375 C 18.75 12.957031 18.027344 13.859375 18.140625 14.859375 C 18.253906 15.859375 19.15625 16.582031 20.15625 16.46875 C 21.15625 16.355469 21.878906 15.453125 21.765625 14.453125 C 21.667969 13.578125 20.953125 12.902344 20.109375 12.828125 Z M 16.921875 17.671875 C 15.742188 17.671875 14.796875 18.632812 14.796875 19.8125 C 14.796875 20.992188 15.742188 21.9375 16.921875 21.9375 C 18.101562 21.9375 19.0625 20.992188 19.0625 19.8125 C 19.0625 18.632812 18.101562 17.671875 16.921875 17.671875 Z M 16.921875 17.671875 "/>
</g>
</svg>
