<?xml version="1.0" encoding="UTF-8"?>
<svg xmlns="http://www.w3.org/2000/svg" xmlns:xlink="http://www.w3.org/1999/xlink" width="32" height="32" viewBox="0 0 32 32" version="1.1">
<g id="surface1">
<path style=" stroke:none;fill-rule:nonzero;fill:rgb(74.509804%,74.509804%,74.509804%);fill-opacity:1;" d="M 9.359375 8 C 7.496094 7.992188 5.988281 9.53125 5.980469 11.453125 C 6.015625 12.941406 6.023438 14.46875 6.011719 15.992188 L 11.851562 16.019531 L 11.890625 8.011719 L 9.359375 8.003906 Z M 14.175781 8.023438 L 14.136719 16.03125 L 19.980469 16.0625 C 20.007812 14.53125 20.039062 12.996094 20.054688 11.523438 C 20.058594 9.601562 18.570312 8.046875 16.707031 8.039062 L 14.175781 8.027344 Z M 6 18.1875 C 5.980469 19.847656 5.929688 21.1875 5.925781 22.714844 C 5.910156 26.738281 9.03125 29.992188 12.929688 30.011719 C 16.824219 30.03125 19.980469 26.8125 20 22.789062 C 19.929688 21.117188 19.90625 19.769531 19.925781 18.1875 Z M 6 18.1875 "/>
<path style=" stroke:none;fill-rule:nonzero;fill:rgb(74.509804%,74.509804%,74.509804%);fill-opacity:1;" d="M 16.121094 0.0195312 C 15.210938 0.121094 14.351562 0.464844 13.621094 1.019531 C 12.644531 1.761719 11.996094 2.929688 11.996094 4.394531 C 11.988281 4.921875 12.46875 5.410156 12.996094 5.410156 C 13.523438 5.410156 14.003906 4.921875 13.996094 4.394531 C 13.996094 3.496094 14.339844 2.988281 14.871094 2.582031 C 15.402344 2.179688 16.195312 1.984375 16.996094 2.019531 C 17.792969 2.058594 18.5625 2.328125 19.121094 2.832031 C 19.675781 3.335938 20.058594 4 20.058594 5.082031 C 20.058594 9.414062 22.984375 12.101562 26.058594 12.019531 C 27.769531 11.976562 29.433594 11.066406 30.558594 9.394531 L 29.433594 7.394531 C 28.679688 9.226562 27.296875 9.988281 25.996094 10.019531 C 24.074219 10.070312 22.058594 8.5625 22.058594 5.082031 C 22.058594 3.5 21.382812 2.195312 20.433594 1.332031 C 19.480469 0.46875 18.269531 0.078125 17.058594 0.0195312 C 16.753906 0.0078125 16.421875 -0.0117188 16.121094 0.0195312 Z M 29.996094 3.957031 C 29.992188 3.976562 29.992188 4 29.996094 4.019531 C 29.996094 4.109375 29.996094 4.179688 29.996094 4.269531 L 31.558594 7.019531 C 31.578125 6.9375 31.597656 6.855469 31.621094 6.769531 Z M 29.996094 4.707031 C 29.984375 4.917969 29.953125 5.136719 29.933594 5.332031 L 31.371094 7.769531 C 31.417969 7.644531 31.453125 7.527344 31.496094 7.394531 Z M 29.871094 5.707031 C 29.84375 5.886719 29.78125 6.042969 29.746094 6.207031 L 31.058594 8.457031 C 31.117188 8.335938 31.191406 8.210938 31.246094 8.082031 Z M 29.683594 6.582031 C 29.632812 6.761719 29.550781 6.921875 29.496094 7.082031 L 30.683594 9.144531 C 30.761719 9.015625 30.859375 8.910156 30.933594 8.769531 Z M 29.683594 6.582031 "/>
</g>
</svg>
