<?xml version="1.0" encoding="UTF-8"?>
<svg xmlns="http://www.w3.org/2000/svg" xmlns:xlink="http://www.w3.org/1999/xlink" width="32" height="32" viewBox="0 0 32 32" version="1.1">
<g id="surface1">
<path style=" stroke:none;fill-rule:nonzero;fill:rgb(74.509804%,74.509804%,74.509804%);fill-opacity:1;" d="M 5.941406 2 C 3.789062 2 2 3.789062 2 5.9375 L 2 24.875 L 2.625 25.4375 L 6 28.8125 L 6 6 L 26 6 L 26 26 L 22 26 L 22 30 L 26.0625 30 C 28.214844 30 30 28.214844 30 26.0625 L 30 5.9375 C 30 3.78125 28.222656 2 26.0625 2 Z M 5.941406 2 "/>
<path style=" stroke:none;fill-rule:nonzero;fill:rgb(74.509804%,74.509804%,74.509804%);fill-opacity:1;" d="M 10 18 C 8.890625 18 8 18.890625 8 20 L 8 28 C 8 29.109375 8.890625 30 10 30 L 18 30 C 19.109375 30 20 29.109375 20 28 L 20 20 C 20 18.890625 19.109375 18 18 18 Z M 10 20 L 14 20 L 14 28 L 10 28 Z M 10 20 "/>
</g>
</svg>
