<?xml version="1.0" encoding="UTF-8"?>
<svg xmlns="http://www.w3.org/2000/svg" xmlns:xlink="http://www.w3.org/1999/xlink" width="32" height="32" viewBox="0 0 32 32" version="1.1">
<g id="surface1">
<path style=" stroke:none;fill-rule:nonzero;fill:rgb(74.509804%,74.509804%,74.509804%);fill-opacity:1;" d="M 12 2 C 9.980469 2.007812 10 4 10 4 L 10 26 C 10 28 12 28 12 28 L 20 28 C 22 28 22 26 22 26 L 22 10 C 22 8.890625 21.109375 8 20 8 L 14 8 L 14 4 C 14 4 13.980469 2.011719 12 2 Z M 12 10 L 20 10 L 20 16.0625 L 12 16 Z M 12 18 L 14 18 L 14 20 L 16 20 L 16 18 L 18 18 L 18 20 L 20 20 L 20 22 L 18 22 L 18 24 L 20 24 L 20 26 L 18 26 L 18 24 L 16 24 L 16 26 L 14 26 L 14 24 L 12 24 L 12 22 L 14 22 L 14 20 L 12 20 Z M 14 22 L 14 24 L 16 24 L 16 22 Z M 16 22 L 18 22 L 18 20 L 16 20 Z M 16 22 "/>
</g>
</svg>
