<?xml version="1.0" encoding="UTF-8"?>
<svg xmlns="http://www.w3.org/2000/svg" xmlns:xlink="http://www.w3.org/1999/xlink" width="32" height="32" viewBox="0 0 32 32" version="1.1">
<g id="surface1">
<path style=" stroke:none;fill-rule:nonzero;fill:rgb(74.509804%,74.509804%,74.509804%);fill-opacity:1;" d="M 4 8 C 3 8 2 9 2 10 L 2 18 C 2 19 3 20 4 20 L 6 20 L 6 16 L 26 16 L 26 20 L 28 20 C 29 20 30 19 30 18 L 30 10 C 30 9 29 8 28 8 Z M 4 8 "/>
<path style=" stroke:none;fill-rule:nonzero;fill:rgb(74.509804%,74.509804%,74.509804%);fill-opacity:1;" d="M 8 2 L 8 6 L 24 6 L 24 2 Z M 8 2 "/>
<path style=" stroke:none;fill-rule:nonzero;fill:rgb(74.509804%,74.509804%,74.509804%);fill-opacity:1;" d="M 8 18 L 8 28 L 24 28 L 24 18 Z M 10 20 L 22 20 L 22 22 L 10 22 Z M 10 24 L 20 24 L 20 26 L 10 26 Z M 10 24 "/>
</g>
</svg>
