<?xml version="1.0" encoding="UTF-8"?>
<svg xmlns="http://www.w3.org/2000/svg" xmlns:xlink="http://www.w3.org/1999/xlink" width="96" height="96" viewBox="0 0 96 96" version="1.1">
<g id="surface1">
<path style=" stroke:none;fill-rule:evenodd;fill:rgb(10.196078%,10.196078%,10.196078%);fill-opacity:1;" d="M 12.101562 29.539062 L 22.320312 39.542969 L 22 25.515625 L 12.097656 25.46875 Z M 12.101562 29.539062 "/>
<path style="fill-rule:evenodd;fill:rgb(94.901961%,94.901961%,94.901961%);fill-opacity:1;stroke-width:5.03546;stroke-linecap:butt;stroke-linejoin:miter;stroke:rgb(68.627451%,68.627451%,68.627451%);stroke-opacity:1;stroke-miterlimit:4;" d="M 97.045898 1029.840207 L 433.919271 1028.660194 L 435.099284 664.768592 L 347.066243 575.575884 L 97.045898 575.575884 Z M 97.045898 1029.840207 " transform="matrix(0.192,0,0,0.192,0,-106.053539)"/>
<path style="fill-rule:evenodd;fill:rgb(68.627451%,68.627451%,68.627451%);fill-opacity:1;stroke-width:5.03546;stroke-linecap:butt;stroke-linejoin:miter;stroke:rgb(68.627451%,68.627451%,68.627451%);stroke-opacity:1;stroke-miterlimit:4;" d="M 431.518555 662.917193 L 349.344889 662.347531 L 350.118001 578.546262 Z M 431.518555 662.917193 " transform="matrix(0.192,0,0,0.192,0,-106.053539)"/>
<path style=" stroke:none;fill-rule:nonzero;fill:rgb(20%,20%,20%);fill-opacity:1;" d="M 12.125 13.40625 L 55.308594 13.40625 L 55.308594 29.601562 L 12.125 29.601562 Z M 12.125 13.40625 "/>
<path style=" stroke:none;fill-rule:evenodd;fill:rgb(20%,20%,20%);fill-opacity:1;" d="M 40.09375 46.664062 L 40.09375 78.660156 C 38.738281 77.398438 36.96875 76.578125 35.101562 76.578125 C 31.1875 76.578125 27.625 80.140625 27.625 84.058594 C 27.625 87.976562 31.1875 91.539062 35.101562 91.539062 C 39.019531 91.539062 42.59375 87.976562 42.59375 84.058594 L 42.59375 46.664062 Z M 40.09375 46.664062 "/>
<path style=" stroke:none;fill-rule:evenodd;fill:rgb(20%,20%,20%);fill-opacity:1;" d="M 64.738281 43.796875 L 64.738281 75.800781 C 63.378906 74.535156 61.609375 73.714844 59.746094 73.71875 C 55.828125 73.71875 52.269531 77.28125 52.269531 81.191406 C 52.269531 85.109375 55.828125 88.671875 59.746094 88.671875 C 63.660156 88.671875 67.234375 85.109375 67.234375 81.191406 L 67.234375 43.796875 Z M 64.738281 43.796875 "/>
<path style=" stroke:none;fill-rule:nonzero;fill:rgb(20%,20%,20%);fill-opacity:1;" d="M 40.1875 46.695312 L 66.882812 43.539062 L 67.222656 46.414062 L 40.53125 49.570312 Z M 40.1875 46.695312 "/>
<path style="fill:none;stroke-width:9;stroke-linecap:butt;stroke-linejoin:miter;stroke:rgb(100%,100%,100%);stroke-opacity:1;stroke-miterlimit:4;" d="M 130.859375 691.196815 C 118.835449 691.09509 107.5236 679.010129 107.44222 663.71065 C 107.381185 648.411171 119.425456 636.143104 131.571452 636.468625 C 143.717448 636.814491 154.337565 648.390826 154.520671 664.666867 C 154.744466 680.963254 142.883301 691.318885 130.859375 691.196815 Z M 130.859375 691.196815 " transform="matrix(0.192,0,0,0.192,0,-106.053539)"/>
<path style="fill:none;stroke-width:9;stroke-linecap:butt;stroke-linejoin:miter;stroke:rgb(100%,100%,100%);stroke-opacity:1;stroke-miterlimit:4;" d="M 218.91276 643.813189 C 218.91276 643.813189 211.649577 636.143104 196.187337 636.265174 C 180.704753 636.3669 172.627767 652.15466 172.871908 664.504107 C 173.136393 676.873898 183.837891 689.976112 196.065267 691.25785 C 208.312988 692.519243 217.447917 686.069862 217.447917 686.069862 L 216.878255 665.968951 L 200.113932 666.192746 " transform="matrix(0.192,0,0,0.192,0,-106.053539)"/>
<path style="fill:none;stroke-width:9;stroke-linecap:butt;stroke-linejoin:bevel;stroke:rgb(100%,100%,100%);stroke-opacity:1;stroke-miterlimit:4;" d="M 915.696335 696.28503 L 937.837449 638.002993 L 960.564413 696.28503 " transform="matrix(0.193362,0,0,0.193362,-132.736656,-107.16241)"/>
<path style="fill:none;stroke-width:9;stroke-linecap:butt;stroke-linejoin:miter;stroke:rgb(100%,100%,100%);stroke-opacity:1;stroke-miterlimit:4;" d="M 924.585103 676.770144 L 950.362531 676.770144 " transform="matrix(0.193362,0,0,0.193362,-132.736656,-107.16241)"/>
</g>
</svg>
