<?xml version="1.0" encoding="UTF-8"?>
<svg xmlns="http://www.w3.org/2000/svg" xmlns:xlink="http://www.w3.org/1999/xlink" width="96" height="96" viewBox="0 0 96 96" version="1.1">
<g id="surface1">
<path style=" stroke:none;fill-rule:evenodd;fill:rgb(78.431373%,6.666667%,0%);fill-opacity:1;" d="M 12.101562 29.539062 L 22.320312 39.542969 L 22 25.515625 L 12.097656 25.46875 Z M 12.101562 29.539062 "/>
<path style="fill-rule:evenodd;fill:rgb(94.901961%,94.901961%,94.901961%);fill-opacity:1;stroke-width:5.03546;stroke-linecap:butt;stroke-linejoin:miter;stroke:rgb(68.627451%,68.627451%,68.627451%);stroke-opacity:1;stroke-miterlimit:4;" d="M 97.045898 1029.840207 L 433.919271 1028.660194 L 435.099284 664.768592 L 347.066243 575.575884 L 97.045898 575.575884 Z M 97.045898 1029.840207 " transform="matrix(0.192,0,0,0.192,0,-106.053539)"/>
<path style="fill-rule:evenodd;fill:rgb(68.627451%,68.627451%,68.627451%);fill-opacity:1;stroke-width:5.03546;stroke-linecap:butt;stroke-linejoin:miter;stroke:rgb(68.627451%,68.627451%,68.627451%);stroke-opacity:1;stroke-miterlimit:4;" d="M 431.518555 662.917193 L 349.344889 662.347531 L 350.118001 578.546262 Z M 431.518555 662.917193 " transform="matrix(0.192,0,0,0.192,0,-106.053539)"/>
<path style=" stroke:none;fill-rule:nonzero;fill:rgb(94.117647%,22.352941%,8.627451%);fill-opacity:1;" d="M 12.125 13.40625 L 55.308594 13.40625 L 55.308594 29.601562 L 12.125 29.601562 Z M 12.125 13.40625 "/>
<path style=" stroke:none;fill-rule:evenodd;fill:rgb(100%,40%,0%);fill-opacity:1;" d="M 39.25 43.304688 L 52.332031 67.292969 L 39.25 91.28125 L 45.789062 91.28125 L 55.601562 73.289062 L 65.414062 91.28125 L 71.957031 91.28125 L 61.488281 72.085938 L 60.0625 69.472656 L 58.875 67.292969 L 45.789062 43.304688 Z M 39.25 43.304688 "/>
<path style=" stroke:none;fill-rule:evenodd;fill:rgb(100%,80%,0%);fill-opacity:1;" d="M 58.046875 57.980469 L 60.425781 62.34375 L 70.339844 62.34375 L 70.339844 57.980469 Z M 62.804688 66.703125 L 65.1875 71.066406 L 70.339844 71.066406 L 70.339844 66.703125 Z M 62.804688 66.703125 "/>
<path style=" stroke:none;fill-rule:evenodd;fill:rgb(94.117647%,22.352941%,8.627451%);fill-opacity:1;" d="M 28.140625 43.332031 L 41.226562 67.316406 L 28.140625 91.304688 L 34.683594 91.304688 L 47.769531 67.316406 L 34.683594 43.332031 Z M 28.140625 43.332031 "/>
<path style="fill:none;stroke-width:9;stroke-linecap:butt;stroke-linejoin:miter;stroke:rgb(100%,100%,100%);stroke-opacity:1;stroke-miterlimit:4;" d="M 311.194046 528.451914 L 311.499221 582.935964 " transform="matrix(0.192,0,0,0.192,-35.612538,-85.654174)"/>
<path style="fill:none;stroke-width:9;stroke-linecap:butt;stroke-linejoin:miter;stroke:rgb(100%,100%,100%);stroke-opacity:1;stroke-miterlimit:4;" d="M 346.28926 527.983978 L 346.574091 582.468027 " transform="matrix(0.192,0,0,0.192,-35.612538,-85.654174)"/>
<path style="fill:none;stroke-width:9;stroke-linecap:butt;stroke-linejoin:miter;stroke:rgb(100%,100%,100%);stroke-opacity:1;stroke-miterlimit:4;" d="M 310.88887 555.042897 L 347.489618 555.042897 " transform="matrix(0.192,0,0,0.192,-35.612538,-85.654174)"/>
<path style="fill:none;stroke-width:10;stroke-linecap:butt;stroke-linejoin:miter;stroke:rgb(100%,100%,100%);stroke-opacity:1;stroke-miterlimit:4;" d="M 215.169271 638.075884 C 215.169271 638.075884 205.912272 633.803423 197.102865 633.701698 C 188.313802 633.599973 182.840983 638.930376 182.535807 646.519081 C 182.230632 654.107785 186.482747 660.170611 201.639811 661.960975 C 216.77653 663.75134 215.881348 676.955279 214.009603 681.634641 C 212.137858 686.293658 203.328451 690.708534 194.356283 689.508176 C 185.36377 688.307818 177.897135 684.259152 177.897135 684.259152 " transform="matrix(0.192,0,0,0.192,0,-106.053539)"/>
</g>
</svg>
