<svg xmlns="http://www.w3.org/2000/svg" width="22" height="22" version="1.1">
 <defs>
  <style id="current-color-scheme" type="text/css">
   .ColorScheme-Text { color: #e9ecf2; } .ColorScheme-Highlight { color: #1AD6AB; }
  </style>
  <linearGradient id="arrongin" x1="0%" x2="0%" y1="0%" y2="100%">
   <stop offset="0%" style="stop-color:#dd9b44"/>
   <stop offset="100%" style="stop-color:#ad6c16"/>
  </linearGradient>
  <linearGradient id="aurora" x1="0%" x2="0%" y1="0%" y2="100%">
   <stop offset="0%" style="stop-color:#09D4DF"/>
   <stop offset="100%" style="stop-color:#9269F4"/>
  </linearGradient>
  <linearGradient id="cyberneon" x1="0%" x2="0%" y1="0%" y2="100%">
   <stop offset="0" style="stop-color:#0abdc6"/>
   <stop offset="1" style="stop-color:#ea00d9"/>
  </linearGradient>
  <linearGradient id="fitdance" x1="0%" x2="0%" y1="0%" y2="100%">
   <stop offset="0%" style="stop-color:#1AD6AB"/>
   <stop offset="100%" style="stop-color:#329DB6"/>
  </linearGradient>
  <linearGradient id="oomox" x1="0%" x2="0%" y1="0%" y2="100%">
   <stop offset="0%" style="stop-color:#89f224"/>
   <stop offset="100%" style="stop-color:#579916"/>
  </linearGradient>
  <linearGradient id="rainblue" x1="0%" x2="0%" y1="0%" y2="100%">
   <stop offset="0%" style="stop-color:#00F260"/>
   <stop offset="100%" style="stop-color:#0575E6"/>
  </linearGradient>
  <linearGradient id="sunrise" x1="0%" x2="0%" y1="0%" y2="100%">
   <stop offset="0%" style="stop-color:#FF8501"/>
   <stop offset="100%" style="stop-color:#FFCB01"/>
  </linearGradient>
  <linearGradient id="telinkrin" x1="0%" x2="0%" y1="0%" y2="100%">
   <stop offset="0%" style="stop-color:#b2ced6"/>
   <stop offset="100%" style="stop-color:#6da5b7"/>
  </linearGradient>
  <linearGradient id="60spsycho" x1="0%" x2="0%" y1="0%" y2="100%">
   <stop offset="0%" style="stop-color:#df5940"/>
   <stop offset="25%" style="stop-color:#d8d15f"/>
   <stop offset="50%" style="stop-color:#e9882a"/>
   <stop offset="100%" style="stop-color:#279362"/>
  </linearGradient>
  <linearGradient id="90ssummer" x1="0%" x2="0%" y1="0%" y2="100%">
   <stop offset="0%" style="stop-color:#f618c7"/>
   <stop offset="20%" style="stop-color:#94ffab"/>
   <stop offset="50%" style="stop-color:#fbfd54"/>
   <stop offset="100%" style="stop-color:#0f83ae"/>
  </linearGradient>
 </defs>
 <path fill="url(#oomox)" class="ColorScheme-Text" d="m9 3c-4.432 0-8 3.568-8 8s3.568 8 8 8c1.596 0 3.077-0.468 4.322-1.268a1.0001 1.0001 0 0 1 -0.322 -0.732v-2a1.0001 1.0001 0 0 1 0.5 -0.863 1.0001 1.0001 0 0 1 0.258 -0.965l1.414-1.414a1.0001 1.0001 0 0 1 0.963 -0.258 1.0001 1.0001 0 0 1 0.865 -0.5c0-4.432-3.568-8-8-8zm-2 3c0.6026 0 1.2625 0.065 1.8281 0.25 0.2828 0.0925 0.5465 0.213 0.7696 0.4082 0.0906 0.0793 0.0968 0.2308 0.164 0.3418h0.7383a0.50005 0.50005 0 0 1 0.5 0.5v0.5c0.202 0.0034 0.317 0.0103 1.201 0 0.376-0.0044 0.606-0.0015 0.887 0a1.5 1.5 0 0 1 1.412 -1 1.5 1.5 0 0 1 1.5 1.5 1.5 1.5 0 0 1 -1.5 1.5 1.5 1.5 0 0 1 -0.16 -0.0098c-0.695 0.8638-1.641 1.5578-2.346 2.2288l0.006 0.269a0.50005 0.50005 0 0 1 -0.506 0.512c-0.447-0.005-0.501 0.092-0.484 0.064 0.016-0.027-0.017 0.088 0.078 0.342 0.095 0.255 0.275 0.588 0.453 0.928s0.359 0.681 0.445 1.053a0.50005 0.50005 0 0 1 -0.486 0.613h-3a0.50005 0.50005 0 0 1 -0.0039 0c-1.3257-0.008-3.9941 0-3.9941 0a0.50005 0.50005 0 0 1 -0.3985 -0.805c0.2764-0.36 0.5351-1.042 0.7168-1.754 0.1306-0.511 0.2221-1.009 0.2988-1.461-0.0699-0.013-0.141-0.033-0.2187-0.074-0.1626-0.085-0.3392-0.341-0.3281-0.562 0.0073-0.148 0.024-0.141 0.0293-0.16 0.0052-0.02 0.0066-0.03 0.0078-0.038v-0.001c-0.4191-0.587-0.6094-1.3623-0.6094-2.0512 0-0.8775 0.4156-1.6484 0.9805-2.1954 0.5648-0.5469 1.2851-0.8984 2.0195-0.8984zm0 1c-0.3918 0-0.9206 0.2264-1.3242 0.6172s-0.6758 0.918-0.6758 1.4766c0 0.5009 0.2257 1.2482 0.4648 1.5452a0.50005 0.50005 0 0 1 0.0782 0.132c0.0267 0.069 0.009 0.116 0.0195 0.18 0.1366-0.019 0.2685-0.031 0.5566-0.123 0.3417-0.135 0.6432-0.285 0.9258-0.441 0.0962-0.054 0.1894-0.117 0.2852-0.176 0.2095-0.132 0.4112-0.2671 0.5859-0.4141 0.321-0.2901 0.5849-0.6475 0.8633-0.9961 0.0964-0.1595 0.1862-0.3225 0.2598-0.4961a0.50005 0.50005 0 0 1 0.4609 -0.3047 0.50005 0.50005 0 0 1 -0.5 -0.5c0-0.0272 0.0072-0.0288-0.0625-0.0898-0.0697-0.0611-0.2185-0.1432-0.4199-0.209-0.4029-0.1318-0.994-0.2012-1.5176-0.2012zm2.5039 1l0.2715 0.002c0.002-0.0006 0.0038-0.0014 0.0058-0.002h-0.2773zm1.0801 1a0.50005 0.50005 0 0 1 -0.088 0.0078l-0.5116-0.0039c-0.0864 0.0518-0.1948 0.1408-0.334 0.3086-0.3124 0.3764-0.6995 1.0075-1.375 1.4885-0.631 0.449-1.1564 0.688-1.5703 0.853-0.08 0.035-0.1458 0.079-0.2285 0.112a0.50005 0.50005 0 0 1 -0.0293 0.009c-0.0665 0.022-0.1126 0.029-0.1739 0.047-0.0289 0.01-0.1081 0.044-0.1289 0.051-0.0829 0.511-0.1825 1.139-0.3554 1.816-0.1219 0.478-0.3557 0.88-0.5528 1.311 0.691-0.002 2.1759-0.007 3.2676 0h2.2401c-0.038-0.077-0.045-0.12-0.088-0.201-0.172-0.329-0.369-0.681-0.504-1.043s-0.25-0.792 0.002-1.209c0.157-0.259 0.526-0.264 0.838-0.34l-0.004-0.195a0.50005 0.50005 0 0 1 0.147 -0.366c0.762-0.764 1.616-1.477 2.222-2.1772a1.5 1.5 0 0 1 -0.269 -0.4688c-0.28-0.0015-0.52-0.0041-0.875 0-1.179 0.0138-1.578 0.0014-1.629 0zm6.416 3v1.586l-1.121-1.121-1.414 1.414 1.121 1.121h-1.586v2h1.586l-1.121 1.121 1.414 1.414 1.121-1.121v1.586h2v-1.586l1.121 1.121 1.414-1.414-1.121-1.121h1.586v-2h-1.586l1.121-1.121-1.414-1.414-1.121 1.121v-1.586h-2zm1 2a2 2 0 0 1 2 2 2 2 0 0 1 -2 2 2 2 0 0 1 -2 -2 2 2 0 0 1 2 -2z"/>
</svg>
