<svg xmlns="http://www.w3.org/2000/svg" width="16" height="16" version="1.1">
 <defs>
   <style id="current-color-scheme" type="text/css">
   .ColorScheme-Text { color: #e9ecf2; } .ColorScheme-Highlight { color:#5294e2; }
  </style>
  <linearGradient id="arrongin" x1="0%" x2="0%" y1="0%" y2="100%">
   <stop offset="0%" style="stop-color:#dd9b44; stop-opacity:1"/>
   <stop offset="100%" style="stop-color:#ad6c16; stop-opacity:1"/>
  </linearGradient>
  <linearGradient id="aurora" x1="0%" x2="0%" y1="0%" y2="100%">
   <stop offset="0%" style="stop-color:#09D4DF; stop-opacity:1"/>
   <stop offset="100%" style="stop-color:#9269F4; stop-opacity:1"/>
  </linearGradient>
  <linearGradient id="cyberneon" x1="0%" x2="0%" y1="0%" y2="100%">
    <stop offset="0" style="stop-color:#0abdc6; stop-opacity:1"/>
    <stop offset="1" style="stop-color:#ea00d9; stop-opacity:1"/>
  </linearGradient>
  <linearGradient id="fitdance" x1="0%" x2="0%" y1="0%" y2="100%">
   <stop offset="0%" style="stop-color:#1AD6AB; stop-opacity:1"/>
   <stop offset="100%" style="stop-color:#329DB6; stop-opacity:1"/>
  </linearGradient>
  <linearGradient id="oomox" x1="0%" x2="0%" y1="0%" y2="100%">
   <stop offset="0%" style="stop-color:#89f224; stop-opacity:1"/>
   <stop offset="100%" style="stop-color:#579916; stop-opacity:1"/>
  </linearGradient>
  <linearGradient id="rainblue" x1="0%" x2="0%" y1="0%" y2="100%">
   <stop offset="0%" style="stop-color:#00F260; stop-opacity:1"/>
   <stop offset="100%" style="stop-color:#0575E6; stop-opacity:1"/>
  </linearGradient>
  <linearGradient id="sunrise" x1="0%" x2="0%" y1="0%" y2="100%">
   <stop offset="0%" style="stop-color: #FF8501; stop-opacity:1"/>
   <stop offset="100%" style="stop-color: #FFCB01; stop-opacity:1"/>
  </linearGradient>
  <linearGradient id="telinkrin" x1="0%" x2="0%" y1="0%" y2="100%">
   <stop offset="0%" style="stop-color: #b2ced6; stop-opacity:1"/>
   <stop offset="100%" style="stop-color: #6da5b7; stop-opacity:1"/>
  </linearGradient>
  <linearGradient id="60spsycho" x1="0%" x2="0%" y1="0%" y2="100%">
   <stop offset="0%" style="stop-color: #df5940; stop-opacity:1"/>
   <stop offset="25%" style="stop-color: #d8d15f; stop-opacity:1"/>
   <stop offset="50%" style="stop-color: #e9882a; stop-opacity:1"/>
   <stop offset="100%" style="stop-color: #279362; stop-opacity:1"/>
  </linearGradient>
  <linearGradient id="90ssummer" x1="0%" x2="0%" y1="0%" y2="100%">
   <stop offset="0%" style="stop-color: #f618c7; stop-opacity:1"/>
   <stop offset="20%" style="stop-color: #94ffab; stop-opacity:1"/>
   <stop offset="50%" style="stop-color: #fbfd54; stop-opacity:1"/>
   <stop offset="100%" style="stop-color: #0f83ae; stop-opacity:1"/>
  </linearGradient>
 </defs>
 <path fill="url(#oomox)" class="ColorScheme-Text" d="M 4.889 0 C 4.643 0 4.444 0.198 4.444 0.444 L 4.444 1.917 C 4.728 1.843 5.027 1.778 5.333 1.778 L 6.222 1.778 L 6.222 0.444 C 6.222 0.198 6.024 0 5.778 0 L 4.889 0 Z M 7.556 0 C 7.309 0 7.111 0.198 7.111 0.444 L 7.111 1.778 L 8.889 1.778 L 8.889 0.444 C 8.889 0.198 8.691 0 8.444 0 L 7.556 0 Z M 10.222 0 C 9.976 0 9.778 0.198 9.778 0.444 L 9.778 1.778 L 10.667 1.778 C 10.973 1.778 11.272 1.843 11.556 1.917 L 11.556 0.444 C 11.556 0.198 11.357 0 11.111 0 L 10.222 0 Z M 5.333 2.667 C 3.856 2.667 2.667 3.856 2.667 5.333 L 2.667 10.667 C 2.667 12.144 3.856 13.333 5.333 13.333 L 10.667 13.333 C 12.144 13.333 13.333 12.144 13.333 10.667 L 13.333 5.333 C 13.333 3.856 12.144 2.667 10.667 2.667 L 5.333 2.667 Z M 0.444 4.444 C 0.198 4.444 0 4.643 0 4.889 L 0 5.778 C 0 6.024 0.198 6.222 0.444 6.222 L 1.778 6.222 L 1.778 5.333 C 1.778 5.027 1.843 4.728 1.917 4.444 L 0.444 4.444 Z M 5.333 4.444 L 10.667 4.444 C 11.159 4.444 11.556 4.841 11.556 5.333 L 11.556 10.667 C 11.556 11.159 11.159 11.556 10.667 11.556 L 5.333 11.556 C 4.841 11.556 4.444 11.159 4.444 10.667 L 4.444 5.333 C 4.444 4.841 4.841 4.444 5.333 4.444 Z M 14.083 4.444 C 14.157 4.728 14.222 5.027 14.222 5.333 L 14.222 6.222 L 15.556 6.222 C 15.802 6.222 16 6.024 16 5.778 L 16 4.889 C 16 4.643 15.802 4.444 15.556 4.444 L 14.083 4.444 Z M 5.333 5.333 L 5.333 10.667 L 10.667 10.667 L 10.667 5.333 L 5.333 5.333 Z M 0.444 7.111 C 0.198 7.111 0 7.309 0 7.556 L 0 8.444 C 0 8.691 0.198 8.889 0.444 8.889 L 1.778 8.889 L 1.778 7.111 L 0.444 7.111 Z M 14.222 7.111 L 14.222 8.889 L 15.556 8.889 C 15.802 8.889 16 8.691 16 8.444 L 16 7.556 C 16 7.309 15.802 7.111 15.556 7.111 L 14.222 7.111 Z M 0.444 9.778 C 0.198 9.778 0 9.976 0 10.222 L 0 11.111 C 0 11.357 0.198 11.556 0.444 11.556 L 1.917 11.556 C 1.843 11.272 1.778 10.973 1.778 10.667 L 1.778 9.778 L 0.444 9.778 Z M 14.222 9.778 L 14.222 10.667 C 14.222 10.973 14.157 11.272 14.083 11.556 L 15.556 11.556 C 15.802 11.556 16 11.357 16 11.111 L 16 10.222 C 16 9.976 15.802 9.778 15.556 9.778 L 14.222 9.778 Z M 4.444 14.083 L 4.444 15.556 C 4.444 15.802 4.643 16 4.889 16 L 5.778 16 C 6.024 16 6.222 15.802 6.222 15.556 L 6.222 14.222 L 5.333 14.222 C 5.027 14.222 4.728 14.157 4.444 14.083 Z M 11.556 14.083 C 11.272 14.157 10.973 14.222 10.667 14.222 L 9.778 14.222 L 9.778 15.556 C 9.778 15.802 9.976 16 10.222 16 L 11.111 16 C 11.357 16 11.556 15.802 11.556 15.556 L 11.556 14.083 Z M 7.111 14.222 L 7.111 15.556 C 7.111 15.802 7.309 16 7.556 16 L 8.444 16 C 8.691 16 8.889 15.802 8.889 15.556 L 8.889 14.222 L 7.111 14.222 Z"/>
</svg>
