<svg xmlns="http://www.w3.org/2000/svg" width="16" height="16" version="1.1">
 <defs>
   <style id="current-color-scheme" type="text/css">
   .ColorScheme-Text { color: #e9ecf2; } .ColorScheme-Highlight { color:#5294e2; }
  </style>
  <linearGradient id="arrongin" x1="0%" x2="0%" y1="0%" y2="100%">
   <stop offset="0%" style="stop-color:#dd9b44; stop-opacity:1"/>
   <stop offset="100%" style="stop-color:#ad6c16; stop-opacity:1"/>
  </linearGradient>
  <linearGradient id="aurora" x1="0%" x2="0%" y1="0%" y2="100%">
   <stop offset="0%" style="stop-color:#09D4DF; stop-opacity:1"/>
   <stop offset="100%" style="stop-color:#9269F4; stop-opacity:1"/>
  </linearGradient>
  <linearGradient id="cyberneon" x1="0%" x2="0%" y1="0%" y2="100%">
    <stop offset="0" style="stop-color:#0abdc6; stop-opacity:1"/>
    <stop offset="1" style="stop-color:#ea00d9; stop-opacity:1"/>
  </linearGradient>
  <linearGradient id="fitdance" x1="0%" x2="0%" y1="0%" y2="100%">
   <stop offset="0%" style="stop-color:#1AD6AB; stop-opacity:1"/>
   <stop offset="100%" style="stop-color:#329DB6; stop-opacity:1"/>
  </linearGradient>
  <linearGradient id="oomox" x1="0%" x2="0%" y1="0%" y2="100%">
   <stop offset="0%" style="stop-color:#89f224; stop-opacity:1"/>
   <stop offset="100%" style="stop-color:#579916; stop-opacity:1"/>
  </linearGradient>
  <linearGradient id="rainblue" x1="0%" x2="0%" y1="0%" y2="100%">
   <stop offset="0%" style="stop-color:#00F260; stop-opacity:1"/>
   <stop offset="100%" style="stop-color:#0575E6; stop-opacity:1"/>
  </linearGradient>
  <linearGradient id="sunrise" x1="0%" x2="0%" y1="0%" y2="100%">
   <stop offset="0%" style="stop-color: #FF8501; stop-opacity:1"/>
   <stop offset="100%" style="stop-color: #FFCB01; stop-opacity:1"/>
  </linearGradient>
  <linearGradient id="telinkrin" x1="0%" x2="0%" y1="0%" y2="100%">
   <stop offset="0%" style="stop-color: #b2ced6; stop-opacity:1"/>
   <stop offset="100%" style="stop-color: #6da5b7; stop-opacity:1"/>
  </linearGradient>
  <linearGradient id="60spsycho" x1="0%" x2="0%" y1="0%" y2="100%">
   <stop offset="0%" style="stop-color: #df5940; stop-opacity:1"/>
   <stop offset="25%" style="stop-color: #d8d15f; stop-opacity:1"/>
   <stop offset="50%" style="stop-color: #e9882a; stop-opacity:1"/>
   <stop offset="100%" style="stop-color: #279362; stop-opacity:1"/>
  </linearGradient>
  <linearGradient id="90ssummer" x1="0%" x2="0%" y1="0%" y2="100%">
   <stop offset="0%" style="stop-color: #f618c7; stop-opacity:1"/>
   <stop offset="20%" style="stop-color: #94ffab; stop-opacity:1"/>
   <stop offset="50%" style="stop-color: #fbfd54; stop-opacity:1"/>
   <stop offset="100%" style="stop-color: #0f83ae; stop-opacity:1"/>
  </linearGradient>
 </defs>
 <path fill="url(#oomox)" class="ColorScheme-Text" fill-rule="evenodd" d="M 9.436 3.992 C 9.88 3.762 10.094 3.57 11.13 3.311 C 12.136 3.06 13.388 2.452 14.395 2.217 C 12.672 2.424 10.594 2.859 9.436 3.992 L 9.436 3.992 L 9.436 3.992 Z M 0.1 8.068 C 0.66 11.719 3.793 14.434 7.501 14.455 C 7.691 14.454 7.881 14.449 8.07 14.438 C 8.071 14.437 8.073 14.437 8.074 14.437 C 9.56 14.33 10.98 13.785 12.156 12.871 C 11.991 11.793 11.432 10.6 10.227 9.215 C 10.227 9.215 10.227 9.215 10.227 9.215 C 9.974 8.738 9.809 8.39 9.713 8.048 C 9.513 7.338 10.046 6.526 10.245 6.137 C 10.562 5.52 10.829 4.659 11.3 4.194 C 12.124 3.381 13.563 2.96 14.834 2.539 C 15.232 2.406 15.585 2.434 16 2.344 C 15.615 2.129 15.134 2.049 14.742 2.043 C 12.648 2.012 11.373 2.329 10.528 2.237 C 9.457 2.121 8.455 1.53 7.141 1.545 C 6.898 1.548 6.644 1.566 6.376 1.605 C 4.444 1.889 3.207 2.948 1.621 4.862 C 0.977 5.639 0.407 6.576 0 7.296 C 0.014 7.562 0.042 7.826 0.084 8.089 C 0.089 8.082 0.094 8.076 0.1 8.068 L 0.1 8.068 L 0.1 8.068 Z M 7.008 3.313 C 7.066 3.022 7.35 2.834 7.641 2.893 C 7.933 2.952 8.122 3.236 8.064 3.527 C 8.006 3.819 7.722 4.007 7.431 3.948 C 7.14 3.889 6.95 3.604 7.008 3.313 Z"/>
</svg>
