<svg xmlns="http://www.w3.org/2000/svg" width="16" height="16" version="1.1">
 <defs>
   <style id="current-color-scheme" type="text/css">
   .ColorScheme-Text { color: #e9ecf2; } .ColorScheme-Highlight { color:#5294e2; }
  </style>
  <linearGradient id="arrongin" x1="0%" x2="0%" y1="0%" y2="100%">
   <stop offset="0%" style="stop-color:#dd9b44; stop-opacity:1"/>
   <stop offset="100%" style="stop-color:#ad6c16; stop-opacity:1"/>
  </linearGradient>
  <linearGradient id="aurora" x1="0%" x2="0%" y1="0%" y2="100%">
   <stop offset="0%" style="stop-color:#09D4DF; stop-opacity:1"/>
   <stop offset="100%" style="stop-color:#9269F4; stop-opacity:1"/>
  </linearGradient>
  <linearGradient id="cyberneon" x1="0%" x2="0%" y1="0%" y2="100%">
    <stop offset="0" style="stop-color:#0abdc6; stop-opacity:1"/>
    <stop offset="1" style="stop-color:#ea00d9; stop-opacity:1"/>
  </linearGradient>
  <linearGradient id="fitdance" x1="0%" x2="0%" y1="0%" y2="100%">
   <stop offset="0%" style="stop-color:#1AD6AB; stop-opacity:1"/>
   <stop offset="100%" style="stop-color:#329DB6; stop-opacity:1"/>
  </linearGradient>
  <linearGradient id="oomox" x1="0%" x2="0%" y1="0%" y2="100%">
   <stop offset="0%" style="stop-color:#89f224; stop-opacity:1"/>
   <stop offset="100%" style="stop-color:#579916; stop-opacity:1"/>
  </linearGradient>
  <linearGradient id="rainblue" x1="0%" x2="0%" y1="0%" y2="100%">
   <stop offset="0%" style="stop-color:#00F260; stop-opacity:1"/>
   <stop offset="100%" style="stop-color:#0575E6; stop-opacity:1"/>
  </linearGradient>
  <linearGradient id="sunrise" x1="0%" x2="0%" y1="0%" y2="100%">
   <stop offset="0%" style="stop-color: #FF8501; stop-opacity:1"/>
   <stop offset="100%" style="stop-color: #FFCB01; stop-opacity:1"/>
  </linearGradient>
  <linearGradient id="telinkrin" x1="0%" x2="0%" y1="0%" y2="100%">
   <stop offset="0%" style="stop-color: #b2ced6; stop-opacity:1"/>
   <stop offset="100%" style="stop-color: #6da5b7; stop-opacity:1"/>
  </linearGradient>
  <linearGradient id="60spsycho" x1="0%" x2="0%" y1="0%" y2="100%">
   <stop offset="0%" style="stop-color: #df5940; stop-opacity:1"/>
   <stop offset="25%" style="stop-color: #d8d15f; stop-opacity:1"/>
   <stop offset="50%" style="stop-color: #e9882a; stop-opacity:1"/>
   <stop offset="100%" style="stop-color: #279362; stop-opacity:1"/>
  </linearGradient>
  <linearGradient id="90ssummer" x1="0%" x2="0%" y1="0%" y2="100%">
   <stop offset="0%" style="stop-color: #f618c7; stop-opacity:1"/>
   <stop offset="20%" style="stop-color: #94ffab; stop-opacity:1"/>
   <stop offset="50%" style="stop-color: #fbfd54; stop-opacity:1"/>
   <stop offset="100%" style="stop-color: #0f83ae; stop-opacity:1"/>
  </linearGradient>
 </defs>
 <path fill="url(#oomox)" class="ColorScheme-Text" fill-rule="evenodd" d="M 0.115 11.051 L 0.001 11.052 L 0.001 11.049 L 0 10.951 C 0 10.951 0 10.95 0 10.949 C -0.001 9.884 0.212 8.829 0.626 7.848 C 1.027 6.901 1.607 6.042 2.334 5.316 C 3.061 4.588 3.921 4.009 4.867 3.608 C 5.849 3.194 6.904 2.981 7.969 2.982 C 9.034 2.981 10.09 3.194 11.071 3.608 C 12.018 4.009 12.878 4.588 13.604 5.316 C 14.331 6.042 14.911 6.901 15.312 7.848 C 15.726 8.829 15.939 9.884 15.938 10.949 C 15.938 10.95 15.938 10.951 15.938 10.951 L 15.938 11.024 L 16 11.056 L 12.32 12.828 L 12.11 12.393 L 14.426 11.277 L 9.937 11.277 L 9.937 11.277 C 9.883 11.714 9.685 12.123 9.372 12.437 C 9 12.809 8.494 13.018 7.968 13.018 C 7.442 13.018 6.937 12.809 6.565 12.437 C 6.249 12.121 6.05 11.71 5.998 11.27 L 5.998 11.27 L 1.542 11.276 L 3.931 12.427 L 3.721 12.862 L 0.041 11.089 L 0.115 11.051 Z M 15.205 10.649 C 15.17 9.784 14.98 8.93 14.642 8.131 C 14.278 7.271 13.751 6.489 13.09 5.829 C 12.43 5.169 11.648 4.642 10.788 4.278 C 9.896 3.901 8.938 3.708 7.969 3.709 C 7.001 3.708 6.042 3.901 5.15 4.278 C 4.29 4.642 3.508 5.169 2.848 5.829 C 2.187 6.489 1.66 7.271 1.296 8.131 C 0.947 8.957 0.756 9.841 0.73 10.737 L 3.716 9.209 L 3.936 9.639 L 1.674 10.797 L 1.674 10.797 L 5.998 10.791 C 6.052 10.355 6.251 9.945 6.565 9.631 C 6.937 9.259 7.442 9.05 7.968 9.05 C 8.494 9.05 9 9.259 9.372 9.631 C 9.686 9.945 9.883 10.354 9.937 10.791 L 9.937 10.791 L 14.422 10.791 L 14.422 10.791 L 12.105 9.605 L 12.325 9.176 L 15.205 10.649 Z M 9.468 11.034 C 9.468 11.432 9.31 11.814 9.029 12.095 C 8.748 12.376 8.366 12.534 7.968 12.534 C 7.571 12.534 7.188 12.376 6.908 12.095 C 6.626 11.814 6.467 11.432 6.467 11.034 C 6.467 10.636 6.626 10.255 6.908 9.973 C 7.188 9.692 7.571 9.534 7.968 9.534 C 8.366 9.534 8.748 9.692 9.029 9.973 C 9.31 10.255 9.468 10.636 9.468 11.034 L 9.468 11.034 L 9.468 11.034 L 9.468 11.034 L 9.468 11.034 L 9.468 11.034 Z"/>
</svg>
