<svg xmlns="http://www.w3.org/2000/svg" width="16" height="16" version="1.1">
 <defs>
   <style id="current-color-scheme" type="text/css">
   .ColorScheme-Text { color: #e9ecf2; } .ColorScheme-Highlight { color:#5294e2; }
  </style>
  <linearGradient id="arrongin" x1="0%" x2="0%" y1="0%" y2="100%">
   <stop offset="0%" style="stop-color:#dd9b44; stop-opacity:1"/>
   <stop offset="100%" style="stop-color:#ad6c16; stop-opacity:1"/>
  </linearGradient>
  <linearGradient id="aurora" x1="0%" x2="0%" y1="0%" y2="100%">
   <stop offset="0%" style="stop-color:#09D4DF; stop-opacity:1"/>
   <stop offset="100%" style="stop-color:#9269F4; stop-opacity:1"/>
  </linearGradient>
  <linearGradient id="cyberneon" x1="0%" x2="0%" y1="0%" y2="100%">
    <stop offset="0" style="stop-color:#0abdc6; stop-opacity:1"/>
    <stop offset="1" style="stop-color:#ea00d9; stop-opacity:1"/>
  </linearGradient>
  <linearGradient id="fitdance" x1="0%" x2="0%" y1="0%" y2="100%">
   <stop offset="0%" style="stop-color:#1AD6AB; stop-opacity:1"/>
   <stop offset="100%" style="stop-color:#329DB6; stop-opacity:1"/>
  </linearGradient>
  <linearGradient id="oomox" x1="0%" x2="0%" y1="0%" y2="100%">
   <stop offset="0%" style="stop-color:#89f224; stop-opacity:1"/>
   <stop offset="100%" style="stop-color:#579916; stop-opacity:1"/>
  </linearGradient>
  <linearGradient id="rainblue" x1="0%" x2="0%" y1="0%" y2="100%">
   <stop offset="0%" style="stop-color:#00F260; stop-opacity:1"/>
   <stop offset="100%" style="stop-color:#0575E6; stop-opacity:1"/>
  </linearGradient>
  <linearGradient id="sunrise" x1="0%" x2="0%" y1="0%" y2="100%">
   <stop offset="0%" style="stop-color: #FF8501; stop-opacity:1"/>
   <stop offset="100%" style="stop-color: #FFCB01; stop-opacity:1"/>
  </linearGradient>
  <linearGradient id="telinkrin" x1="0%" x2="0%" y1="0%" y2="100%">
   <stop offset="0%" style="stop-color: #b2ced6; stop-opacity:1"/>
   <stop offset="100%" style="stop-color: #6da5b7; stop-opacity:1"/>
  </linearGradient>
  <linearGradient id="60spsycho" x1="0%" x2="0%" y1="0%" y2="100%">
   <stop offset="0%" style="stop-color: #df5940; stop-opacity:1"/>
   <stop offset="25%" style="stop-color: #d8d15f; stop-opacity:1"/>
   <stop offset="50%" style="stop-color: #e9882a; stop-opacity:1"/>
   <stop offset="100%" style="stop-color: #279362; stop-opacity:1"/>
  </linearGradient>
  <linearGradient id="90ssummer" x1="0%" x2="0%" y1="0%" y2="100%">
   <stop offset="0%" style="stop-color: #f618c7; stop-opacity:1"/>
   <stop offset="20%" style="stop-color: #94ffab; stop-opacity:1"/>
   <stop offset="50%" style="stop-color: #fbfd54; stop-opacity:1"/>
   <stop offset="100%" style="stop-color: #0f83ae; stop-opacity:1"/>
  </linearGradient>
 </defs>
 <path fill="url(#oomox)" class="ColorScheme-Text" d="M 7.869 6.677 C 7.945 6.67 8.022 6.667 8.1 6.667 C 8.819 6.667 9.471 6.952 9.951 7.415 L 9.951 7.415 L 9.951 7.415 L 10.188 7.257 C 10.131 7.07 10.1 6.872 10.1 6.667 L 10.1 6.667 L 10.1 6.667 C 10.1 5.563 10.996 4.667 12.1 4.667 C 13.204 4.667 14.1 5.563 14.1 6.667 C 14.1 7.771 13.204 8.667 12.1 8.667 C 11.641 8.667 11.219 8.512 10.881 8.252 L 10.881 8.252 L 10.61 8.433 C 10.711 8.714 10.766 9.017 10.766 9.333 C 10.766 9.823 10.634 10.282 10.403 10.677 L 10.403 10.677 L 11.741 11.771 C 12.124 11.495 12.593 11.333 13.1 11.333 C 14.388 11.333 15.433 12.379 15.433 13.667 C 15.433 14.954 14.388 16 13.1 16 C 11.812 16 10.767 14.954 10.767 13.667 L 10.767 13.667 C 10.767 13.325 10.84 13.001 10.972 12.709 L 9.567 11.56 C 9.146 11.838 8.642 12 8.1 12 C 7.461 12 6.874 11.775 6.415 11.4 L 4.639 12.712 C 4.721 12.937 4.766 13.18 4.766 13.433 C 4.766 14.592 3.826 15.533 2.667 15.533 C 1.508 15.533 0.567 14.592 0.567 13.433 L 0.567 13.433 C 0.567 12.274 1.508 11.333 2.667 11.333 C 3.132 11.333 3.563 11.485 3.911 11.742 L 3.911 11.742 L 3.911 11.742 L 5.673 10.44 C 5.519 10.103 5.433 9.728 5.433 9.333 C 5.433 8.456 5.858 7.677 6.513 7.191 L 5.416 4.645 C 5.313 4.659 5.207 4.667 5.1 4.667 C 3.812 4.667 2.766 3.621 2.766 2.333 L 2.766 2.333 L 2.766 2.333 L 2.766 2.333 C 2.766 1.046 3.812 0 5.1 0 C 6.388 0 7.433 1.046 7.433 2.333 C 7.433 3.006 7.148 3.613 6.692 4.039 L 7.869 6.677 Z"/>
</svg>
