<svg xmlns="http://www.w3.org/2000/svg" width="16" height="16" version="1.1">
 <defs>
   <style id="current-color-scheme" type="text/css">
   .ColorScheme-Text { color: #e9ecf2; } .ColorScheme-Highlight { color:#5294e2; }
  </style>
  <linearGradient id="arrongin" x1="0%" x2="0%" y1="0%" y2="100%">
   <stop offset="0%" style="stop-color:#dd9b44; stop-opacity:1"/>
   <stop offset="100%" style="stop-color:#ad6c16; stop-opacity:1"/>
  </linearGradient>
  <linearGradient id="aurora" x1="0%" x2="0%" y1="0%" y2="100%">
   <stop offset="0%" style="stop-color:#09D4DF; stop-opacity:1"/>
   <stop offset="100%" style="stop-color:#9269F4; stop-opacity:1"/>
  </linearGradient>
  <linearGradient id="cyberneon" x1="0%" x2="0%" y1="0%" y2="100%">
    <stop offset="0" style="stop-color:#0abdc6; stop-opacity:1"/>
    <stop offset="1" style="stop-color:#ea00d9; stop-opacity:1"/>
  </linearGradient>
  <linearGradient id="fitdance" x1="0%" x2="0%" y1="0%" y2="100%">
   <stop offset="0%" style="stop-color:#1AD6AB; stop-opacity:1"/>
   <stop offset="100%" style="stop-color:#329DB6; stop-opacity:1"/>
  </linearGradient>
  <linearGradient id="oomox" x1="0%" x2="0%" y1="0%" y2="100%">
   <stop offset="0%" style="stop-color:#89f224; stop-opacity:1"/>
   <stop offset="100%" style="stop-color:#579916; stop-opacity:1"/>
  </linearGradient>
  <linearGradient id="rainblue" x1="0%" x2="0%" y1="0%" y2="100%">
   <stop offset="0%" style="stop-color:#00F260; stop-opacity:1"/>
   <stop offset="100%" style="stop-color:#0575E6; stop-opacity:1"/>
  </linearGradient>
  <linearGradient id="sunrise" x1="0%" x2="0%" y1="0%" y2="100%">
   <stop offset="0%" style="stop-color: #FF8501; stop-opacity:1"/>
   <stop offset="100%" style="stop-color: #FFCB01; stop-opacity:1"/>
  </linearGradient>
  <linearGradient id="telinkrin" x1="0%" x2="0%" y1="0%" y2="100%">
   <stop offset="0%" style="stop-color: #b2ced6; stop-opacity:1"/>
   <stop offset="100%" style="stop-color: #6da5b7; stop-opacity:1"/>
  </linearGradient>
  <linearGradient id="60spsycho" x1="0%" x2="0%" y1="0%" y2="100%">
   <stop offset="0%" style="stop-color: #df5940; stop-opacity:1"/>
   <stop offset="25%" style="stop-color: #d8d15f; stop-opacity:1"/>
   <stop offset="50%" style="stop-color: #e9882a; stop-opacity:1"/>
   <stop offset="100%" style="stop-color: #279362; stop-opacity:1"/>
  </linearGradient>
  <linearGradient id="90ssummer" x1="0%" x2="0%" y1="0%" y2="100%">
   <stop offset="0%" style="stop-color: #f618c7; stop-opacity:1"/>
   <stop offset="20%" style="stop-color: #94ffab; stop-opacity:1"/>
   <stop offset="50%" style="stop-color: #fbfd54; stop-opacity:1"/>
   <stop offset="100%" style="stop-color: #0f83ae; stop-opacity:1"/>
  </linearGradient>
 </defs>
 <path fill="url(#oomox)" class="ColorScheme-Text" fill-rule="evenodd" d="M 8 9.231 C 8.764 9.231 9.384 9.851 9.384 10.616 C 9.384 11.263 8.938 11.803 8.337 11.954 L 8.461 11.954 C 8.923 11.954 9.205 12.375 9.482 12.748 C 9.74 13.097 9.846 13.58 9.846 13.756 L 9.846 14.074 C 9.845 14.084 9.846 14.094 9.846 14.104 C 9.846 14.472 9.547 14.769 9.177 14.769 L 6.823 14.769 C 6.454 14.769 6.154 14.471 6.154 14.103 C 6.154 14.093 6.155 14.084 6.156 14.074 C 6.155 14.074 6.154 13.915 6.154 13.756 C 6.154 13.58 6.235 13.088 6.482 12.732 C 6.743 12.355 7.077 11.954 7.539 11.954 L 7.663 11.954 C 7.062 11.803 6.615 11.263 6.615 10.615 C 6.615 9.851 7.235 9.231 8 9.231 L 8 9.231 L 8 9.231 L 8 9.231 Z M 8 0 C 5.692 0 4.154 1.6 4.154 3.941 L 4.154 6.398 L 2.537 6.398 C 2.537 6.398 1.846 6.4 1.846 7.2 L 1.846 15.2 C 1.846 16 2.537 16 2.537 16 L 13.463 16 C 13.463 16 14.154 16 14.154 15.2 L 14.154 7.2 C 14.154 6.4 13.463 6.398 13.463 6.398 L 11.848 6.402 L 11.844 3.916 C 11.846 1.6 10.308 0 8 0 L 8 0 L 8 0 L 8 0 Z M 8 1.846 C 9.359 1.846 10.462 2.927 10.462 4.286 C 10.462 5.927 8.718 7.978 8.308 8 C 8.308 8 8.481 6.748 8 6.748 C 6.641 6.748 5.538 5.645 5.538 4.286 C 5.538 2.926 6.641 1.846 8 1.846 L 8 1.846 Z"/>
</svg>
