<?xml version="1.0" encoding="UTF-8"?>
<svg xmlns="http://www.w3.org/2000/svg" xmlns:xlink="http://www.w3.org/1999/xlink" width="24" height="24" viewBox="0 0 24 24" version="1.1">
<g id="surface1">
<path style=" stroke:none;fill-rule:nonzero;fill:rgb(74.509804%,74.509804%,74.509804%);fill-opacity:1;" d="M 12 3 C 6.199219 3 1.5 6.695312 1.5 11.25 C 1.5 13.960938 3.199219 16.5 6.042969 18.039062 C 6.144531 18.351562 6.257812 18.875 5.875 19.578125 C 5.339844 20.554688 4.550781 21.027344 4.550781 21.027344 L 4.5 22.5 L 6 22.5 C 6 22.5 8.199219 21.660156 8.949219 21 C 9.582031 20.441406 9.757812 19.609375 9.808594 19.316406 C 10.527344 19.4375 11.261719 19.5 12 19.5 C 17.800781 19.5 22.5 15.804688 22.5 11.25 C 22.5 6.695312 17.800781 3 12 3 Z M 11.632812 4.835938 C 12.871094 4.835938 13.882812 5.199219 14.65625 5.917969 C 15.445312 6.636719 15.835938 7.570312 15.835938 8.71875 C 15.835938 9.429688 15.695312 10.011719 15.414062 10.472656 C 15.132812 10.933594 14.601562 11.441406 13.8125 11.996094 C 13.308594 12.355469 12.992188 12.640625 12.867188 12.851562 C 12.742188 13.066406 12.683594 13.449219 12.683594 14 L 10.589844 14 L 10.589844 13.765625 C 10.589844 13.203125 10.683594 12.710938 10.875 12.296875 C 11.078125 11.867188 11.320312 11.527344 11.601562 11.265625 C 11.882812 11.007812 12.164062 10.765625 12.445312 10.542969 C 12.726562 10.316406 12.964844 10.058594 13.15625 9.765625 C 13.355469 9.472656 13.460938 9.140625 13.460938 8.769531 C 13.460938 8.21875 13.289062 7.757812 12.953125 7.386719 C 12.613281 7.015625 12.191406 6.828125 11.6875 6.828125 C 11.15625 6.828125 10.714844 7.042969 10.355469 7.46875 C 10.003906 7.898438 9.828125 8.4375 9.828125 9.089844 L 9.828125 9.277344 L 7.535156 9.277344 C 7.546875 8.546875 7.640625 7.90625 7.824219 7.355469 C 8.011719 6.804688 8.242188 6.375 8.515625 6.070312 C 8.796875 5.757812 9.128906 5.503906 9.511719 5.3125 C 9.890625 5.121094 10.246094 4.996094 10.574219 4.941406 C 10.910156 4.871094 11.261719 4.835938 11.632812 4.835938 Z M 10.421875 14.929688 L 12.953125 14.929688 L 12.953125 17.394531 L 10.421875 17.394531 Z M 10.421875 14.929688 "/>
</g>
</svg>
