<?xml version="1.0" encoding="UTF-8"?>
<svg xmlns="http://www.w3.org/2000/svg" xmlns:xlink="http://www.w3.org/1999/xlink" width="22" height="22" viewBox="0 0 22 22" version="1.1">
<g id="surface1">
<path style=" stroke:none;fill-rule:nonzero;fill:rgb(74.509804%,74.509804%,74.509804%);fill-opacity:1;" d="M 17.75 1.375 C 17.039062 1.4375 16.496094 2.035156 16.5 2.75 L 16.5 20.625 C 16.492188 21.121094 16.753906 21.582031 17.183594 21.832031 C 17.609375 22.082031 18.140625 22.082031 18.566406 21.832031 C 18.996094 21.582031 19.257812 21.121094 19.25 20.625 L 19.25 4.125 L 20.625 4.125 C 21.121094 4.132812 21.582031 3.871094 21.832031 3.441406 C 22.082031 3.015625 22.082031 2.484375 21.832031 2.058594 C 21.582031 1.628906 21.121094 1.367188 20.625 1.375 L 17.875 1.375 C 17.832031 1.371094 17.789062 1.371094 17.746094 1.375 Z M 17.75 1.375 "/>
<path style=" stroke:none;fill-rule:nonzero;fill:rgb(74.509804%,74.509804%,74.509804%);fill-opacity:1;" d="M 17.875 8.25 L 17.875 12.375 L 22 12.375 L 22 8.25 Z M 19.25 9.625 L 20.625 9.625 L 20.625 11 L 19.25 11 Z M 19.25 9.625 "/>
<path style=" stroke:none;fill-rule:nonzero;fill:rgb(74.509804%,74.509804%,74.509804%);fill-opacity:1;" d="M 17.875 13.75 L 17.875 17.875 L 22 17.875 L 22 13.75 Z M 19.25 15.125 L 20.625 15.125 L 20.625 16.5 L 19.25 16.5 Z M 19.25 15.125 "/>
<path style=" stroke:none;fill-rule:nonzero;fill:rgb(74.509804%,74.509804%,74.509804%);fill-opacity:1;" d="M 0 5.5 L 0 22 L 13.75 22 L 13.75 19.25 L 15.125 19.25 L 15.125 16.5 L 11 16.5 L 11 19.25 L 2.75 19.25 L 2.75 8.25 L 6.875 8.25 L 6.875 5.5 Z M 0 5.5 "/>
<path style=" stroke:none;fill-rule:nonzero;fill:rgb(74.509804%,74.509804%,74.509804%);fill-opacity:1;" d="M 8.25 1.375 L 15.125 6.875 L 11 6.875 L 11 13.105469 L 8.25 13.105469 Z M 8.25 1.375 "/>
<path style=" stroke:none;fill-rule:nonzero;fill:rgb(74.509804%,74.509804%,74.509804%);fill-opacity:1;" d="M 10.988281 13.066406 C 10.988281 14.960938 9.453125 16.496094 7.558594 16.496094 C 5.664062 16.496094 4.125 14.960938 4.125 13.066406 C 4.125 11.171875 5.664062 9.636719 7.558594 9.636719 C 9.453125 9.636719 10.988281 11.171875 10.988281 13.066406 Z M 10.988281 13.066406 "/>
</g>
</svg>
