<?xml version="1.0" encoding="UTF-8"?>
<svg xmlns="http://www.w3.org/2000/svg" xmlns:xlink="http://www.w3.org/1999/xlink" width="22" height="22" viewBox="0 0 22 22" version="1.1">
<g id="surface1">
<path style=" stroke:none;fill-rule:nonzero;fill:rgb(74.509804%,74.509804%,74.509804%);fill-opacity:1;" d="M 8.25 2.75 C 7.492188 2.75 6.875 3.367188 6.875 4.125 L 6.875 5.5 L 2.75 5.5 C 1.992188 5.5 1.375 6.117188 1.375 6.875 L 1.375 17.875 C 1.375 18.632812 1.992188 19.25 2.75 19.25 L 19.25 19.25 C 20.007812 19.25 20.625 18.632812 20.625 17.875 L 20.625 6.875 C 20.625 6.117188 20.007812 5.5 19.25 5.5 L 15.125 5.5 L 15.125 4.125 C 15.125 3.367188 14.507812 2.75 13.75 2.75 Z M 11 6.875 C 14.039062 6.875 16.5 9.335938 16.5 12.375 C 16.5 15.414062 14.039062 17.875 11 17.875 C 7.960938 17.875 5.5 15.414062 5.5 12.375 C 5.5 9.335938 7.960938 6.875 11 6.875 Z M 11 9.625 C 9.480469 9.625 8.25 10.855469 8.25 12.375 C 8.25 13.894531 9.480469 15.125 11 15.125 C 12.519531 15.125 13.75 13.894531 13.75 12.375 C 13.75 10.855469 12.519531 9.625 11 9.625 Z M 11 9.625 "/>
</g>
</svg>
