<?xml version="1.0" encoding="UTF-8"?>
<svg xmlns="http://www.w3.org/2000/svg" xmlns:xlink="http://www.w3.org/1999/xlink" width="22" height="22" viewBox="0 0 22 22" version="1.1">
<g id="surface1">
<path style=" stroke:none;fill-rule:nonzero;fill:rgb(74.509804%,74.509804%,74.509804%);fill-opacity:1;" d="M 1.375 6.875 C 0.613281 6.875 0.00390625 7.59375 0.00390625 8.464844 L 0.00390625 14.738281 C 0.00390625 15.609375 0.574219 16.5 1.335938 16.5 L 2.710938 16.5 C 2.710938 17.371094 3.363281 17.875 4.121094 17.875 L 5.492188 17.875 C 6.25 17.875 6.835938 17.371094 6.835938 16.5 L 15.070312 16.5 C 15.070312 17.371094 15.710938 17.875 16.46875 17.875 L 17.835938 17.875 C 18.597656 17.875 19.210938 17.371094 19.210938 16.5 L 20.585938 16.5 C 21.347656 16.5 21.960938 15.609375 21.960938 14.738281 L 21.960938 8.464844 C 21.945312 7.585938 21.339844 6.871094 20.570312 6.871094 Z M 2.0625 8.515625 C 2.441406 8.515625 2.746094 9.789062 2.746094 11.6875 C 2.746094 13.585938 2.441406 14.765625 2.0625 14.765625 C 1.683594 14.765625 1.375 13.585938 1.375 11.6875 C 1.375 9.789062 1.683594 8.515625 2.0625 8.515625 Z M 4.804688 8.515625 C 5.183594 8.515625 5.492188 10.050781 5.492188 11.953125 C 5.492188 13.851562 5.136719 14.757812 4.757812 14.757812 C 4.378906 14.757812 4.121094 13.585938 4.121094 11.6875 C 4.121094 9.789062 4.425781 8.515625 4.804688 8.515625 Z M 7.503906 8.515625 C 7.882812 8.515625 8.238281 9.789062 8.238281 11.6875 C 8.238281 13.585938 7.929688 14.757812 7.550781 14.757812 C 7.171875 14.757812 6.863281 13.585938 6.863281 11.6875 C 6.863281 9.789062 7.125 8.515625 7.503906 8.515625 Z M 17.15625 8.253906 C 19.050781 8.253906 20.585938 9.792969 20.585938 11.691406 C 20.585938 13.589844 19.050781 15.128906 17.15625 15.128906 C 15.261719 15.128906 13.722656 13.589844 13.722656 11.691406 C 13.722656 9.792969 15.261719 8.253906 17.15625 8.253906 Z M 17.15625 8.253906 "/>
<path style=" stroke:none;fill-rule:nonzero;fill:rgb(74.509804%,74.509804%,74.509804%);fill-opacity:1;" d="M 19.210938 11.6875 C 19.210938 12.828125 18.285156 13.75 17.148438 13.75 C 16.007812 13.75 15.085938 12.828125 15.085938 11.6875 C 15.085938 10.546875 16.007812 9.625 17.148438 9.625 C 18.285156 9.625 19.210938 10.546875 19.210938 11.6875 Z M 19.210938 11.6875 "/>
</g>
</svg>
