<?xml version="1.0" encoding="UTF-8"?>
<svg xmlns="http://www.w3.org/2000/svg" xmlns:xlink="http://www.w3.org/1999/xlink" width="22" height="22" viewBox="0 0 22 22" version="1.1">
<g id="surface1">
<path style=" stroke:none;fill-rule:nonzero;fill:rgb(74.509804%,74.509804%,74.509804%);fill-opacity:1;" d="M 5.03125 0 C 3.082031 0 1.464844 1.617188 1.464844 3.566406 L 1.464844 20.582031 L 20.714844 20.582031 L 20.714844 3.566406 C 20.714844 1.617188 19.101562 0 17.148438 0 L 5.023438 0 Z M 5.03125 2.75 L 17.148438 2.75 C 17.625 2.75 17.964844 3.089844 17.964844 3.566406 L 17.964844 17.832031 L 4.214844 17.832031 L 4.214844 3.566406 C 4.214844 3.097656 4.558594 2.753906 5.039062 2.753906 Z M 5.03125 2.75 "/>
<path style=" stroke:none;fill-rule:nonzero;fill:rgb(74.509804%,74.509804%,74.509804%);fill-opacity:1;" d="M 6.875 5.539062 L 6.875 6.914062 L 15.125 6.914062 L 15.125 5.539062 Z M 6.875 5.539062 "/>
<path style=" stroke:none;fill-rule:nonzero;fill:rgb(74.509804%,74.509804%,74.509804%);fill-opacity:1;" d="M 6.875 8.25 L 6.875 9.625 L 15.125 9.625 L 15.125 8.25 Z M 6.875 8.25 "/>
<path style=" stroke:none;fill-rule:nonzero;fill:rgb(74.509804%,74.509804%,74.509804%);fill-opacity:1;" d="M 6.875 11 L 6.875 12.375 L 15.125 12.375 L 15.125 11 Z M 6.875 11 "/>
<path style=" stroke:none;fill-rule:nonzero;fill:rgb(74.509804%,74.509804%,74.509804%);fill-opacity:1;" d="M 6.875 13.75 L 6.875 15.125 L 15.125 15.125 L 15.125 13.75 Z M 6.875 13.75 "/>
</g>
</svg>
