<?xml version="1.0" encoding="UTF-8"?>
<svg xmlns="http://www.w3.org/2000/svg" xmlns:xlink="http://www.w3.org/1999/xlink" width="22" height="22" viewBox="0 0 22 22" version="1.1">
<g id="surface1">
<path style=" stroke:none;fill-rule:nonzero;fill:rgb(74.509804%,74.509804%,74.509804%);fill-opacity:1;" d="M 6.144531 1.375 C 5.015625 1.375 4.125 2.265625 4.125 3.394531 L 4.125 18.605469 C 4.125 19.734375 5.015625 20.625 6.144531 20.625 L 15.855469 20.625 C 16.984375 20.625 17.875 19.734375 17.875 18.605469 L 17.875 3.394531 C 17.875 2.265625 16.984375 1.375 15.855469 1.375 Z M 5.5 2.75 L 16.5 2.75 L 16.5 9.625 L 5.5 9.625 Z M 11 11 C 13.277344 11 15.125 12.847656 15.125 15.125 C 15.125 17.402344 13.277344 19.25 11 19.25 C 8.722656 19.25 6.875 17.402344 6.875 15.125 C 6.875 12.847656 8.722656 11 11 11 Z M 11 11 "/>
<path style=" stroke:none;fill-rule:nonzero;fill:rgb(74.509804%,74.509804%,74.509804%);fill-opacity:1;" d="M 13.0625 15.125 C 13.0625 16.265625 12.140625 17.1875 11 17.1875 C 9.859375 17.1875 8.9375 16.265625 8.9375 15.125 C 8.9375 13.984375 9.859375 13.0625 11 13.0625 C 12.140625 13.0625 13.0625 13.984375 13.0625 15.125 Z M 13.0625 15.125 "/>
</g>
</svg>
