<?xml version="1.0" encoding="UTF-8"?>
<svg xmlns="http://www.w3.org/2000/svg" xmlns:xlink="http://www.w3.org/1999/xlink" width="128" height="128" viewBox="0 0 128 128" version="1.1">
<g id="surface1">
<path style=" stroke:none;fill-rule:evenodd;fill:rgb(20%,20%,20%);fill-opacity:1;" d="M 16.136719 39.386719 L 29.761719 52.722656 L 29.335938 34.023438 L 16.128906 33.960938 Z M 16.136719 39.386719 "/>
<path style="fill-rule:evenodd;fill:rgb(94.901961%,94.901961%,94.901961%);fill-opacity:1;stroke-width:5.03546;stroke-linecap:butt;stroke-linejoin:miter;stroke:rgb(68.627451%,68.627451%,68.627451%);stroke-opacity:1;stroke-miterlimit:4;" d="M 97.045898 1029.840207 L 433.929443 1028.66528 L 435.10437 664.773679 L 347.061157 575.570798 L 97.045898 575.570798 Z M 97.045898 1029.840207 " transform="matrix(0.256,0,0,0.256,0,-141.404718)"/>
<path style="fill-rule:evenodd;fill:rgb(68.627451%,68.627451%,68.627451%);fill-opacity:1;stroke-width:5.03546;stroke-linecap:butt;stroke-linejoin:miter;stroke:rgb(68.627451%,68.627451%,68.627451%);stroke-opacity:1;stroke-miterlimit:4;" d="M 431.518555 662.927365 L 349.349976 662.347531 L 350.112915 578.546262 Z M 431.518555 662.927365 " transform="matrix(0.256,0,0,0.256,0,-141.404718)"/>
<path style=" stroke:none;fill-rule:nonzero;fill:rgb(22.352941%,25.098039%,31.372549%);fill-opacity:1;" d="M 16.164062 17.875 L 73.746094 17.875 L 73.746094 39.46875 L 16.164062 39.46875 Z M 16.164062 17.875 "/>
<path style=" stroke:none;fill-rule:nonzero;fill:rgb(36.470588%,41.568627%,48.235294%);fill-opacity:1;" d="M 78.554688 69.695312 L 81.121094 70.578125 L 81.121094 71.71875 L 78.925781 72.347656 L 78.925781 75.878906 L 83.683594 74.570312 L 80.976562 75.964844 L 81.035156 78.617188 L 78.984375 79.269531 L 78.984375 82.632812 L 83.398438 81.550781 L 81.121094 82.890625 L 81.121094 85.425781 L 78.867188 86.195312 L 79.011719 89.386719 L 83.796875 88.078125 L 81.121094 89.617188 L 81.0625 92.09375 L 78.953125 92.722656 L 79.011719 95.886719 L 83.65625 94.6875 L 80.722656 96.542969 L 80.636719 97.566406 L 88.046875 97.566406 L 87.960938 94.089844 L 90.097656 93.632812 L 90.039062 90.1875 L 85.023438 91.296875 L 87.929688 90.070312 L 87.960938 87.621094 L 90.183594 86.964844 L 90.183594 83.460938 L 86.308594 84.570312 L 87.875 83.546875 L 87.902344 80.980469 L 89.984375 80.382812 L 89.984375 76.847656 L 85.421875 77.960938 L 87.730469 76.761719 L 87.84375 73.886719 L 89.953125 73.570312 L 90.070312 70.09375 L 85.878906 71.035156 L 88.046875 69.355469 L 88.046875 68.269531 L 78.753906 68.527344 Z M 78.554688 69.695312 "/>
<path style=" stroke:none;fill-rule:nonzero;fill:rgb(40%,40%,40%);fill-opacity:1;" d="M 79.109375 105.171875 L 79.152344 112.425781 L 77.054688 112.425781 L 77.054688 115.046875 L 73.308594 115.125 L 73.265625 112.828125 L 68.308594 112.871094 L 68.230469 120.96875 L 73.308594 120.96875 L 73.308594 118.875 L 77.097656 118.835938 L 77.097656 121.453125 L 92.046875 121.414062 L 92.089844 118.875 L 96.039062 118.875 L 96.039062 121.089844 L 100.875 121.089844 L 100.835938 112.707031 L 96.039062 112.75 L 96.039062 115.207031 L 92.046875 115.207031 L 91.886719 112.347656 L 90.152344 112.386719 L 90.152344 105.089844 Z M 79.109375 105.171875 "/>
<path style=" stroke:none;fill-rule:nonzero;fill:rgb(22.352941%,25.098039%,31.372549%);fill-opacity:1;" d="M 45.582031 102.640625 L 45.46875 104.636719 L 49.96875 108.855469 L 73.566406 109.082031 L 76.644531 105.664062 L 92.773438 105.492188 L 92.773438 96.03125 L 76.984375 96.03125 L 70.714844 102.699219 Z M 45.582031 102.640625 "/>
<path style=" stroke:none;fill-rule:nonzero;fill:rgb(22.352941%,25.098039%,31.372549%);fill-opacity:1;" d="M 45.597656 63.953125 L 45.480469 61.957031 L 49.984375 57.742188 L 73.582031 57.511719 L 76.660156 60.933594 L 92.789062 61.105469 L 92.789062 70.566406 L 77 70.566406 L 70.730469 63.898438 Z M 45.597656 63.953125 "/>
<path style=" stroke:none;fill-rule:nonzero;fill:rgb(100%,72.156863%,0%);fill-opacity:1;" d="M 36.875 63.902344 L 70.726562 63.902344 L 70.726562 102.671875 L 36.875 102.671875 Z M 36.875 63.902344 "/>
<path style=" stroke:none;fill-rule:nonzero;fill:rgb(98.039216%,92.54902%,42.745098%);fill-opacity:1;" d="M 39.398438 67.351562 L 67.78125 67.351562 L 67.78125 82.300781 L 39.398438 82.300781 Z M 39.398438 67.351562 "/>
<path style=" stroke:none;fill-rule:nonzero;fill:rgb(98.039216%,92.54902%,42.745098%);fill-opacity:1;" d="M 39.628906 84.738281 L 68.011719 84.738281 L 68.011719 99.683594 L 39.628906 99.683594 Z M 39.628906 84.738281 "/>
<path style=" stroke:none;fill-rule:nonzero;fill:rgb(15.686275%,13.333333%,4.313725%);fill-opacity:1;" d="M 48.292969 73.222656 L 59.6875 73.222656 L 59.6875 76.882812 L 48.292969 76.882812 Z M 48.292969 73.222656 "/>
<path style=" stroke:none;fill-rule:nonzero;fill:rgb(15.686275%,13.333333%,4.313725%);fill-opacity:1;" d="M 48.234375 90.152344 L 59.632812 90.152344 L 59.632812 93.8125 L 48.234375 93.8125 Z M 48.234375 90.152344 "/>
<path style="fill:none;stroke-width:9;stroke-linecap:butt;stroke-linejoin:bevel;stroke:rgb(100%,100%,100%);stroke-opacity:1;stroke-miterlimit:4;" d="M 915.688955 696.284475 L 937.840169 637.997388 L 960.567133 696.284475 " transform="matrix(0.257816,0,0,0.257816,-207.024576,-143.806247)"/>
<path style="fill:none;stroke-width:9;stroke-linecap:butt;stroke-linejoin:miter;stroke:rgb(100%,100%,100%);stroke-opacity:1;stroke-miterlimit:4;" d="M 924.582773 676.754437 L 950.370302 676.754437 " transform="matrix(0.257816,0,0,0.257816,-207.024576,-143.806247)"/>
<path style="fill:none;stroke-width:9;stroke-linecap:butt;stroke-linejoin:miter;stroke:rgb(100%,100%,100%);stroke-opacity:1;stroke-miterlimit:4;" d="M 213.867188 641.244626 C 213.867188 641.244626 206.253052 634.423947 192.352295 635.507321 C 178.466797 636.590695 170.578003 652.429318 171.325684 664.422727 C 172.073364 676.416135 182.58667 690.698361 196.182251 689.523435 C 209.777832 688.348508 213.867188 683.541989 213.867188 683.541989 " transform="matrix(0.256,0,0,0.256,0,-141.404718)"/>
<path style="fill:none;stroke-width:9;stroke-linecap:butt;stroke-linejoin:miter;stroke:rgb(100%,100%,100%);stroke-opacity:1;stroke-miterlimit:4;" d="M 380.205497 670.709463 L 346.208915 670.297476 L 346.620902 618.585439 L 381.075248 618.738027 " transform="matrix(0.256,0,0,0.256,-29.328701,-136.834435)"/>
<path style="fill:none;stroke-width:9;stroke-linecap:butt;stroke-linejoin:miter;stroke:rgb(100%,100%,100%);stroke-opacity:1;stroke-miterlimit:4;" d="M 348.955497 642.373892 L 378.084525 642.511221 " transform="matrix(0.256,0,0,0.256,-29.328701,-136.834435)"/>
</g>
</svg>
