<?xml version="1.0" encoding="UTF-8"?>
<svg xmlns="http://www.w3.org/2000/svg" xmlns:xlink="http://www.w3.org/1999/xlink" width="32" height="32" viewBox="0 0 32 32" version="1.1">
<g id="surface1">
<path style=" stroke:none;fill-rule:evenodd;fill:rgb(15.686275%,9.019608%,4.313725%);fill-opacity:1;" d="M 4.042969 9.882812 L 7.449219 13.21875 L 7.34375 8.542969 L 4.042969 8.527344 Z M 4.042969 9.882812 "/>
<path style="fill-rule:evenodd;fill:rgb(94.901961%,94.901961%,94.901961%);fill-opacity:1;stroke-width:5.03546;stroke-linecap:butt;stroke-linejoin:miter;stroke:rgb(68.627451%,68.627451%,68.627451%);stroke-opacity:1;stroke-miterlimit:4;" d="M 96.923828 1029.840207 L 433.776855 1028.680539 L 434.936523 664.788937 L 346.923828 575.555539 L 96.923828 575.555539 Z M 96.923828 1029.840207 " transform="matrix(0.064,0,0,0.064,0,-35.35118)"/>
<path style="fill-rule:evenodd;fill:rgb(68.627451%,68.627451%,68.627451%);fill-opacity:1;stroke-width:5.03546;stroke-linecap:butt;stroke-linejoin:miter;stroke:rgb(68.627451%,68.627451%,68.627451%);stroke-opacity:1;stroke-miterlimit:4;" d="M 431.396484 662.896848 L 349.182129 662.347531 L 349.975586 578.546262 Z M 431.396484 662.896848 " transform="matrix(0.064,0,0,0.064,0,-35.35118)"/>
<path style=" stroke:none;fill-rule:nonzero;fill:rgb(31.372549%,17.647059%,8.627451%);fill-opacity:1;" d="M 4.03125 4.46875 L 18.429688 4.46875 L 18.429688 9.867188 L 4.03125 9.867188 Z M 4.03125 4.46875 "/>
<path style="fill:none;stroke-width:9.063828;stroke-linecap:butt;stroke-linejoin:miter;stroke:rgb(100%,100%,100%);stroke-opacity:1;stroke-miterlimit:4;" d="M 139.221191 693.902707 L 139.221191 637.445187 C 139.221191 637.445187 170.043945 631.524777 169.921875 651.788449 C 169.799805 672.052121 139.831543 666.497922 139.831543 666.497922 " transform="matrix(0.064,0,0,0.064,0,-35.35118)"/>
<path style="fill-rule:nonzero;fill:rgb(31.372549%,17.647059%,8.627451%);fill-opacity:1;stroke-width:0.759318;stroke-linecap:butt;stroke-linejoin:miter;stroke:rgb(0%,0%,0%);stroke-opacity:1;stroke-miterlimit:4;" d="M 233.886719 776.117062 C 230.163574 776.727414 226.989746 778.680539 223.510742 779.840207 C 216.125488 784.600949 210.205078 791.864133 208.679199 800.653195 C 204.040527 815.484738 190.429688 825.250363 185.72998 839.959836 C 181.82373 849.420285 174.804688 856.866574 168.273926 864.434934 C 163.757324 870.050168 164.245605 877.618527 162.29248 884.149289 C 160.27832 885.980344 158.874512 890.069699 162.597656 890.496945 C 162.475586 893.853879 160.217285 897.577023 162.597656 900.750852 C 164.489746 907.769895 167.785645 914.422727 171.081543 920.892453 C 171.75293 923.272824 175.78125 925.958371 176.391602 922.174191 C 176.879883 916.742062 179.199219 910.333371 175.415039 905.572629 C 172.973633 899.469113 174.987793 892.999387 176.086426 886.895871 C 175.537109 883.111691 176.879883 878.83923 178.955078 875.787473 C 181.030273 876.947141 180.297852 880.73132 181.152344 882.74548 C 183.166504 897.454953 183.776855 912.652707 180.053711 927.057004 C 178.710938 932.733273 180.969238 938.714719 179.626465 944.268918 C 174.865723 949.456906 178.527832 956.903195 178.955078 962.884641 C 181.274414 974.054074 179.992676 985.650754 176.696777 996.331906 C 176.574707 1000.177121 175.231934 1003.656125 174.438477 1007.318234 C 175.78125 1011.895871 182.128906 1013.54382 186.340332 1012.445187 C 188.964844 1010.675168 193.969727 1014.032102 195.251465 1009.820676 C 195.617676 1005.243039 191.162109 1001.82507 191.52832 997.186398 C 188.720703 984.430051 186.645508 971.124387 189.331055 958.123898 C 190.734863 950.616574 190.185547 942.498898 192.321777 935.235715 C 197.021484 929.315305 200.195312 922.357297 202.209473 915.033078 C 205.01709 908.990598 206.726074 901.605344 208.435059 895.807004 C 215.759277 907.525754 220.092773 921.56384 218.200684 935.540891 C 218.444824 941.034055 215.026855 947.442746 219.604492 951.715207 C 225.158691 960.382199 232.177734 968.621945 234.985352 978.631711 C 235.229492 982.782102 229.553223 982.843137 228.088379 986.261105 C 224.79248 991.082883 225.097656 997.247434 224.731445 1002.801633 C 227.905273 1004.022336 232.48291 1007.257199 235.107422 1003.411984 C 237.731934 1000.665402 238.830566 995.90466 241.516113 993.76843 C 243.164062 996.942258 241.638184 1002.008176 245.910645 1003.534055 C 252.01416 1005.73132 259.094238 1006.341672 265.441895 1004.876828 C 268.737793 1002.008176 264.282227 997.979855 261.474609 996.942258 C 256.896973 995.538449 254.211426 991.99841 252.624512 987.603879 C 251.159668 985.223508 250.12207 982.415891 252.929688 980.584836 C 259.58252 972.528195 268.737793 967.218137 275.756836 959.710812 C 279.968262 953.790402 278.869629 945.611691 277.22168 938.958859 C 275.268555 935.052609 273.864746 931.024289 274.902344 926.568723 C 275.634766 922.784543 273.071289 918.878293 273.193359 915.521359 C 276.916504 915.277219 281.311035 915.399289 284.606934 916.681027 C 285.461426 922.662473 284.179688 929.071164 285.888672 934.869504 C 288.696289 937.555051 290.039062 941.766477 290.222168 945.672727 C 292.84668 948.90759 291.19873 953.607297 291.931152 957.574582 C 290.222168 964.044309 292.602539 970.391965 294.616699 976.49548 C 298.217773 988.09216 296.691895 1000.604367 299.743652 1012.262082 C 302.124023 1015.55798 298.156738 1021.11218 302.734375 1023.309445 C 309.814453 1025.933957 319.335938 1026.666379 325.378418 1021.35632 C 327.209473 1017.694211 321.777344 1015.55798 319.152832 1014.398312 C 315.490723 1013.604855 312.683105 1011.041379 311.889648 1007.196164 C 306.335449 995.66052 303.588867 982.721066 305.541992 969.842648 C 305.847168 963.617062 306.70166 957.513547 308.288574 951.593137 C 309.020996 945.611691 309.143066 939.386105 310.852051 933.648801 C 311.889648 925.59216 310.180664 917.108273 312.438965 909.234738 C 316.101074 911.554074 320.007324 913.934445 324.34082 914.239621 C 327.148438 916.375852 330.13916 914.239621 331.665039 911.676145 C 333.92334 908.563352 336.608887 916.864133 338.684082 912.652707 C 341.247559 909.784055 344.543457 907.708859 347.473145 905.389523 C 349.121094 902.703977 352.478027 902.826047 354.858398 901.605344 C 356.506348 899.469113 353.759766 896.051145 356.811523 894.403195 C 357.849121 891.656613 360.473633 895.257687 361.694336 892.694211 C 362.976074 889.825559 362.731934 885.919309 366.210938 884.698605 C 372.375488 879.754758 370.483398 870.843625 371.643066 863.885617 C 371.582031 856.927609 372.924805 849.603391 371.21582 842.889523 C 369.262695 837.6405 365.966797 832.269406 364.685059 827.020383 C 370.666504 822.198605 381.347656 826.165891 385.437012 818.292355 C 387.268066 812.43298 381.652832 807.489133 377.990723 803.827023 C 374.389648 800.47009 368.713379 802.057004 364.318848 800.409055 C 360.900879 799.249387 355.651855 800.531125 354.736328 795.892453 C 353.33252 792.230344 348.876953 792.230344 346.435547 789.483762 C 342.651367 787.530637 339.172363 792.047238 335.388184 792.413449 C 331.176758 795.282102 326.416016 798.150754 323.730469 802.60632 C 322.570801 805.536008 323.608398 809.320187 320.43457 811.151242 C 315.185547 817.132687 317.382812 826.04382 316.894531 833.368039 C 316.955566 836.724973 316.894531 840.081906 318.786621 842.828488 C 319.030762 846.917844 322.814941 849.603391 322.143555 853.814816 C 321.594238 856.622434 324.035645 862.542844 319.458008 861.261105 C 318.054199 858.94177 318.237305 854.974484 316.955566 852.227902 C 313.110352 840.448117 307.312012 827.630734 295.715332 821.710324 C 287.536621 815.728879 281.677246 807.000852 278.259277 797.540402 C 275.024414 792.718625 269.104004 789.788937 266.601562 784.539914 C 263.244629 783.136105 259.216309 783.624387 255.92041 781.793332 C 251.831055 779.962277 248.10791 776.666379 243.164062 777.215695 C 239.929199 777.459836 236.938477 776.361203 233.886719 776.117062 Z M 239.868164 908.441281 C 242.736816 909.356809 241.821289 913.812375 242.858887 916.131711 C 244.20166 919.366574 243.103027 925.103879 246.826172 926.751828 C 248.962402 930.230832 247.619629 934.991574 249.816895 938.226437 C 249.328613 940.545773 248.535156 944.87927 252.13623 944.940305 C 255.371094 944.635129 256.225586 948.236203 258.483887 949.823117 C 260.620117 952.752805 262.939453 956.903195 259.70459 960.015988 C 256.530762 963.800168 254.394531 969.781613 248.657227 969.964719 C 246.276855 970.208859 242.919922 973.932004 241.882324 970.086789 C 237.731934 963.128781 234.25293 955.743527 235.046387 947.503781 C 235.107422 934.503293 238.098145 921.746945 239.562988 908.929562 C 239.501953 908.563352 239.624023 908.441281 239.868164 908.441281 Z M 239.868164 908.441281 " transform="matrix(0.064,0,0,0.064,0,-35.35118)"/>
<path style="fill:none;stroke-width:9;stroke-linecap:butt;stroke-linejoin:miter;stroke:rgb(100%,100%,100%);stroke-opacity:1;stroke-miterlimit:4;" d="M 192.260742 633.722043 L 192.504883 688.226437 L 224.304199 688.531613 " transform="matrix(0.064,0,0,0.064,0,-35.35118)"/>
</g>
</svg>
