<?xml version="1.0" encoding="UTF-8"?>
<svg xmlns="http://www.w3.org/2000/svg" xmlns:xlink="http://www.w3.org/1999/xlink" width="16" height="16" viewBox="0 0 16 16" version="1.1">
<g id="surface1">
<path style=" stroke:none;fill-rule:nonzero;fill:rgb(100%,100%,100%);fill-opacity:1;" d="M 1 3 L 1 5 L 4 5 C 4.570312 5 5 5.429688 5 6 L 5 10 C 5 11.644531 6.355469 13 8 13 L 14 13 L 14 11 L 8 11 C 7.429688 11 7 10.570312 7 10 L 7 6 C 7 4.355469 5.644531 3 4 3 Z M 1 3 "/>
<path style=" stroke:none;fill-rule:nonzero;fill:rgb(100%,100%,100%);fill-opacity:1;" d="M 11.78125 9 C 11.40625 9.066406 11.105469 9.339844 11 9.703125 C 10.894531 10.070312 11.003906 10.460938 11.28125 10.71875 L 12.5625 12 L 11.28125 13.28125 C 11.019531 13.535156 10.917969 13.910156 11.011719 14.265625 C 11.105469 14.617188 11.378906 14.894531 11.734375 14.988281 C 12.085938 15.082031 12.460938 14.976562 12.71875 14.71875 L 14.71875 12.71875 L 15.40625 12 L 14.71875 11.28125 L 12.71875 9.28125 C 12.476562 9.03125 12.121094 8.921875 11.78125 9 Z M 11.78125 9 "/>
<path style=" stroke:none;fill-rule:nonzero;fill:rgb(100%,100%,100%);fill-opacity:1;" d="M 11.78125 1 C 11.40625 1.066406 11.105469 1.339844 11 1.703125 C 10.894531 2.070312 11.003906 2.460938 11.28125 2.71875 L 12.5625 4 L 11.28125 5.28125 C 11.019531 5.535156 10.917969 5.914062 11.011719 6.265625 C 11.105469 6.617188 11.378906 6.894531 11.734375 6.988281 C 12.085938 7.082031 12.460938 6.976562 12.71875 6.71875 L 14.71875 4.71875 L 15.40625 4 L 14.71875 3.28125 L 12.71875 1.28125 C 12.476562 1.03125 12.121094 0.921875 11.78125 1 Z M 11.78125 1 "/>
<path style=" stroke:none;fill-rule:nonzero;fill:rgb(100%,100%,100%);fill-opacity:1;" d="M 8 3 C 7.769531 3 7.558594 3.042969 7.34375 3.09375 C 7.824219 3.644531 8.203125 4.273438 8.375 5 L 14 5 L 14 3 Z M 1 11 L 1 13 L 4 13 C 4.230469 13 4.441406 12.957031 4.65625 12.90625 C 4.175781 12.355469 3.796875 11.726562 3.625 11 Z M 1 11 "/>
<path style=" stroke:none;fill-rule:nonzero;fill:rgb(100%,100%,100%);fill-opacity:1;" d="M 11 9 L 12 9 L 12 10 L 11 10 Z M 11 9 "/>
<path style=" stroke:none;fill-rule:nonzero;fill:rgb(100%,100%,100%);fill-opacity:1;" d="M 11 14 L 12 14 L 12 15 L 11 15 Z M 11 14 "/>
<path style=" stroke:none;fill-rule:nonzero;fill:rgb(100%,100%,100%);fill-opacity:1;" d="M 11 1 L 12 1 L 12 2 L 11 2 Z M 11 1 "/>
<path style=" stroke:none;fill-rule:nonzero;fill:rgb(100%,100%,100%);fill-opacity:1;" d="M 11 6 L 12 6 L 12 7 L 11 7 Z M 11 6 "/>
</g>
</svg>
