<?xml version="1.0" encoding="UTF-8"?>
<svg xmlns="http://www.w3.org/2000/svg" xmlns:xlink="http://www.w3.org/1999/xlink" width="16" height="16" viewBox="0 0 16 16" version="1.1">
<g id="surface1">
<path style=" stroke:none;fill-rule:nonzero;fill:rgb(100%,100%,100%);fill-opacity:1;" d="M 13 15 L 13 10.5 L 9.5 10.5 Z M 13 15 "/>
<path style=" stroke:none;fill-rule:nonzero;fill:rgb(100%,100%,100%);fill-opacity:1;" d="M 3.5 1 C 2.117188 1 1 2.117188 1 3.5 L 1 8.5 C 1 9.882812 2.117188 11 3.5 11 L 12.5 11 C 13.882812 11 15 9.882812 15 8.5 L 15 3.5 C 15 2.117188 13.882812 1 12.5 1 Z M 5 3 L 6 3 C 6.277344 3 6.539062 3.101562 6.71875 3.28125 L 8 4.5625 L 9.28125 3.28125 C 9.460938 3.101562 9.722656 3 10 3 L 11 3 L 11 4 C 11 4.277344 10.898438 4.539062 10.71875 4.71875 L 9.4375 6 L 10.71875 7.28125 C 10.898438 7.460938 11 7.722656 11 8 L 11 9 L 10 9 C 9.722656 9 9.460938 8.898438 9.28125 8.71875 L 8 7.4375 L 6.71875 8.71875 C 6.539062 8.898438 6.277344 9 6 9 L 5 9 L 5 8 C 5 7.722656 5.101562 7.460938 5.28125 7.28125 L 6.5625 6 L 5.28125 4.71875 C 5.101562 4.539062 5 4.28125 5 4 Z M 5 3 "/>
</g>
</svg>
