<?xml version="1.0" encoding="UTF-8"?>
<svg xmlns="http://www.w3.org/2000/svg" xmlns:xlink="http://www.w3.org/1999/xlink" width="24" height="24" viewBox="0 0 24 24" version="1.1">
<defs>
<filter id="alpha" filterUnits="objectBoundingBox" x="0%" y="0%" width="100%" height="100%">
  <feColorMatrix type="matrix" in="SourceGraphic" values="0 0 0 0 1 0 0 0 0 1 0 0 0 0 1 0 0 0 1 0"/>
</filter>
<image id="image14" width="24" height="24" xlink:href="data:image/png;base64,iVBORw0KGgoAAAANSUhEUgAAABgAAAAYCAYAAADgdz34AAAABmJLR0QA/wD/AP+gvaeTAAAAWUlEQVRIiWNkoBL4/0czkIHhFgtc4FvOPka+iW9Z8OghEdxiYfi7G8k8VkYGhokMTNSzADsYtWDUglELRi0YtWDUglELiALUq/S/5eyDVPRQcMvhI9XMxgcA9G0OlKrMTx0AAAAASUVORK5CYII="/>
<mask id="mask0">
  <g filter="url(#alpha)">
<use xlink:href="#image14"/>
  </g>
</mask>
<clipPath id="clip1">
  <rect x="0" y="0" width="24" height="24"/>
</clipPath>
<g id="surface13" clip-path="url(#clip1)">
<path style=" stroke:none;fill-rule:evenodd;fill:rgb(74.509804%,74.509804%,74.509804%);fill-opacity:1;" d="M 18 0 L 18 22.5 L 22.5 22.5 L 22.5 0 Z M 18 0 "/>
</g>
<image id="image23" width="24" height="24" xlink:href="data:image/png;base64,iVBORw0KGgoAAAANSUhEUgAAABgAAAAYCAYAAADgdz34AAAABmJLR0QA/wD/AP+gvaeTAAAAXUlEQVRIiWNgGAUDDRhJ1fD/U74wA0MIQt8th4+MJn9/U8+CP8yhDH93s8AFfrLuZuSzfYNLPROpFpAKRi0YtWDUglELRi0YEhawEFaCBr7l7GNgYEWp0ajpIJIBAPqAElh5OEttAAAAAElFTkSuQmCC"/>
<mask id="mask1">
  <g filter="url(#alpha)">
<use xlink:href="#image23"/>
  </g>
</mask>
<clipPath id="clip2">
  <rect x="0" y="0" width="24" height="24"/>
</clipPath>
<g id="surface22" clip-path="url(#clip2)">
<path style=" stroke:none;fill-rule:evenodd;fill:rgb(74.509804%,74.509804%,74.509804%);fill-opacity:1;" d="M 12 4.5 L 12 22.5 L 16.5 22.5 L 16.5 4.5 Z M 12 4.5 "/>
</g>
<image id="image32" width="24" height="24" xlink:href="data:image/png;base64,iVBORw0KGgoAAAANSUhEUgAAABgAAAAYCAYAAADgdz34AAAABmJLR0QA/wD/AP+gvaeTAAAAWklEQVRIiWNgGAWjYBTQHDDikvj/RzOQgeEWC1zgW84+Rr6Jb0m1gAW31C0Whr+7keRZGRkYJpJqPgMTyTpGLRi1YNSCEWgB7rLoW84+SPkDBbccPtLaMWQBAFgDDoIhWRdnAAAAAElFTkSuQmCC"/>
<mask id="mask2">
  <g filter="url(#alpha)">
<use xlink:href="#image32"/>
  </g>
</mask>
<clipPath id="clip3">
  <rect x="0" y="0" width="24" height="24"/>
</clipPath>
<g id="surface31" clip-path="url(#clip3)">
<path style=" stroke:none;fill-rule:evenodd;fill:rgb(74.509804%,74.509804%,74.509804%);fill-opacity:1;" d="M 6 9 L 6 22.5 L 10.5 22.5 L 10.5 9 Z M 6 9 "/>
</g>
<image id="image41" width="24" height="24" xlink:href="data:image/png;base64,iVBORw0KGgoAAAANSUhEUgAAABgAAAAYCAYAAADgdz34AAAABmJLR0QA/wD/AP+gvaeTAAAAWElEQVRIiWNgGAWjYBSMghEAGP9/OizCwJjKCBe5efsDo8nf39Sz4A9zKMPf3SxwkV9Zexh5b7ymlgVM1DJo1IJRC2gHWBi+5exjYGBFZLRbtz/S2lKqAgB5/xThVS1+WwAAAABJRU5ErkJggg=="/>
<mask id="mask3">
  <g filter="url(#alpha)">
<use xlink:href="#image41"/>
  </g>
</mask>
<clipPath id="clip4">
  <rect x="0" y="0" width="24" height="24"/>
</clipPath>
<g id="surface40" clip-path="url(#clip4)">
<path style=" stroke:none;fill-rule:evenodd;fill:rgb(74.509804%,74.509804%,74.509804%);fill-opacity:1;" d="M 0 13.5 L 0 22.5 L 4.5 22.5 L 4.5 13.5 Z M 0 13.5 "/>
</g>
</defs>
<g id="surface5">
<use xlink:href="#surface13" mask="url(#mask0)"/>
<use xlink:href="#surface22" mask="url(#mask1)"/>
<use xlink:href="#surface31" mask="url(#mask2)"/>
<use xlink:href="#surface40" mask="url(#mask3)"/>
</g>
</svg>
