<?xml version="1.0" encoding="UTF-8"?>
<svg xmlns="http://www.w3.org/2000/svg" xmlns:xlink="http://www.w3.org/1999/xlink" width="24" height="24" viewBox="0 0 24 24" version="1.1">
<g id="surface1">
<path style=" stroke:none;fill-rule:nonzero;fill:rgb(100%,100%,100%);fill-opacity:1;" d="M 12 1.515625 C 12.398438 1.511719 12.746094 1.667969 12.996094 1.875 C 13.246094 2.082031 13.414062 2.355469 13.582031 2.625 C 13.917969 3.160156 14.171875 3.777344 14.429688 4.429688 C 14.6875 5.082031 14.949219 5.761719 15.1875 6.277344 C 15.421875 6.796875 15.707031 7.144531 15.722656 7.160156 C 15.742188 7.171875 16.183594 7.335938 16.769531 7.386719 C 17.351562 7.441406 18.089844 7.460938 18.8125 7.492188 C 19.535156 7.523438 20.269531 7.546875 20.902344 7.683594 C 21.21875 7.753906 21.527344 7.835938 21.808594 8 C 22.09375 8.160156 22.359375 8.429688 22.484375 8.792969 C 22.609375 9.160156 22.558594 9.554688 22.429688 9.847656 C 22.300781 10.140625 22.089844 10.394531 21.878906 10.632812 C 21.453125 11.105469 20.929688 11.539062 20.367188 11.980469 C 19.800781 12.417969 19.199219 12.816406 18.765625 13.195312 C 18.328125 13.570312 18.082031 13.957031 18.074219 13.976562 C 18.066406 14 18.027344 14.480469 18.15625 15.03125 C 18.285156 15.582031 18.492188 16.25 18.6875 16.921875 C 18.878906 17.59375 19.0625 18.273438 19.125 18.898438 C 19.152344 19.210938 19.1875 19.511719 19.117188 19.820312 C 19.042969 20.128906 18.839844 20.464844 18.519531 20.691406 C 18.195312 20.921875 17.84375 20.976562 17.515625 20.949219 C 17.1875 20.921875 16.863281 20.84375 16.5625 20.722656 C 15.964844 20.476562 15.359375 20.078125 14.753906 19.699219 C 14.144531 19.316406 13.539062 18.914062 13.035156 18.632812 C 12.527344 18.347656 12.0625 18.226562 12.039062 18.226562 C 12.015625 18.226562 11.582031 18.371094 11.078125 18.660156 C 10.578125 18.949219 9.992188 19.355469 9.386719 19.742188 C 8.785156 20.128906 8.160156 20.488281 7.5625 20.738281 C 7.261719 20.859375 6.976562 20.964844 6.648438 20.992188 C 6.320312 21.023438 5.929688 20.945312 5.605469 20.722656 C 5.28125 20.496094 5.097656 20.191406 5.023438 19.882812 C 4.949219 19.574219 4.957031 19.230469 4.984375 18.917969 C 5.039062 18.292969 5.222656 17.621094 5.410156 16.945312 C 5.597656 16.273438 5.804688 15.617188 5.929688 15.066406 C 6.050781 14.511719 6.035156 14.035156 6.027344 14.011719 C 6.019531 13.992188 5.746094 13.632812 5.308594 13.261719 C 4.867188 12.886719 4.292969 12.453125 3.726562 12.019531 C 3.160156 11.585938 2.574219 11.164062 2.148438 10.691406 C 1.933594 10.457031 1.785156 10.191406 1.652344 9.898438 C 1.523438 9.605469 1.449219 9.253906 1.570312 8.890625 C 1.691406 8.523438 1.976562 8.269531 2.261719 8.105469 C 2.542969 7.941406 2.808594 7.832031 3.125 7.761719 C 3.761719 7.617188 4.496094 7.550781 5.21875 7.515625 C 5.945312 7.476562 6.640625 7.457031 7.222656 7.398438 C 7.804688 7.34375 8.296875 7.203125 8.3125 7.1875 C 8.332031 7.175781 8.589844 6.832031 8.820312 6.316406 C 9.054688 5.796875 9.3125 5.132812 9.566406 4.476562 C 9.820312 3.824219 10.066406 3.179688 10.398438 2.640625 C 10.566406 2.375 10.75 2.113281 10.996094 1.902344 C 11.246094 1.691406 11.601562 1.515625 12 1.515625 Z M 11.988281 3.007812 C 11.921875 3.058594 11.828125 3.210938 11.710938 3.398438 C 11.480469 3.777344 11.214844 4.339844 10.96875 4.972656 C 10.722656 5.605469 10.492188 6.300781 10.226562 6.898438 C 9.960938 7.492188 9.753906 7.996094 9.210938 8.378906 C 8.671875 8.761719 8.058594 8.828125 7.390625 8.890625 C 6.722656 8.957031 5.996094 8.972656 5.296875 9.007812 C 4.597656 9.042969 3.921875 9.109375 3.476562 9.210938 C 3.253906 9.261719 3.09375 9.296875 3.019531 9.339844 C 3.054688 9.414062 3.140625 9.570312 3.289062 9.734375 C 3.589844 10.066406 4.097656 10.46875 4.644531 10.886719 C 5.191406 11.308594 5.8125 11.746094 6.316406 12.171875 C 6.820312 12.601562 7.277344 12.972656 7.484375 13.585938 C 7.695312 14.199219 7.566406 14.75 7.425781 15.382812 C 7.28125 16.015625 7.042969 16.703125 6.863281 17.351562 C 6.679688 18.007812 6.523438 18.625 6.484375 19.0625 C 6.464844 19.261719 6.507812 19.414062 6.523438 19.5 C 6.617188 19.488281 6.789062 19.453125 6.980469 19.371094 C 7.398438 19.199219 7.953125 18.878906 8.535156 18.507812 C 9.117188 18.132812 9.738281 17.710938 10.316406 17.382812 C 10.894531 17.050781 11.378906 16.785156 12.050781 16.78125 C 12.71875 16.777344 13.238281 17.039062 13.816406 17.367188 C 14.398438 17.691406 14.992188 18.109375 15.582031 18.476562 C 16.167969 18.84375 16.746094 19.152344 17.164062 19.324219 C 17.375 19.40625 17.535156 19.449219 17.617188 19.457031 C 17.632812 19.371094 17.640625 19.21875 17.621094 19.019531 C 17.582031 18.582031 17.414062 17.957031 17.226562 17.304688 C 17.042969 16.65625 16.847656 15.957031 16.699219 15.328125 C 16.554688 14.695312 16.421875 14.144531 16.625 13.527344 C 16.828125 12.910156 17.273438 12.566406 17.773438 12.132812 C 18.273438 11.703125 18.832031 11.253906 19.375 10.832031 C 19.917969 10.40625 20.453125 9.988281 20.75 9.65625 C 20.898438 9.492188 20.992188 9.339844 21.027344 9.265625 C 20.953125 9.222656 20.792969 9.175781 20.570312 9.128906 C 20.128906 9.03125 19.453125 8.96875 18.753906 8.9375 C 18.054688 8.910156 17.332031 8.894531 16.664062 8.835938 C 15.996094 8.773438 15.394531 8.761719 14.851562 8.382812 C 14.304688 8.003906 14.042969 7.472656 13.773438 6.882812 C 13.5 6.289062 13.265625 5.617188 13.015625 4.988281 C 12.765625 4.359375 12.539062 3.734375 12.300781 3.359375 C 12.183594 3.171875 12.050781 3.058594 11.988281 3.007812 Z M 11.988281 3.007812 "/>
<path style=" stroke:none;fill-rule:nonzero;fill:rgb(100%,100%,100%);fill-opacity:1;" d="M 12 2.25 C 13.390625 2.246094 14.152344 6.949219 15.28125 7.734375 C 16.410156 8.519531 21.316406 7.773438 21.75 9.046875 C 22.183594 10.320312 17.769531 12.457031 17.34375 13.734375 C 16.917969 15.011719 19.214844 19.269531 18.09375 20.0625 C 16.972656 20.855469 13.4375 17.480469 12.046875 17.484375 C 12.035156 17.484375 12.011719 17.484375 12 17.484375 L 12 2.242188 Z M 12 2.25 "/>
</g>
</svg>
