<?xml version="1.0" encoding="UTF-8"?>
<svg xmlns="http://www.w3.org/2000/svg" xmlns:xlink="http://www.w3.org/1999/xlink" width="24" height="24" viewBox="0 0 24 24" version="1.1">
<g id="surface1">
<path style=" stroke:none;fill-rule:nonzero;fill:rgb(100%,100%,100%);fill-opacity:1;" d="M 19.5 22.5 L 19.5 15.75 L 14.25 15.75 Z M 19.5 22.5 "/>
<path style=" stroke:none;fill-rule:nonzero;fill:rgb(100%,100%,100%);fill-opacity:1;" d="M 5.25 1.5 C 3.171875 1.5 1.5 3.171875 1.5 5.25 L 1.5 12.75 C 1.5 14.828125 3.171875 16.5 5.25 16.5 L 18.75 16.5 C 20.828125 16.5 22.5 14.828125 22.5 12.75 L 22.5 5.25 C 22.5 3.171875 20.828125 1.5 18.75 1.5 Z M 12 4.5 L 13.5 4.5 C 13.914062 4.5 14.304688 4.648438 14.578125 4.921875 L 17.578125 7.921875 L 18.609375 9 L 17.578125 10.078125 L 14.578125 13.078125 C 14.308594 13.347656 13.917969 13.496094 13.496094 13.496094 L 11.996094 13.496094 L 11.996094 11.996094 C 11.996094 11.585938 12.148438 11.191406 12.417969 10.917969 L 12.839844 10.5 L 5.996094 10.5 L 5.996094 7.5 L 12.839844 7.5 L 12.417969 7.078125 C 12.148438 6.808594 11.996094 6.417969 11.996094 5.996094 L 11.996094 4.496094 Z M 12 4.5 "/>
</g>
</svg>
