<?xml version="1.0" encoding="UTF-8"?>
<svg xmlns="http://www.w3.org/2000/svg" xmlns:xlink="http://www.w3.org/1999/xlink" width="24" height="24" viewBox="0 0 24 24" version="1.1">
<g id="surface1">
<path style=" stroke:none;fill-rule:nonzero;fill:rgb(100%,100%,100%);fill-opacity:1;" d="M 2.667969 7.5 C 2.109375 7.601562 1.65625 8.011719 1.496094 8.558594 C 1.339844 9.101562 1.503906 9.691406 1.917969 10.078125 L 4.917969 13.078125 L 5.996094 14.109375 L 7.074219 13.078125 L 10.074219 10.078125 C 10.46875 9.695312 10.621094 9.128906 10.480469 8.601562 C 10.339844 8.070312 9.925781 7.65625 9.398438 7.515625 C 8.867188 7.375 8.304688 7.53125 7.917969 7.921875 L 6 9.84375 L 4.082031 7.921875 C 3.714844 7.546875 3.179688 7.386719 2.667969 7.503906 Z M 2.667969 7.5 "/>
<path style=" stroke:none;fill-rule:nonzero;fill:rgb(100%,100%,100%);fill-opacity:1;" d="M 9 1.5 C 6.53125 1.5 4.5 3.53125 4.5 6 L 4.5 12 L 7.5 12 L 7.5 6 C 7.5 5.144531 8.144531 4.5 9 4.5 L 15 4.5 C 15.855469 4.5 16.5 5.144531 16.5 6 L 16.5 18 C 16.5 18.855469 15.855469 19.5 15 19.5 L 9 19.5 L 9 22.5 L 15 22.5 C 17.46875 22.5 19.5 20.46875 19.5 18 L 19.5 6 C 19.5 3.53125 17.46875 1.5 15 1.5 Z M 9 1.5 "/>
<path style=" stroke:none;fill-rule:nonzero;fill:rgb(100%,100%,100%);fill-opacity:1;" d="M 10.5 9 L 10.5 7.5 L 9 7.5 L 9 9 Z M 10.5 9 "/>
<path style=" stroke:none;fill-rule:nonzero;fill:rgb(100%,100%,100%);fill-opacity:1;" d="M 3 9 L 3 7.5 L 1.5 7.5 L 1.5 9 Z M 3 9 "/>
</g>
</svg>
