<?xml version="1.0" encoding="UTF-8"?>
<svg xmlns="http://www.w3.org/2000/svg" xmlns:xlink="http://www.w3.org/1999/xlink" width="256" height="256" viewBox="0 0 256 256" version="1.1">
<g id="surface1">
<path style=" stroke:none;fill-rule:evenodd;fill:rgb(10.196078%,10.196078%,10.196078%);fill-opacity:1;" d="M 32.351562 79.070312 L 59.601562 105.742188 L 58.75 68.34375 L 32.335938 68.21875 Z M 32.351562 79.070312 "/>
<path style="fill-rule:evenodd;fill:rgb(94.901961%,94.901961%,94.901961%);fill-opacity:1;stroke-width:5.03546;stroke-linecap:butt;stroke-linejoin:miter;stroke:rgb(68.627451%,68.627451%,68.627451%);stroke-opacity:1;stroke-miterlimit:4;" d="M 96.908569 1029.840207 L 433.792114 1028.66528 L 434.967041 664.773679 L 346.923828 575.570798 L 96.908569 575.570798 Z M 96.908569 1029.840207 " transform="matrix(0.512,0,0,0.512,0,-282.809436)"/>
<path style="fill-rule:evenodd;fill:rgb(68.627451%,68.627451%,68.627451%);fill-opacity:1;stroke-width:5.03546;stroke-linecap:butt;stroke-linejoin:miter;stroke:rgb(68.627451%,68.627451%,68.627451%);stroke-opacity:1;stroke-miterlimit:4;" d="M 431.381226 662.927365 L 349.212646 662.347531 L 349.975586 578.546262 Z M 431.381226 662.927365 " transform="matrix(0.512,0,0,0.512,0,-282.809436)"/>
<path style=" stroke:none;fill-rule:nonzero;fill:rgb(22.352941%,25.098039%,31.372549%);fill-opacity:1;" d="M 32.257812 35.75 L 151.601562 35.75 L 151.601562 78.9375 L 32.257812 78.9375 Z M 32.257812 35.75 "/>
<path style="fill-rule:nonzero;fill:rgb(98.039216%,92.54902%,42.745098%);fill-opacity:1;stroke-width:13.157895;stroke-linecap:butt;stroke-linejoin:miter;stroke:rgb(22.352941%,25.098039%,31.372549%);stroke-opacity:1;stroke-miterlimit:4;" d="M 380.233765 902.368283 C 380.233765 967.752194 327.224731 1020.776486 261.825562 1020.776486 C 196.426392 1020.791745 143.4021 967.782712 143.386841 902.383542 C 143.386841 836.984372 196.380615 783.96008 261.779785 783.944821 C 327.178955 783.929562 380.203247 836.923337 380.233765 902.322507 " transform="matrix(0.512,0,0,0.512,0,-282.809436)"/>
<path style=" stroke:none;fill-rule:nonzero;fill:rgb(22.352941%,25.098039%,31.372549%);fill-opacity:1;" d="M 116.421875 170.34375 L 144.71875 170.265625 L 144.921875 208.039062 C 144.921875 208.039062 144.84375 209.015625 145.578125 209.8125 C 146.304688 210.609375 147.03125 210.632812 147.03125 210.632812 L 153.34375 210.664062 L 153.398438 215.25 L 117.445312 215.164062 L 117.390625 210.515625 L 124.742188 210.546875 C 124.742188 210.546875 125.765625 210.421875 126.351562 209.585938 C 126.929688 208.75 126.789062 207.835938 126.789062 207.835938 L 126.757812 177.304688 C 126.757812 177.304688 126.859375 176.539062 125.8125 175.648438 C 124.773438 174.757812 123.789062 174.851562 123.789062 174.851562 L 116.46875 174.765625 Z M 116.421875 170.34375 "/>
<path style=" stroke:none;fill-rule:nonzero;fill:rgb(22.352941%,25.098039%,31.372549%);fill-opacity:1;" d="M 144.984375 154.617188 C 144.984375 160.398438 140.390625 165.09375 134.71875 165.101562 C 129.046875 165.109375 124.4375 160.429688 124.421875 154.640625 C 124.414062 148.859375 129 144.15625 134.671875 144.132812 C 140.34375 144.117188 144.960938 148.78125 144.984375 154.570312 "/>
<path style="fill:none;stroke-width:9;stroke-linecap:butt;stroke-linejoin:bevel;stroke:rgb(100%,100%,100%);stroke-opacity:1;stroke-miterlimit:4;" d="M 124.237061 695.077634 L 124.038696 634.088254 L 166.07666 694.253659 L 166.07666 633.264279 " transform="matrix(0.512,0,0,0.512,0,-282.809436)"/>
<path style="fill:none;stroke-width:9;stroke-linecap:butt;stroke-linejoin:miter;stroke:rgb(100%,100%,100%);stroke-opacity:1;stroke-miterlimit:4;" d="M 233.387627 692.510521 L 233.799614 640.798484 L 268.238701 640.951072 " transform="matrix(0.512,0,0,0.512,-23.88509,-284.620074)"/>
<path style="fill:none;stroke-width:9;stroke-linecap:butt;stroke-linejoin:miter;stroke:rgb(100%,100%,100%);stroke-opacity:1;stroke-miterlimit:4;" d="M 236.134209 664.586937 L 265.263237 664.724266 " transform="matrix(0.512,0,0,0.512,-23.88509,-284.620074)"/>
<path style="fill:none;stroke-width:9;stroke-linecap:butt;stroke-linejoin:miter;stroke:rgb(100%,100%,100%);stroke-opacity:1;stroke-miterlimit:4;" d="M 252.89917 691.537595 C 240.875244 691.446042 229.553223 679.361081 229.476929 664.056516 C 229.415894 648.767209 241.470337 636.468625 253.616333 636.819577 C 265.762329 637.155271 276.351929 648.736691 276.565552 665.017819 C 276.763916 681.298947 264.923096 691.644406 252.89917 691.537595 Z M 252.89917 691.537595 " transform="matrix(0.512,0,0,0.512,0,-282.809436)"/>
</g>
</svg>
