<?xml version="1.0" encoding="UTF-8"?>
<svg xmlns="http://www.w3.org/2000/svg" xmlns:xlink="http://www.w3.org/1999/xlink" width="48" height="48" viewBox="0 0 48 48" version="1.1">
<g id="surface1">
<path style=" stroke:none;fill-rule:nonzero;fill:rgb(100%,100%,100%);fill-opacity:1;" d="M 30.90625 2 C 29.511719 2.003906 28.421875 2.007812 28 2.03125 C 26.414062 2.125 25.59375 3.070312 25.21875 4.46875 C 24.71875 3.527344 23.8125 2.8125 22.6875 2.625 C 22.445312 2.585938 22.203125 2.585938 21.96875 2.59375 C 20.332031 2.65625 18.902344 3.851562 18.625 5.53125 C 18.308594 7.449219 19.613281 9.246094 21.53125 9.5625 C 22.992188 9.804688 24.398438 9.125 25.125 7.9375 C 25.117188 11.796875 25.125 18.5 25.125 18.5 C 25.125 20.097656 26.402344 21.40625 28 21.40625 L 43.09375 21.40625 C 44.691406 21.40625 45.96875 20.097656 45.96875 18.5 C 45.96875 16.902344 46.164062 4.960938 45.75 3.875 C 45.335938 2.789062 44.332031 2.03125 43.09375 2.03125 C 42.167969 2.03125 35.09375 1.984375 30.90625 2 Z M 29.03125 4.28125 L 42.03125 4.28125 C 42.960938 4.28125 43.71875 5.007812 43.71875 5.9375 L 43.71875 17.5 C 43.71875 18.429688 42.960938 19.15625 42.03125 19.15625 L 29.03125 19.15625 C 28.101562 19.15625 27.34375 18.429688 27.34375 17.5 L 27.34375 5.9375 C 27.34375 5.007812 28.101562 4.28125 29.03125 4.28125 Z M 29.59375 6.5 L 29.59375 16.9375 L 41.46875 16.9375 L 41.46875 6.5 Z M 12.78125 7.25 C 11.449219 7.300781 10.289062 8.289062 10.0625 9.65625 C 9.804688 11.21875 10.875 12.679688 12.4375 12.9375 C 14 13.195312 15.460938 12.15625 15.71875 10.59375 C 15.976562 9.03125 14.9375 7.539062 13.375 7.28125 C 13.179688 7.25 12.972656 7.242188 12.78125 7.25 Z M 7.21875 16.46875 C 6.273438 16.503906 5.441406 17.1875 5.28125 18.15625 C 5.097656 19.265625 5.859375 20.316406 6.96875 20.5 C 8.078125 20.683594 9.128906 19.921875 9.3125 18.8125 C 9.496094 17.703125 8.734375 16.683594 7.625 16.5 C 7.488281 16.476562 7.355469 16.464844 7.21875 16.46875 Z M 7.78125 26.59375 C 6.386719 26.597656 5.328125 26.601562 4.90625 26.625 C 3.210938 26.726562 2.335938 27.78125 2 29.34375 C 1.957031 30.128906 2 43.09375 2 43.09375 C 2 44.691406 3.308594 46 4.90625 46 L 19.96875 46 C 21.566406 46 22.84375 44.691406 22.84375 43.09375 C 22.84375 41.496094 23.070312 29.554688 22.65625 28.46875 C 22.242188 27.382812 21.203125 26.625 19.96875 26.625 C 19.042969 26.625 11.96875 26.578125 7.78125 26.59375 Z M 5.90625 28.875 L 18.90625 28.875 C 19.835938 28.875 20.59375 29.601562 20.59375 30.53125 L 20.59375 42.09375 C 20.59375 43.023438 19.835938 43.75 18.90625 43.75 L 5.90625 43.75 C 4.976562 43.75 4.21875 43.023438 4.21875 42.09375 L 4.21875 30.53125 C 4.21875 29.601562 4.976562 28.875 5.90625 28.875 Z M 6.46875 31.09375 L 6.46875 41.53125 L 18.375 41.53125 L 18.375 31.09375 Z M 6.46875 31.09375 "/>
</g>
</svg>
