<?xml version="1.0" encoding="UTF-8"?>
<svg xmlns="http://www.w3.org/2000/svg" xmlns:xlink="http://www.w3.org/1999/xlink" width="48" height="48" viewBox="0 0 48 48" version="1.1">
<g id="surface1">
<path style=" stroke:none;fill-rule:nonzero;fill:rgb(100%,100%,100%);fill-opacity:1;" d="M 21.78125 1.75 C 21.226562 1.757812 20.664062 1.859375 20.125 2.09375 C 17.96875 3.039062 16.992188 5.5625 17.9375 7.71875 C 18.882812 9.875 21.375 10.851562 23.53125 9.90625 C 24.183594 9.621094 24.703125 9.175781 25.125 8.65625 C 25.121094 12.699219 25.125 18.5 25.125 18.5 C 25.125 20.097656 26.402344 21.40625 28 21.40625 L 43.09375 21.40625 C 44.691406 21.40625 45.96875 20.097656 45.96875 18.5 C 45.96875 16.902344 46.164062 4.960938 45.75 3.875 C 45.335938 2.789062 44.332031 2.03125 43.09375 2.03125 C 42.167969 2.03125 35.09375 1.984375 30.90625 2 C 29.511719 2.003906 28.421875 2.007812 28 2.03125 C 26.703125 2.109375 25.890625 2.753906 25.4375 3.75 C 24.632812 2.480469 23.234375 1.730469 21.78125 1.75 Z M 29.03125 4.28125 L 42.03125 4.28125 C 42.960938 4.28125 43.71875 5.007812 43.71875 5.9375 L 43.71875 17.5 C 43.71875 18.429688 42.960938 19.15625 42.03125 19.15625 L 29.03125 19.15625 C 28.101562 19.15625 27.34375 18.429688 27.34375 17.5 L 27.34375 5.9375 C 27.34375 5.007812 28.101562 4.28125 29.03125 4.28125 Z M 12.625 6.5 C 12.167969 6.503906 11.695312 6.585938 11.25 6.78125 C 9.46875 7.5625 8.65625 9.65625 9.4375 11.4375 C 10.21875 13.21875 12.28125 14.03125 14.0625 13.25 C 15.84375 12.46875 16.6875 10.375 15.90625 8.59375 C 15.320312 7.257812 13.996094 6.484375 12.625 6.5 Z M 29.59375 6.5 L 29.59375 16.9375 L 41.46875 16.9375 L 41.46875 6.5 Z M 7.09375 15.53125 C 6.71875 15.535156 6.332031 15.621094 5.96875 15.78125 C 4.515625 16.417969 3.863281 18.109375 4.5 19.5625 C 5.136719 21.011719 6.832031 21.667969 8.28125 21.03125 C 9.734375 20.398438 10.386719 18.703125 9.75 17.25 C 9.273438 16.160156 8.210938 15.515625 7.09375 15.53125 Z M 6.96875 26.4375 C 6.714844 26.441406 6.464844 26.519531 6.21875 26.625 C 6.210938 26.628906 6.199219 26.621094 6.1875 26.625 C 5.773438 26.628906 5.09375 26.613281 4.90625 26.625 C 3.210938 26.726562 2.335938 27.78125 2 29.34375 C 1.957031 30.128906 2 43.09375 2 43.09375 C 2 44.691406 3.308594 46 4.90625 46 L 19.96875 46 C 21.566406 46 22.84375 44.691406 22.84375 43.09375 C 22.84375 41.496094 23.070312 29.554688 22.65625 28.46875 C 22.242188 27.382812 21.203125 26.625 19.96875 26.625 C 19.042969 26.625 11.96875 26.578125 7.78125 26.59375 C 7.527344 26.488281 7.25 26.433594 6.96875 26.4375 Z M 5.90625 28.875 L 18.90625 28.875 C 19.835938 28.875 20.59375 29.601562 20.59375 30.53125 L 20.59375 42.09375 C 20.59375 43.023438 19.835938 43.75 18.90625 43.75 L 5.90625 43.75 C 4.976562 43.75 4.21875 43.023438 4.21875 42.09375 L 4.21875 30.53125 C 4.21875 29.601562 4.976562 28.875 5.90625 28.875 Z M 6.46875 31.09375 L 6.46875 41.53125 L 18.375 41.53125 L 18.375 31.09375 Z M 6.46875 31.09375 "/>
</g>
</svg>
