<svg xmlns="http://www.w3.org/2000/svg" width="24" height="24" version="1.1">
 <defs>
   <style id="current-color-scheme" type="text/css">
   .ColorScheme-Text { color: #e9ecf2; } .ColorScheme-Highlight { color: #1AD6AB; }
  </style>
  <linearGradient id="arrongin" x1="0%" x2="0%" y1="0%" y2="100%">
   <stop offset="0%"    stop-color= "#dd9b44" stop-opacity="1"/>
   <stop offset="100%"  stop-color= "#ad6c16" stop-opacity="1"/>
  </linearGradient>
  <linearGradient id="aurora" x1="0%" x2="0%" y1="0%" y2="100%">
   <stop offset="0%"    stop-color= "#09D4DF" stop-opacity="1"/>
   <stop offset="100%"  stop-color= "#9269F4" stop-opacity="1"/>
  </linearGradient> 
  <linearGradient id="cyberblue" x1="0%" x2="0%" y1="0%" y2="100%">
   <stop offset="0%"    stop-color= "#07B3FF" stop-opacity="1"/>
   <stop offset="100%"  stop-color= "#007DE8" stop-opacity="1"/>
  </linearGradient>
  <linearGradient id="cyberneon" x1="0%" x2="0%" y1="0%" y2="100%">
    <stop offset="0%"   stop-color= "#0abdc6" stop-opacity="1"/>
    <stop offset="100%" stop-color= "#ea00d9" stop-opacity="1"/>
  </linearGradient>
  <linearGradient id="fitdance" x1="0%" x2="0%" y1="0%" y2="100%">
   <stop offset="0%"    stop-color= "#1AD6AB" stop-opacity="1"/>
   <stop offset="100%"  stop-color= "#329DB6" stop-opacity="1"/>
  </linearGradient>
  <linearGradient id="oomox" x1="0%" x2="0%" y1="0%" y2="100%">
   <stop offset="0%"    stop-color= "#89f224" stop-opacity="1"/>
   <stop offset="100%"  stop-color= "#579916" stop-opacity="1"/>
  </linearGradient>
  <linearGradient id="rainblue" x1="0%" x2="0%" y1="0%" y2="100%">
   <stop offset="0%"    stop-color= "#00F260" stop-opacity="1"/>
   <stop offset="100%"  stop-color= "#0575E6" stop-opacity="1"/>
  </linearGradient>
  <linearGradient id="redcarbon" x1="0%" x2="0%" y1="0%" y2="100%">
   <stop offset="0%"    stop-color= "#FF6D57" stop-opacity="1"/>
   <stop offset="50%"   stop-color= "#FF5160" stop-opacity="1"/>
   <stop offset="100%"  stop-color= "#F50F22" stop-opacity="1"/>
  </linearGradient>
  <linearGradient id="sunrise" x1="0%" x2="0%" y1="0%" y2="100%">
   <stop offset="0%"    stop-color= "#FF8501" stop-opacity="1"/>
   <stop offset="100%"  stop-color= "#FFCB01" stop-opacity="1"/>
  </linearGradient>
  <linearGradient id="telinkrin" x1="0%" x2="0%" y1="0%" y2="100%">
   <stop offset="0%"    stop-color= "#b2ced6" stop-opacity="1"/>
   <stop offset="100%"  stop-color= "#6da5b7" stop-opacity="1"/>
  </linearGradient>
  <linearGradient id="60spsycho" x1="0%" x2="0%" y1="0%" y2="100%">
   <stop offset="0%"    stop-color= "#df5940" stop-opacity="1"/>
   <stop offset="25%"   stop-color= "#d8d15f" stop-opacity="1"/>
   <stop offset="50%"   stop-color= "#e9882a" stop-opacity="1"/>
   <stop offset="100%"  stop-color= "#279362" stop-opacity="1"/>
  </linearGradient>
  <linearGradient id="90ssummer" x1="0%" x2="0%" y1="0%" y2="100%">
   <stop offset="0%"    stop-color= "#f618c7" stop-opacity="1"/>
   <stop offset="20%"   stop-color= "#94ffab" stop-opacity="1"/>
   <stop offset="50%"   stop-color= "#fbfd54" stop-opacity="1"/>
   <stop offset="100%"  stop-color= "#0f83ae" stop-opacity="1"/>
  </linearGradient>
 </defs>
 <path fill="url(#oomox)" class="ColorScheme-Text" d="M 0.96289062 -0.00390625 A 0.49999 0.49998 0 0 0 0.5859375 0.77734375 C 1.9038375 2.7537438 2.4420875 6.2939469 2.8046875 9.9980469 L 0.99804688 9.9980469 L 0.99804688 11.990234 L 0.50195312 11.990234 L 0.001953125 11.990234 L 0.001953125 12.490234 L 0.001953125 12.990234 L 0.99804688 12.990234 L 0.99804688 14.996094 L 3.25 14.996094 C 3.4606 17.300194 3.7225656 19.427875 4.2597656 21.046875 C 4.5509656 21.924575 4.9217312 22.663919 5.4570312 23.199219 C 5.9922313 23.734619 6.7181031 24.036422 7.5332031 23.982422 C 9.5860031 23.845622 10.984341 22.592263 11.869141 20.914062 C 12.753941 19.235862 13.206334 17.117213 13.552734 15.007812 C 13.552734 15.005813 13.552034 14.996094 13.552734 14.996094 L 14.992188 14.996094 L 14.992188 12.990234 L 17.992188 12.990234 L 17.992188 14.996094 L 20.4375 14.996094 C 20.6657 16.504294 20.890994 18.018366 21.183594 19.384766 C 21.596794 21.313266 22.108016 22.956681 23.166016 23.863281 A 0.49977 0.49975 0 0 0 23.996094 23.5 L 23.998047 23.5 A 0.49977 0.49975 0 0 0 23.818359 23.103516 C 23.127059 22.511216 22.562863 21.037481 22.164062 19.175781 C 21.891262 17.902281 21.672772 16.455394 21.451172 14.996094 L 22.992188 14.996094 L 22.992188 12.990234 L 23.492188 12.990234 L 23.992188 12.990234 L 23.992188 11.990234 L 23.492188 11.990234 L 22.992188 11.990234 L 22.992188 9.9980469 L 20.533203 9.9980469 C 20.288103 9.0470469 19.990069 8.1791719 19.605469 7.4511719 C 19.224869 6.7308719 18.750141 6.1336781 18.119141 5.7675781 C 17.488241 5.4015781 16.7123 5.3005656 15.875 5.5097656 C 15.2161 5.6744656 14.718528 6.1548656 14.361328 6.7597656 C 14.004028 7.3645656 13.756081 8.1136906 13.550781 8.9628906 C 13.471781 9.2899906 13.403937 9.6436469 13.335938 9.9980469 L 9.9960938 9.9980469 L 9.9960938 11.990234 L 5.9960938 11.990234 L 5.9960938 9.9980469 L 3.8320312 9.9980469 C 3.4946313 6.2390469 2.9695687 2.5493563 1.4179688 0.22265625 A 0.49999 0.49998 0 0 0 0.96289062 -0.00390625 z M 16.560547 6.4042969 C 16.976478 6.3692766 17.309384 6.4553625 17.615234 6.6328125 C 18.023034 6.8694125 18.39335 7.3020687 18.71875 7.9179688 C 19.01595 8.4804688 19.263422 9.1992469 19.482422 9.9980469 L 17.992188 9.9980469 L 17.992188 11.990234 L 14.992188 11.990234 L 14.992188 9.9980469 L 14.353516 9.9980469 C 14.407316 9.7266469 14.459531 9.4458656 14.519531 9.1972656 C 14.712431 8.3992656 14.94545 7.7303781 15.21875 7.2675781 C 15.49205 6.8048781 15.774634 6.5654688 16.115234 6.4804688 C 16.274584 6.4406437 16.421903 6.4159703 16.560547 6.4042969 z M 5.9941406 12.990234 L 9.9941406 12.990234 L 9.9941406 14.996094 L 12.537109 14.996094 C 12.199109 17.018494 11.751575 18.992166 10.984375 20.447266 C 10.198075 21.938666 9.1603437 22.871375 7.4648438 22.984375 C 6.9085438 23.021475 6.5291094 22.861341 6.1621094 22.494141 C 5.7951094 22.127041 5.4677781 21.523922 5.2050781 20.732422 C 4.7270781 19.291922 4.4630063 17.244394 4.2539062 14.996094 L 5.9941406 14.996094 L 5.9941406 12.990234 z"/>
</svg>
