<?xml version="1.0" encoding="UTF-8"?>
<svg xmlns="http://www.w3.org/2000/svg" xmlns:xlink="http://www.w3.org/1999/xlink" width="28" height="28" viewBox="0 0 28 28" version="1.1">
<g id="surface1">
<path style=" stroke:none;fill-rule:nonzero;fill:rgb(100%,100%,100%);fill-opacity:1;" d="M 13.863281 1.1875 C 13.410156 1.300781 13.070312 1.675781 13.007812 2.140625 C 13.007812 2.15625 13.007812 2.171875 13.007812 2.191406 C 12.992188 2.207031 12.972656 2.222656 12.957031 2.238281 C 12.957031 2.273438 12.957031 2.308594 12.957031 2.339844 C 12.929688 2.421875 12.914062 2.507812 12.910156 2.589844 L 12.957031 11.273438 L 10.046875 8.3125 C 9.792969 7.941406 9.34375 7.757812 8.898438 7.84375 C 8.457031 7.925781 8.109375 8.265625 8.011719 8.707031 C 7.910156 9.144531 8.078125 9.601562 8.441406 9.867188 L 12.507812 13.980469 L 8.441406 18.046875 C 8 18.488281 8 19.210938 8.441406 19.652344 C 8.886719 20.09375 9.605469 20.09375 10.046875 19.652344 L 13.007812 16.640625 L 13.058594 25.320312 C 13.066406 25.390625 13.082031 25.457031 13.109375 25.519531 C 13.109375 25.539062 13.109375 25.554688 13.109375 25.574219 C 13.054688 26.046875 13.304688 26.5 13.730469 26.710938 C 14.15625 26.925781 14.671875 26.851562 15.015625 26.527344 L 20.636719 20.503906 C 21.035156 20.054688 21.011719 19.375 20.585938 18.949219 L 15.667969 13.980469 L 20.585938 8.964844 C 21.011719 8.539062 21.035156 7.859375 20.636719 7.40625 L 14.914062 1.539062 C 14.648438 1.246094 14.25 1.113281 13.863281 1.1875 Z M 14.515625 4.347656 L 18.226562 8.160156 L 14.566406 11.875 Z M 14.617188 16.140625 L 18.226562 19.75 L 14.664062 23.566406 Z M 14.617188 16.140625 "/>
</g>
</svg>
