<?xml version="1.0" encoding="UTF-8"?>
<svg xmlns="http://www.w3.org/2000/svg" xmlns:xlink="http://www.w3.org/1999/xlink" width="28" height="28" viewBox="0 0 28 28" version="1.1">
<g id="surface1">
<path style=" stroke:none;fill-rule:nonzero;fill:rgb(100%,100%,100%);fill-opacity:1;" d="M 13.144531 1.167969 C 11.761719 1.363281 11.039062 2.90625 11.210938 4.191406 C 11.21875 5.699219 11.238281 7.207031 11.246094 8.714844 C 10.578125 8.027344 9.890625 7.101562 8.808594 7.214844 C 7.445312 7.238281 6.335938 8.691406 6.800781 10 C 7.238281 11.054688 8.207031 11.714844 8.945312 12.542969 C 9.417969 13.019531 9.894531 13.5 10.371094 13.980469 C 9.308594 15.089844 8.144531 16.121094 7.144531 17.277344 C 6.253906 18.535156 7.226562 20.558594 8.785156 20.597656 C 9.832031 20.789062 10.683594 19.890625 11.320312 19.160156 C 11.351562 21.105469 11.277344 23.0625 11.394531 25.007812 C 11.597656 26.304688 13.117188 27.21875 14.316406 26.671875 C 15.371094 26.238281 15.9375 25.171875 16.753906 24.4375 C 18 23.078125 19.308594 21.742188 20.5 20.347656 C 21.171875 19.269531 20.609375 17.898438 19.667969 17.1875 C 18.605469 16.113281 17.542969 15.039062 16.480469 13.964844 C 17.78125 12.613281 19.144531 11.300781 20.398438 9.917969 C 21.257812 8.796875 20.59375 7.296875 19.574219 6.550781 C 17.933594 4.890625 16.34375 3.179688 14.671875 1.554688 C 14.234375 1.234375 13.675781 1.128906 13.144531 1.167969 Z M 13.214844 1.914062 C 14.476562 1.796875 15.046875 3.191406 15.90625 3.859375 C 17.191406 5.210938 18.546875 6.503906 19.792969 7.882812 C 20.472656 8.839844 19.632812 9.800781 18.910156 10.410156 C 17.753906 11.601562 16.585938 12.777344 15.421875 13.964844 C 16.867188 15.382812 18.285156 16.859375 19.699219 18.285156 C 20.484375 19.1875 19.792969 20.285156 19.023438 20.902344 C 17.546875 22.480469 16.085938 24.050781 14.636719 25.613281 C 14.019531 26.273438 12.871094 26.230469 12.382812 25.425781 C 11.851562 24.507812 12.183594 23.378906 12.078125 22.367188 C 12.074219 21.023438 12.078125 19.679688 12.066406 18.339844 C 11.273438 17.300781 10.480469 19.335938 9.703125 19.660156 C 8.839844 20.28125 7.558594 19.527344 7.566406 18.484375 C 7.550781 17.414062 8.683594 16.890625 9.265625 16.136719 C 9.984375 15.417969 10.699219 14.699219 11.410156 13.980469 C 10.191406 12.691406 8.898438 11.464844 7.699219 10.164062 C 6.972656 9.214844 7.972656 7.785156 9.113281 7.976562 C 10.085938 8.25 10.59375 9.273438 11.355469 9.878906 C 11.546875 9.972656 12.007812 10.710938 11.996094 10.324219 C 12 8.035156 11.945312 5.742188 11.96875 3.453125 C 12.039062 2.765625 12.46875 2.007812 13.214844 1.914062 Z M 14.21875 6.179688 C 14.214844 7.820312 14.238281 9.460938 14.238281 11.101562 C 15.046875 10.300781 15.839844 9.480469 16.644531 8.675781 C 15.847656 7.832031 15.003906 7.035156 14.21875 6.179688 Z M 14.964844 8.019531 C 15.09375 8.277344 15.75 8.527344 15.480469 8.785156 C 15.125 9.210938 14.828125 9.496094 14.976562 8.660156 C 14.96875 8.445312 14.964844 8.234375 14.964844 8.019531 Z M 14.308594 16.898438 C 14.308594 18.503906 14.308594 20.105469 14.308594 21.710938 C 15.085938 20.886719 15.871094 20.074219 16.644531 19.25 C 15.863281 18.46875 15.09375 17.675781 14.308594 16.898438 Z M 15.074219 18.738281 C 15.273438 18.996094 15.824219 19.242188 15.347656 19.507812 C 15 20.070312 15.070312 19.535156 15.074219 19.171875 C 15.074219 19.027344 15.074219 18.882812 15.074219 18.738281 Z M 15.074219 18.738281 "/>
</g>
</svg>
