<?xml version="1.0" encoding="UTF-8"?>
<svg xmlns="http://www.w3.org/2000/svg" xmlns:xlink="http://www.w3.org/1999/xlink" width="28" height="28" viewBox="0 0 28 28" version="1.1">
<g id="surface1">
<path style=" stroke:none;fill-rule:evenodd;fill:rgb(100%,100%,100%);fill-opacity:1;" d="M 21 0 L 21 26.25 L 26.25 26.25 L 26.25 0 Z M 21 0 "/>
<path style=" stroke:none;fill-rule:evenodd;fill:rgb(100%,100%,100%);fill-opacity:1;" d="M 14 5.25 L 14 26.25 L 19.25 26.25 L 19.25 5.25 Z M 14 5.25 "/>
<path style=" stroke:none;fill-rule:evenodd;fill:rgb(100%,100%,100%);fill-opacity:1;" d="M 7 10.5 L 7 26.25 L 12.25 26.25 L 12.25 10.5 Z M 7 10.5 "/>
<path style=" stroke:none;fill-rule:evenodd;fill:rgb(100%,100%,100%);fill-opacity:1;" d="M 0 15.75 L 0 26.25 L 5.25 26.25 L 5.25 15.75 Z M 0 15.75 "/>
</g>
</svg>
