<?xml version="1.0" encoding="UTF-8"?>
<svg xmlns="http://www.w3.org/2000/svg" xmlns:xlink="http://www.w3.org/1999/xlink" width="28" height="28" viewBox="0 0 28 28" version="1.1">
<g id="surface1">
<path style=" stroke:none;fill-rule:nonzero;fill:rgb(50.196078%,50.196078%,50.196078%);fill-opacity:1;" d="M 16.640625 0.0703125 C 14.414062 0.0703125 12.605469 1.773438 12.359375 3.953125 C 11.792969 3.738281 11.210938 3.570312 10.570312 3.570312 C 7.695312 3.570312 5.363281 5.921875 5.363281 8.820312 C 5.363281 8.992188 5.402344 9.144531 5.417969 9.3125 C 4.898438 9 4.277344 8.820312 3.628906 8.820312 C 1.710938 8.820312 0.15625 10.386719 0.15625 12.320312 C 0.15625 14.253906 1.585938 15.742188 3.5 15.742188 L 12.25 15.742188 L 12.25 13.117188 C 12.222656 11.742188 13.542969 10.542969 14.90625 10.515625 C 16.304688 10.484375 17.53125 11.707031 17.5 13.117188 L 17.5 15.742188 L 25.375 15.742188 C 26.8125 15.742188 27.921875 14.644531 27.921875 13.195312 C 27.921875 11.746094 26.757812 10.570312 25.320312 10.570312 C 24.960938 10.570312 24.601562 10.65625 24.289062 10.789062 C 24.378906 10.4375 24.453125 10.078125 24.453125 9.695312 C 24.453125 7.542969 22.902344 5.796875 20.871094 5.429688 C 20.945312 5.113281 20.980469 4.785156 20.980469 4.445312 C 20.980469 2.03125 19.039062 0.0703125 16.644531 0.0703125 Z M 16.640625 0.0703125 "/>
<path style=" stroke:none;fill-rule:nonzero;fill:rgb(74.509804%,74.509804%,74.509804%);fill-opacity:1;" d="M 14.71875 12.25 C 14.296875 12.328125 13.992188 12.695312 14 13.125 L 14 17.5 L 8.75 17.5 L 8.75 19.25 L 5.742188 19.25 L 5.523438 19.523438 L 1.148438 23.898438 C 0.839844 24.089844 0.683594 24.445312 0.75 24.800781 C 0.816406 25.15625 1.09375 25.433594 1.449219 25.5 C 1.804688 25.566406 2.160156 25.410156 2.351562 25.101562 L 6.445312 20.988281 L 8.738281 20.988281 L 8.738281 26.238281 C 8.738281 26.722656 9.132812 27.113281 9.613281 27.113281 C 10.097656 27.113281 10.488281 26.722656 10.488281 26.238281 L 10.488281 20.332031 C 10.515625 20.207031 10.515625 20.078125 10.488281 19.949219 L 10.488281 19.25 L 13.988281 19.25 L 13.988281 20.507812 L 14.261719 20.726562 L 17.484375 23.964844 L 17.484375 26.257812 C 17.484375 26.738281 17.875 27.132812 18.359375 27.132812 C 18.839844 27.132812 19.234375 26.738281 19.234375 26.257812 L 19.234375 24.507812 L 21.585938 24.507812 L 25.796875 27.023438 C 26.21875 27.261719 26.757812 27.117188 27 26.695312 C 27.238281 26.269531 27.09375 25.730469 26.671875 25.492188 L 22.296875 22.867188 L 22.078125 22.757812 L 18.6875 22.757812 L 15.734375 19.804688 L 15.734375 18.601562 C 15.761719 18.472656 15.761719 18.34375 15.734375 18.21875 L 15.734375 13.140625 C 15.738281 12.878906 15.625 12.625 15.421875 12.457031 C 15.21875 12.289062 14.953125 12.21875 14.695312 12.265625 Z M 14.71875 12.25 "/>
<path style=" stroke:none;fill-rule:nonzero;fill:rgb(100%,100%,0%);fill-opacity:1;" d="M 18.171875 27.097656 C 17.996094 27.054688 17.800781 26.9375 17.695312 26.808594 C 17.503906 26.574219 17.496094 26.515625 17.496094 25.167969 L 17.496094 23.945312 L 15.746094 22.203125 L 14 20.457031 L 14 19.25 L 10.476562 19.25 L 10.472656 22.832031 L 10.472656 26.417969 L 10.394531 26.582031 C 10.238281 26.921875 9.992188 27.078125 9.613281 27.078125 C 9.25 27.078125 8.992188 26.925781 8.839844 26.613281 C 8.777344 26.492188 8.773438 26.371094 8.757812 23.734375 L 8.742188 20.980469 L 7.601562 20.972656 L 6.464844 20.960938 L 4.246094 23.1875 C 2.566406 24.867188 1.996094 25.421875 1.90625 25.453125 C 1.839844 25.476562 1.695312 25.492188 1.585938 25.492188 C 1.347656 25.492188 1.09375 25.371094 0.9375 25.183594 C 0.746094 24.949219 0.695312 24.535156 0.835938 24.273438 C 0.867188 24.210938 2 23.054688 3.351562 21.703125 L 5.804688 19.25 L 8.757812 19.25 L 8.757812 17.5 L 14 17.5 L 14.007812 15.203125 C 14.019531 12.65625 14.003906 12.800781 14.234375 12.539062 C 14.371094 12.386719 14.628906 12.261719 14.808594 12.257812 C 15.167969 12.257812 15.511719 12.472656 15.644531 12.785156 C 15.714844 12.945312 15.714844 12.964844 15.714844 16.367188 L 15.714844 19.792969 L 18.699219 22.777344 L 20.390625 22.777344 C 22.046875 22.777344 22.082031 22.777344 22.21875 22.847656 C 22.542969 23.011719 26.71875 25.53125 26.820312 25.625 C 27.054688 25.839844 27.148438 26.214844 27.050781 26.542969 C 27 26.707031 26.789062 26.945312 26.617188 27.035156 C 26.441406 27.125 26.15625 27.148438 25.984375 27.089844 C 25.910156 27.0625 24.890625 26.46875 23.714844 25.765625 L 21.578125 24.492188 L 19.210938 24.492188 L 19.210938 25.472656 C 19.210938 26.433594 19.207031 26.457031 19.132812 26.617188 C 18.960938 26.980469 18.546875 27.1875 18.171875 27.097656 Z M 18.171875 27.097656 "/>
</g>
</svg>
