<?xml version="1.0" encoding="UTF-8"?>
<svg xmlns="http://www.w3.org/2000/svg" xmlns:xlink="http://www.w3.org/1999/xlink" width="256" height="256" viewBox="0 0 256 256" version="1.1">
<g id="surface1">
<path style=" stroke:none;fill-rule:nonzero;fill:rgb(100%,100%,100%);fill-opacity:1;" d="M 225.28125 206.5625 C 225.15625 205.882812 224.984375 205.210938 224.78125 204.5625 C 223.109375 197.109375 216.40625 191.875 208.78125 192.0625 L 181.78125 192.0625 C 191.023438 185.945312 199.09375 178.46875 205.78125 169.5625 C 219.648438 151.070312 225.8125 129.046875 224.78125 107.5625 C 224.632812 104.492188 224.210938 101.601562 223.78125 98.5625 C 220.296875 74.203125 207.40625 50.914062 186.273438 35.0625 C 144.015625 3.359375 83.476562 12.296875 51.78125 54.5625 C 20.078125 96.828125 29.015625 157.359375 71.28125 189.0625 C 74.046875 191.039062 77.375 192.09375 80.78125 192.0625 C 81.609375 192.125 82.445312 192.125 83.28125 192.0625 L 96.78125 192.0625 L 96.78125 177.5625 C 96.804688 177.0625 96.796875 176.5625 96.773438 176.0625 C 96.804688 170.9375 94.390625 166.109375 90.273438 163.0625 C 61.851562 141.734375 56.453125 101.984375 77.773438 73.5625 C 99.101562 45.132812 138.851562 39.734375 167.28125 61.0625 C 195.703125 82.382812 201.101562 122.132812 179.78125 150.554688 C 174.625 157.429688 168.046875 162.875 160.78125 167.054688 L 160.78125 144.054688 C 160.773438 135.21875 153.617188 128.054688 144.78125 128.054688 C 143.617188 127.929688 142.4375 127.929688 141.28125 128.054688 L 128.78125 128.054688 L 128.78125 224.054688 L 208.78125 224.054688 C 209.773438 224.148438 210.78125 224.148438 211.78125 224.054688 L 224.773438 224.054688 L 224.773438 211.054688 C 225.15625 209.585938 225.328125 208.070312 225.28125 206.554688 Z M 225.28125 206.5625 "/>
</g>
</svg>
