<?xml version="1.0" encoding="UTF-8"?>
<svg xmlns="http://www.w3.org/2000/svg" xmlns:xlink="http://www.w3.org/1999/xlink" width="32" height="32" viewBox="0 0 32 32" version="1.1">
<g id="surface1">
<path style=" stroke:none;fill-rule:nonzero;fill:rgb(100%,100%,100%);fill-opacity:1;" d="M 10.832031 5.917969 C 7.789062 5.917969 5.605469 7.75 5.605469 10.730469 L 5.605469 13.332031 L 4.75 13.332031 C 3.878906 13.332031 3.4375 13.773438 3.4375 14.644531 L 3.4375 22.0625 C 3.4375 22.492188 3.878906 23.375 4.75 23.375 L 6.644531 23.375 C 6.949219 24.339844 7.894531 24.992188 8.9375 24.875 C 9.808594 24.777344 10.5 24.160156 10.75 23.375 L 17.519531 23.375 C 18.222656 23.371094 18.667969 22.492188 18.667969 22.0625 L 18.667969 14.644531 C 18.667969 13.773438 18.222656 13.332031 17.355469 13.332031 L 16.480469 13.332031 L 16.480469 10.730469 C 16.480469 7.671875 14.316406 5.917969 11.269531 5.917969 Z M 10.832031 8.105469 L 11.269531 8.105469 C 14.316406 8.105469 14.3125 10.710938 14.3125 11.582031 L 14.3125 13.332031 L 7.792969 13.332031 L 7.792969 11.582031 C 7.792969 10.710938 7.789062 8.105469 10.832031 8.105469 Z M 22.5625 25.375 C 21.984375 25.375 21.519531 25.839844 21.519531 26.417969 C 21.519531 26.992188 21.984375 27.457031 22.5625 27.457031 C 23.140625 27.457031 23.625 26.992188 23.625 26.417969 C 23.625 25.839844 23.140625 25.375 22.5625 25.375 Z M 14.6875 26.6875 C 13.851562 26.78125 13.257812 27.542969 13.355469 28.375 C 13.449219 29.207031 14.207031 29.804688 15.042969 29.707031 C 15.875 29.613281 16.46875 28.855469 16.375 28.019531 C 16.28125 27.1875 15.519531 26.59375 14.6875 26.6875 Z M 14.6875 26.6875 "/>
</g>
</svg>
