<svg xmlns="http://www.w3.org/2000/svg" width="16" height="16" version="1.1">
 <defs>
   <style id="current-color-scheme" type="text/css">
   .ColorScheme-Text { color: #e9ecf2; } .ColorScheme-Highlight { color:#5294e2; }
  </style>
  <linearGradient id="arrongin" x1="0%" x2="0%" y1="0%" y2="100%">
   <stop offset="0%" style="stop-color:#dd9b44; stop-opacity:1"/>
   <stop offset="100%" style="stop-color:#ad6c16; stop-opacity:1"/>
  </linearGradient>
  <linearGradient id="aurora" x1="0%" x2="0%" y1="0%" y2="100%">
   <stop offset="0%" style="stop-color:#09D4DF; stop-opacity:1"/>
   <stop offset="100%" style="stop-color:#9269F4; stop-opacity:1"/>
  </linearGradient>
  <linearGradient id="cyberneon" x1="0%" x2="0%" y1="0%" y2="100%">
    <stop offset="0" style="stop-color:#0abdc6; stop-opacity:1"/>
    <stop offset="1" style="stop-color:#ea00d9; stop-opacity:1"/>
  </linearGradient>
  <linearGradient id="fitdance" x1="0%" x2="0%" y1="0%" y2="100%">
   <stop offset="0%" style="stop-color:#1AD6AB; stop-opacity:1"/>
   <stop offset="100%" style="stop-color:#329DB6; stop-opacity:1"/>
  </linearGradient>
  <linearGradient id="oomox" x1="0%" x2="0%" y1="0%" y2="100%">
   <stop offset="0%" style="stop-color:#89f224; stop-opacity:1"/>
   <stop offset="100%" style="stop-color:#579916; stop-opacity:1"/>
  </linearGradient>
  <linearGradient id="rainblue" x1="0%" x2="0%" y1="0%" y2="100%">
   <stop offset="0%" style="stop-color:#00F260; stop-opacity:1"/>
   <stop offset="100%" style="stop-color:#0575E6; stop-opacity:1"/>
  </linearGradient>
  <linearGradient id="sunrise" x1="0%" x2="0%" y1="0%" y2="100%">
   <stop offset="0%" style="stop-color: #FF8501; stop-opacity:1"/>
   <stop offset="100%" style="stop-color: #FFCB01; stop-opacity:1"/>
  </linearGradient>
  <linearGradient id="telinkrin" x1="0%" x2="0%" y1="0%" y2="100%">
   <stop offset="0%" style="stop-color: #b2ced6; stop-opacity:1"/>
   <stop offset="100%" style="stop-color: #6da5b7; stop-opacity:1"/>
  </linearGradient>
  <linearGradient id="60spsycho" x1="0%" x2="0%" y1="0%" y2="100%">
   <stop offset="0%" style="stop-color: #df5940; stop-opacity:1"/>
   <stop offset="25%" style="stop-color: #d8d15f; stop-opacity:1"/>
   <stop offset="50%" style="stop-color: #e9882a; stop-opacity:1"/>
   <stop offset="100%" style="stop-color: #279362; stop-opacity:1"/>
  </linearGradient>
  <linearGradient id="90ssummer" x1="0%" x2="0%" y1="0%" y2="100%">
   <stop offset="0%" style="stop-color: #f618c7; stop-opacity:1"/>
   <stop offset="20%" style="stop-color: #94ffab; stop-opacity:1"/>
   <stop offset="50%" style="stop-color: #fbfd54; stop-opacity:1"/>
   <stop offset="100%" style="stop-color: #0f83ae; stop-opacity:1"/>
  </linearGradient>
 </defs>
 <g transform="matrix(1.1388265,0,0,1.1250045,-858.67541,366.8764)">
  <path fill="url(#oomox)" class="ColorScheme-Text" d="M 761.00024,-325.66661 757.5002,-322 h -2.62963 c 0,0 -0.87037,0.89308 -0.87037,3.00138 0,2.10835 0.87037,2.99862 0.87037,2.99862 h 2.62963 l 3.50004,3.66667 z"/>
  <path fill="url(#oomox)" class="ColorScheme-Text" d="m 763.52436,-322.07399 -0.70703,0.70703 0.35351,0.35352 c 0.56275,0.56274 0.87891,1.32525 0.87891,2.12109 0,0.79584 -0.31616,1.55835 -0.87891,2.12109 l -0.35351,0.35352 0.70703,0.70703 0.35351,-0.35352 c 0.75001,-0.75 1.17188,-1.76745 1.17188,-2.82812 0,-1.06067 -0.42187,-2.07812 -1.17188,-2.82812 z"/>
  <path fill="url(#oomox)" class="ColorScheme-Text" d="m 765.64545,-324.19508 -0.70703,0.70703 0.35352,0.35351 c 1.12535,1.12536 1.75781,2.6507 1.75781,4.24219 0,1.59149 -0.63246,3.11683 -1.75781,4.24219 l -0.35352,0.35351 0.70703,0.70703 0.35352,-0.35351 c 1.31262,-1.31262 2.05078,-3.0929 2.05078,-4.94922 0,-1.85632 -0.73816,-3.6366 -2.05078,-4.94922 z"/>
 </g>
</svg>
