<svg xmlns="http://www.w3.org/2000/svg" width="16" height="16" version="1.1">
 <defs>
   <style id="current-color-scheme" type="text/css">
   .ColorScheme-Text { color: #e9ecf2; } .ColorScheme-Highlight { color:#5294e2; }
  </style>
  <linearGradient id="arrongin" x1="0%" x2="0%" y1="0%" y2="100%">
   <stop offset="0%" style="stop-color:#dd9b44; stop-opacity:1"/>
   <stop offset="100%" style="stop-color:#ad6c16; stop-opacity:1"/>
  </linearGradient>
  <linearGradient id="aurora" x1="0%" x2="0%" y1="0%" y2="100%">
   <stop offset="0%" style="stop-color:#09D4DF; stop-opacity:1"/>
   <stop offset="100%" style="stop-color:#9269F4; stop-opacity:1"/>
  </linearGradient>
  <linearGradient id="cyberneon" x1="0%" x2="0%" y1="0%" y2="100%">
    <stop offset="0" style="stop-color:#0abdc6; stop-opacity:1"/>
    <stop offset="1" style="stop-color:#ea00d9; stop-opacity:1"/>
  </linearGradient>
  <linearGradient id="fitdance" x1="0%" x2="0%" y1="0%" y2="100%">
   <stop offset="0%" style="stop-color:#1AD6AB; stop-opacity:1"/>
   <stop offset="100%" style="stop-color:#329DB6; stop-opacity:1"/>
  </linearGradient>
  <linearGradient id="oomox" x1="0%" x2="0%" y1="0%" y2="100%">
   <stop offset="0%" style="stop-color:#89f224; stop-opacity:1"/>
   <stop offset="100%" style="stop-color:#579916; stop-opacity:1"/>
  </linearGradient>
  <linearGradient id="rainblue" x1="0%" x2="0%" y1="0%" y2="100%">
   <stop offset="0%" style="stop-color:#00F260; stop-opacity:1"/>
   <stop offset="100%" style="stop-color:#0575E6; stop-opacity:1"/>
  </linearGradient>
  <linearGradient id="sunrise" x1="0%" x2="0%" y1="0%" y2="100%">
   <stop offset="0%" style="stop-color: #FF8501; stop-opacity:1"/>
   <stop offset="100%" style="stop-color: #FFCB01; stop-opacity:1"/>
  </linearGradient>
  <linearGradient id="telinkrin" x1="0%" x2="0%" y1="0%" y2="100%">
   <stop offset="0%" style="stop-color: #b2ced6; stop-opacity:1"/>
   <stop offset="100%" style="stop-color: #6da5b7; stop-opacity:1"/>
  </linearGradient>
  <linearGradient id="60spsycho" x1="0%" x2="0%" y1="0%" y2="100%">
   <stop offset="0%" style="stop-color: #df5940; stop-opacity:1"/>
   <stop offset="25%" style="stop-color: #d8d15f; stop-opacity:1"/>
   <stop offset="50%" style="stop-color: #e9882a; stop-opacity:1"/>
   <stop offset="100%" style="stop-color: #279362; stop-opacity:1"/>
  </linearGradient>
  <linearGradient id="90ssummer" x1="0%" x2="0%" y1="0%" y2="100%">
   <stop offset="0%" style="stop-color: #f618c7; stop-opacity:1"/>
   <stop offset="20%" style="stop-color: #94ffab; stop-opacity:1"/>
   <stop offset="50%" style="stop-color: #fbfd54; stop-opacity:1"/>
   <stop offset="100%" style="stop-color: #0f83ae; stop-opacity:1"/>
  </linearGradient>
 </defs>
 <path fill="url(#oomox)" class="ColorScheme-Text" fill-rule="evenodd" d="M 11.668 6.524 C 11.518 6.524 11.368 6.581 11.252 6.697 C 11.022 6.927 11.022 7.298 11.252 7.528 L 12.708 8.984 L 11.252 10.439 C 11.022 10.669 11.022 11.041 11.252 11.272 C 11.483 11.502 11.855 11.502 12.085 11.272 L 13.54 9.816 L 14.996 11.272 C 15.226 11.502 15.597 11.502 15.827 11.272 C 16.058 11.041 16.058 10.669 15.827 10.439 L 14.372 8.984 L 15.827 7.528 C 16.058 7.298 16.058 6.927 15.827 6.697 C 15.597 6.466 15.226 6.466 14.996 6.697 L 13.541 8.152 L 12.085 6.697 C 11.97 6.582 11.819 6.524 11.668 6.524 L 11.668 6.524 L 11.668 6.524 Z M 8.004 7.508 C 8.82 7.508 9.481 8.169 9.481 8.984 C 9.481 9.799 8.82 10.46 8.004 10.46 C 7.189 10.46 6.528 9.799 6.528 8.984 C 6.528 8.169 7.189 7.508 8.004 7.508 L 8.004 7.508 L 8.004 7.508 Z M 8.004 6.524 C 6.646 6.524 5.544 7.625 5.544 8.984 C 5.544 10.343 6.646 11.444 8.004 11.444 C 9.363 11.444 10.465 10.343 10.465 8.984 C 10.465 7.625 9.363 6.524 8.004 6.524 L 8.004 6.524 L 8.004 6.524 Z M 2.469 7.508 C 3.284 7.508 3.945 8.169 3.945 8.984 C 3.945 9.799 3.284 10.46 2.469 10.46 C 1.654 10.46 0.993 9.799 0.993 8.984 C 0.993 8.169 1.654 7.508 2.469 7.508 L 2.469 7.508 Z M 0.501 4.556 C 0.228 4.556 0.009 4.775 0.009 5.048 C -0.026 6.345 0.055 7.715 0.009 8.984 C 0.009 10.343 1.11 11.444 2.469 11.444 C 3.828 11.444 4.929 10.343 4.929 8.984 C 4.929 7.625 3.828 6.524 2.469 6.524 C 1.936 6.525 1.418 6.699 0.993 7.02 L 0.993 5.048 C 0.993 4.775 0.774 4.556 0.501 4.556 L 0.501 4.556 L 0.501 4.556 Z"/>
</svg>
