<svg xmlns="http://www.w3.org/2000/svg" width="16" height="16" version="1.1">
 <defs>
   <style id="current-color-scheme" type="text/css">
   .ColorScheme-Text { color: #e9ecf2; } .ColorScheme-Highlight { color:#5294e2; }
  </style>
  <linearGradient id="arrongin" x1="0%" x2="0%" y1="0%" y2="100%">
   <stop offset="0%" style="stop-color:#dd9b44; stop-opacity:1"/>
   <stop offset="100%" style="stop-color:#ad6c16; stop-opacity:1"/>
  </linearGradient>
  <linearGradient id="aurora" x1="0%" x2="0%" y1="0%" y2="100%">
   <stop offset="0%" style="stop-color:#09D4DF; stop-opacity:1"/>
   <stop offset="100%" style="stop-color:#9269F4; stop-opacity:1"/>
  </linearGradient>
  <linearGradient id="cyberneon" x1="0%" x2="0%" y1="0%" y2="100%">
    <stop offset="0" style="stop-color:#0abdc6; stop-opacity:1"/>
    <stop offset="1" style="stop-color:#ea00d9; stop-opacity:1"/>
  </linearGradient>
  <linearGradient id="fitdance" x1="0%" x2="0%" y1="0%" y2="100%">
   <stop offset="0%" style="stop-color:#1AD6AB; stop-opacity:1"/>
   <stop offset="100%" style="stop-color:#329DB6; stop-opacity:1"/>
  </linearGradient>
  <linearGradient id="oomox" x1="0%" x2="0%" y1="0%" y2="100%">
   <stop offset="0%" style="stop-color:#89f224; stop-opacity:1"/>
   <stop offset="100%" style="stop-color:#579916; stop-opacity:1"/>
  </linearGradient>
  <linearGradient id="rainblue" x1="0%" x2="0%" y1="0%" y2="100%">
   <stop offset="0%" style="stop-color:#00F260; stop-opacity:1"/>
   <stop offset="100%" style="stop-color:#0575E6; stop-opacity:1"/>
  </linearGradient>
  <linearGradient id="sunrise" x1="0%" x2="0%" y1="0%" y2="100%">
   <stop offset="0%" style="stop-color: #FF8501; stop-opacity:1"/>
   <stop offset="100%" style="stop-color: #FFCB01; stop-opacity:1"/>
  </linearGradient>
  <linearGradient id="telinkrin" x1="0%" x2="0%" y1="0%" y2="100%">
   <stop offset="0%" style="stop-color: #b2ced6; stop-opacity:1"/>
   <stop offset="100%" style="stop-color: #6da5b7; stop-opacity:1"/>
  </linearGradient>
  <linearGradient id="60spsycho" x1="0%" x2="0%" y1="0%" y2="100%">
   <stop offset="0%" style="stop-color: #df5940; stop-opacity:1"/>
   <stop offset="25%" style="stop-color: #d8d15f; stop-opacity:1"/>
   <stop offset="50%" style="stop-color: #e9882a; stop-opacity:1"/>
   <stop offset="100%" style="stop-color: #279362; stop-opacity:1"/>
  </linearGradient>
  <linearGradient id="90ssummer" x1="0%" x2="0%" y1="0%" y2="100%">
   <stop offset="0%" style="stop-color: #f618c7; stop-opacity:1"/>
   <stop offset="20%" style="stop-color: #94ffab; stop-opacity:1"/>
   <stop offset="50%" style="stop-color: #fbfd54; stop-opacity:1"/>
   <stop offset="100%" style="stop-color: #0f83ae; stop-opacity:1"/>
  </linearGradient>
 </defs>
 <path fill="url(#oomox)" class="ColorScheme-Text" fill-rule="evenodd" d="M 9.614 8.252 C 9.695 7.664 10.113 7.205 10.547 7.229 C 10.981 7.252 11.267 7.748 11.186 8.337 C 11.105 8.925 10.687 9.384 10.253 9.361 C 9.819 9.337 9.533 8.841 9.614 8.252 L 9.614 8.252 Z M 14.291 9.956 L 14.291 9.956 C 13.748 9.825 13.02 10.085 12.679 10.233 C 12.249 10.42 12.093 10.396 11.868 10.428 C 11.82 10.435 11.774 10.44 11.729 10.444 L 11.49 10.444 C 11.163 10.415 10.829 10.264 10.134 9.915 C 9.714 9.711 9.245 9.496 8.772 9.41 C 8.575 8.786 8.505 7.921 8.589 7.19 C 8.814 6.028 9.367 5.24 10.451 5.11 C 10.516 5.102 10.581 5.101 10.647 5.105 L 10.647 5.105 C 11.108 5.134 11.58 5.445 11.914 5.857 C 12.189 6.197 12.367 6.594 12.466 7.092 C 12.505 7.286 12.526 7.28 12.547 7.633 C 12.611 8.709 12.73 9.166 12.935 9.296 C 13.013 9.345 13.058 9.334 13.138 9.246 C 13.367 8.886 13.516 8.554 13.828 7.902 C 13.869 7.795 13.948 7.626 14.081 7.36 C 14.114 7.277 14.197 7.104 14.289 6.913 C 14.637 6.336 14.91 6.095 15.106 6.195 C 15.129 6.206 15.163 6.237 15.181 6.262 C 15.483 6.67 15.51 8.285 15.166 9.41 C 15.03 9.429 14.878 9.494 14.726 9.587 C 14.554 9.693 14.426 9.801 14.291 9.956 L 14.291 9.956 L 14.291 9.956 Z M 15.195 9.406 C 15.495 8.806 15.703 8.153 15.862 7.519 C 15.952 7.145 15.991 6.886 15.999 6.597 C 16.008 6.256 15.974 6.063 15.866 5.844 C 15.814 5.739 15.793 5.708 15.725 5.64 C 15.671 5.587 15.618 5.546 15.567 5.52 C 15.484 5.476 15.35 5.437 15.284 5.437 C 15.246 5.437 15.241 5.434 15.219 5.39 L 15.196 5.342 L 15.235 5.259 C 15.429 4.843 15.399 4.268 15.457 3.605 C 15.472 3.422 15.483 3.112 15.474 3.068 C 15.466 3.022 15.471 3.024 15.252 3.001 C 14.729 2.947 14.256 2.961 13.59 3.04 L 13.396 3.063 L 13.296 2.974 C 12.764 2.504 12.115 2.141 11.449 1.819 C 10.48 1.351 9.435 1.024 8.236 0.892 C 7.838 0.848 7.421 0.826 6.991 0.825 C 5.587 0.823 4.044 1.085 2.549 1.516 C 2.122 1.639 1.469 1.857 1.437 1.888 C 1.421 1.903 1.447 1.914 1.537 1.929 C 1.77 1.966 2.112 2.072 2.368 2.185 C 3.302 2.599 4.176 3.454 4.767 4.62 C 4.876 4.834 4.959 5.019 4.959 5.046 C 4.959 5.053 4.892 5.069 4.78 5.087 C 3.651 5.271 2.58 5.769 1.598 6.834 C 1.187 7.281 0.751 7.869 0.409 8.437 C 0.178 8.821 -0.029 9.223 0.003 9.223 C 0.006 9.223 0.115 9.197 0.247 9.165 C 1.65 8.823 2.931 8.758 3.832 8.983 C 4.211 9.078 4.534 9.142 4.762 9.312 C 4.859 9.385 4.959 9.477 4.959 9.494 C 4.055 10.264 3.516 11.189 3.136 12.208 C 2.801 13.185 2.657 14.167 2.667 15.175 C 3.244 14.732 4.157 13.82 4.856 13.563 C 5.679 13.27 6.413 13.174 7.429 13.121 C 7.679 13.108 8.533 13.11 8.651 13.13 L 8.651 13.13 C 8.899 13.262 9.114 13.331 9.442 13.442 C 9.872 13.567 10.328 13.628 10.837 13.628 C 11.335 13.628 11.728 13.579 12.163 13.461 C 13.124 13.2 13.932 12.621 14.402 11.857 C 14.469 11.722 14.537 11.595 14.607 11.472 C 14.707 11.463 14.818 11.431 14.922 11.386 C 15.228 11.254 15.547 10.975 15.752 10.66 C 15.918 10.404 15.989 10.206 15.998 9.968 C 16.003 9.848 16.001 9.83 15.969 9.73 C 15.93 9.607 15.883 9.54 15.789 9.471 C 15.641 9.362 15.434 9.335 15.195 9.406 L 15.195 9.406 L 15.195 9.406 Z"/>
</svg>
