<svg xmlns="http://www.w3.org/2000/svg" width="16" height="16" version="1.1">
 <defs>
   <style id="current-color-scheme" type="text/css">
   .ColorScheme-Text { color: #e9ecf2; } .ColorScheme-Highlight { color:#5294e2; }
  </style>
  <linearGradient id="arrongin" x1="0%" x2="0%" y1="0%" y2="100%">
   <stop offset="0%" style="stop-color:#dd9b44; stop-opacity:1"/>
   <stop offset="100%" style="stop-color:#ad6c16; stop-opacity:1"/>
  </linearGradient>
  <linearGradient id="aurora" x1="0%" x2="0%" y1="0%" y2="100%">
   <stop offset="0%" style="stop-color:#09D4DF; stop-opacity:1"/>
   <stop offset="100%" style="stop-color:#9269F4; stop-opacity:1"/>
  </linearGradient>
  <linearGradient id="cyberneon" x1="0%" x2="0%" y1="0%" y2="100%">
    <stop offset="0" style="stop-color:#0abdc6; stop-opacity:1"/>
    <stop offset="1" style="stop-color:#ea00d9; stop-opacity:1"/>
  </linearGradient>
  <linearGradient id="fitdance" x1="0%" x2="0%" y1="0%" y2="100%">
   <stop offset="0%" style="stop-color:#1AD6AB; stop-opacity:1"/>
   <stop offset="100%" style="stop-color:#329DB6; stop-opacity:1"/>
  </linearGradient>
  <linearGradient id="oomox" x1="0%" x2="0%" y1="0%" y2="100%">
   <stop offset="0%" style="stop-color:#89f224; stop-opacity:1"/>
   <stop offset="100%" style="stop-color:#579916; stop-opacity:1"/>
  </linearGradient>
  <linearGradient id="rainblue" x1="0%" x2="0%" y1="0%" y2="100%">
   <stop offset="0%" style="stop-color:#00F260; stop-opacity:1"/>
   <stop offset="100%" style="stop-color:#0575E6; stop-opacity:1"/>
  </linearGradient>
  <linearGradient id="sunrise" x1="0%" x2="0%" y1="0%" y2="100%">
   <stop offset="0%" style="stop-color: #FF8501; stop-opacity:1"/>
   <stop offset="100%" style="stop-color: #FFCB01; stop-opacity:1"/>
  </linearGradient>
  <linearGradient id="telinkrin" x1="0%" x2="0%" y1="0%" y2="100%">
   <stop offset="0%" style="stop-color: #b2ced6; stop-opacity:1"/>
   <stop offset="100%" style="stop-color: #6da5b7; stop-opacity:1"/>
  </linearGradient>
  <linearGradient id="60spsycho" x1="0%" x2="0%" y1="0%" y2="100%">
   <stop offset="0%" style="stop-color: #df5940; stop-opacity:1"/>
   <stop offset="25%" style="stop-color: #d8d15f; stop-opacity:1"/>
   <stop offset="50%" style="stop-color: #e9882a; stop-opacity:1"/>
   <stop offset="100%" style="stop-color: #279362; stop-opacity:1"/>
  </linearGradient>
  <linearGradient id="90ssummer" x1="0%" x2="0%" y1="0%" y2="100%">
   <stop offset="0%" style="stop-color: #f618c7; stop-opacity:1"/>
   <stop offset="20%" style="stop-color: #94ffab; stop-opacity:1"/>
   <stop offset="50%" style="stop-color: #fbfd54; stop-opacity:1"/>
   <stop offset="100%" style="stop-color: #0f83ae; stop-opacity:1"/>
  </linearGradient>
 </defs>
 <path fill="url(#oomox)" class="ColorScheme-Text" d="m 2.1691782,15.467757 c -0.08911,-0.025 -0.190771,-0.0609 -0.22592,-0.0797 -0.120514,-0.0645 -0.335236,-0.28432 -0.398412,-0.40788 -0.151109,-0.29553 -0.144806,0.008 -0.144806,-6.9827894 0,-6.99712 -0.0065,-6.68691 0.14586,-6.98486 0.08979,-0.17560997 0.342905,-0.39367997 0.534134,-0.46017997 0.200575,-0.0697 0.582527,-0.0698 0.819476,-1.2e-4 0.103684,0.0305 0.835279,0.43088 1.85629,1.01588997 l 1.685162,0.96556 0.35882,-0.0653 c 2.434987,-0.44328 4.8987108,0.74651 6.1030078,2.94728 0.126586,0.23133 0.380021,0.82739 0.422196,0.99298 0.01526,0.0599 0.128481,0.13856 0.524875,0.36461 0.386196,0.22023 0.545211,0.32993 0.674102,0.46506 0.245423,0.2573 0.303454,0.40245 0.303482,0.7591 2e-5,0.25478 -0.01024,0.31115 -0.08395,0.46124 -0.172424,0.35109 -0.194862,0.36562 -3.353272,2.1716904 -1.6048088,0.917669 -4.1291448,2.361779 -5.6096338,3.209119 -1.493062,0.85454 -2.765247,1.56341 -2.856729,1.59179 -0.242761,0.0753 -0.561556,0.0907 -0.754686,0.0365 z m 4.927826,-3.0992 c 0.583385,-0.33497 1.065027,-0.61339 1.070315,-0.61871 0.0053,-0.005 -0.171389,-0.0106 -0.392615,-0.0118 -0.592284,-0.003 -1.074386,-0.11909 -1.593806,-0.38356 -0.988995,-0.503559 -1.693696,-1.4477394 -1.91274,-2.5627494 -0.05951,-0.3029 -0.05107,-1.03211 0.01555,-1.34434 0.186091,-0.87212 0.667232,-1.63513 1.359467,-2.15589 0.720487,-0.54201 1.606984,-0.79824 2.477673,-0.71613 0.981759,0.0926 1.824348,0.5315 2.4412958,1.2717 0.561774,0.674 0.834237,1.42527 0.835252,2.30305 8.68e-4,0.74996 -0.202287,1.41064 -0.632978,2.0585204 l -0.05839,0.0878 0.107169,-0.0573 c 0.05894,-0.0315 0.548743,-0.3105304 1.088445,-0.6200604 0.687887,-0.39451 0.986597,-0.58178 0.999073,-0.62634 0.0098,-0.035 0.03417,-0.23876 0.05419,-0.45289 0.06099,-0.65253 -0.02289,-1.32683 -0.250313,-2.01214 -1.024506,-3.08726 -4.6013938,-4.45509 -7.4544598,-2.85064 -0.815927,0.45884 -1.625542,1.30864 -2.046273,2.14784 -1.162496,2.31873 -0.432809,5.1474204 1.700816,6.5933494 0.416407,0.28219 0.945397,0.55513 1.081717,0.55812 0.02745,6.1e-4 0.527231,-0.27297 1.110616,-0.60793 z m 0.855983,-2.5906694 c 0.166767,-0.0863 0.347367,-0.26814 0.415606,-0.41839 0.05175,-0.11396 0.05669,-0.21996 0.0573,-1.23224 l 6.72e-4,-1.10755 h 0.397193 0.397192 v -0.44303 -0.44302 h -0.626344 -0.626341 v 1.08464 c 0,0.59655 -0.0051,1.08464 -0.01144,1.08464 -0.0063,0 -0.06989,-0.0206 -0.141331,-0.0458 -0.213295,-0.0752 -0.42129,-0.0594 -0.637164,0.0484 -0.613884,0.30676 -0.608457,1.18988 0.0091,1.48497 0.132788,0.0634 0.188766,0.0722 0.398891,0.0622 0.169444,-0.008 0.281917,-0.031 0.366639,-0.0749 z"/>
</svg>
