<svg xmlns="http://www.w3.org/2000/svg" width="16" height="16" version="1.1">
 <defs>
   <style id="current-color-scheme" type="text/css">
   .ColorScheme-Text { color: #e9ecf2; } .ColorScheme-Highlight { color:#5294e2; }
  </style>
  <linearGradient id="arrongin" x1="0%" x2="0%" y1="0%" y2="100%">
   <stop offset="0%" style="stop-color:#dd9b44; stop-opacity:1"/>
   <stop offset="100%" style="stop-color:#ad6c16; stop-opacity:1"/>
  </linearGradient>
  <linearGradient id="aurora" x1="0%" x2="0%" y1="0%" y2="100%">
   <stop offset="0%" style="stop-color:#09D4DF; stop-opacity:1"/>
   <stop offset="100%" style="stop-color:#9269F4; stop-opacity:1"/>
  </linearGradient>
  <linearGradient id="cyberneon" x1="0%" x2="0%" y1="0%" y2="100%">
    <stop offset="0" style="stop-color:#0abdc6; stop-opacity:1"/>
    <stop offset="1" style="stop-color:#ea00d9; stop-opacity:1"/>
  </linearGradient>
  <linearGradient id="fitdance" x1="0%" x2="0%" y1="0%" y2="100%">
   <stop offset="0%" style="stop-color:#1AD6AB; stop-opacity:1"/>
   <stop offset="100%" style="stop-color:#329DB6; stop-opacity:1"/>
  </linearGradient>
  <linearGradient id="oomox" x1="0%" x2="0%" y1="0%" y2="100%">
   <stop offset="0%" style="stop-color:#89f224; stop-opacity:1"/>
   <stop offset="100%" style="stop-color:#579916; stop-opacity:1"/>
  </linearGradient>
  <linearGradient id="rainblue" x1="0%" x2="0%" y1="0%" y2="100%">
   <stop offset="0%" style="stop-color:#00F260; stop-opacity:1"/>
   <stop offset="100%" style="stop-color:#0575E6; stop-opacity:1"/>
  </linearGradient>
  <linearGradient id="sunrise" x1="0%" x2="0%" y1="0%" y2="100%">
   <stop offset="0%" style="stop-color: #FF8501; stop-opacity:1"/>
   <stop offset="100%" style="stop-color: #FFCB01; stop-opacity:1"/>
  </linearGradient>
  <linearGradient id="telinkrin" x1="0%" x2="0%" y1="0%" y2="100%">
   <stop offset="0%" style="stop-color: #b2ced6; stop-opacity:1"/>
   <stop offset="100%" style="stop-color: #6da5b7; stop-opacity:1"/>
  </linearGradient>
  <linearGradient id="60spsycho" x1="0%" x2="0%" y1="0%" y2="100%">
   <stop offset="0%" style="stop-color: #df5940; stop-opacity:1"/>
   <stop offset="25%" style="stop-color: #d8d15f; stop-opacity:1"/>
   <stop offset="50%" style="stop-color: #e9882a; stop-opacity:1"/>
   <stop offset="100%" style="stop-color: #279362; stop-opacity:1"/>
  </linearGradient>
  <linearGradient id="90ssummer" x1="0%" x2="0%" y1="0%" y2="100%">
   <stop offset="0%" style="stop-color: #f618c7; stop-opacity:1"/>
   <stop offset="20%" style="stop-color: #94ffab; stop-opacity:1"/>
   <stop offset="50%" style="stop-color: #fbfd54; stop-opacity:1"/>
   <stop offset="100%" style="stop-color: #0f83ae; stop-opacity:1"/>
  </linearGradient>
 </defs>
 <path fill="url(#oomox)" class="ColorScheme-Text" d="M 1.41 5.603 L 1.41 7.577 L 0 7.577 C -0.001 7.704 0.002 8.27 0 8.423 L 1.41 8.423 L 1.41 10.397 L 2.256 10.397 L 2.256 5.603 L 1.41 5.603 Z M 5.217 5.603 C 3.893 5.603 2.82 6.676 2.82 8 C 2.82 9.324 3.893 10.397 5.217 10.397 C 6.541 10.397 7.614 9.324 7.614 8 C 7.614 6.676 6.541 5.603 5.217 5.603 Z M 10.575 5.603 C 9.251 5.603 8.178 6.676 8.178 8 C 8.178 9.324 9.251 10.397 10.575 10.397 C 11.899 10.397 12.972 9.324 12.972 8 C 12.972 6.676 11.899 5.603 10.575 5.603 Z M 13.536 5.603 L 13.536 10.397 L 14.382 10.397 L 14.382 8.735 L 15.999 10.128 C 15.999 9.76 15.999 9.343 16 9.029 L 14.75 8.009 L 15.999 6.796 C 15.999 6.469 15.999 6.015 15.999 5.68 L 14.382 7.287 L 14.382 5.603 L 13.536 5.603 Z M 10.622 6.355 C 11.504 6.355 12.22 7.071 12.22 7.953 C 12.22 8.836 11.504 9.551 10.622 9.551 C 9.739 9.551 9.024 8.836 9.024 7.953 C 9.024 7.071 9.739 6.355 10.622 6.355 Z M 5.217 6.449 C 6.073 6.449 6.768 7.143 6.768 8 C 6.768 8.857 6.073 9.551 5.217 9.551 C 4.36 9.551 3.666 8.857 3.666 8 C 3.666 7.143 4.36 6.449 5.217 6.449 Z"/>
</svg>
