<svg xmlns="http://www.w3.org/2000/svg" width="16" height="16" version="1.1">
 <defs>
   <style id="current-color-scheme" type="text/css">
   .ColorScheme-Text { color: #e9ecf2; } .ColorScheme-Highlight { color:#5294e2; }
  </style>
  <linearGradient id="arrongin" x1="0%" x2="0%" y1="0%" y2="100%">
   <stop offset="0%" style="stop-color:#dd9b44; stop-opacity:1"/>
   <stop offset="100%" style="stop-color:#ad6c16; stop-opacity:1"/>
  </linearGradient>
  <linearGradient id="aurora" x1="0%" x2="0%" y1="0%" y2="100%">
   <stop offset="0%" style="stop-color:#09D4DF; stop-opacity:1"/>
   <stop offset="100%" style="stop-color:#9269F4; stop-opacity:1"/>
  </linearGradient>
  <linearGradient id="cyberneon" x1="0%" x2="0%" y1="0%" y2="100%">
    <stop offset="0" style="stop-color:#0abdc6; stop-opacity:1"/>
    <stop offset="1" style="stop-color:#ea00d9; stop-opacity:1"/>
  </linearGradient>
  <linearGradient id="fitdance" x1="0%" x2="0%" y1="0%" y2="100%">
   <stop offset="0%" style="stop-color:#1AD6AB; stop-opacity:1"/>
   <stop offset="100%" style="stop-color:#329DB6; stop-opacity:1"/>
  </linearGradient>
  <linearGradient id="oomox" x1="0%" x2="0%" y1="0%" y2="100%">
   <stop offset="0%" style="stop-color:#89f224; stop-opacity:1"/>
   <stop offset="100%" style="stop-color:#579916; stop-opacity:1"/>
  </linearGradient>
  <linearGradient id="rainblue" x1="0%" x2="0%" y1="0%" y2="100%">
   <stop offset="0%" style="stop-color:#00F260; stop-opacity:1"/>
   <stop offset="100%" style="stop-color:#0575E6; stop-opacity:1"/>
  </linearGradient>
  <linearGradient id="sunrise" x1="0%" x2="0%" y1="0%" y2="100%">
   <stop offset="0%" style="stop-color: #FF8501; stop-opacity:1"/>
   <stop offset="100%" style="stop-color: #FFCB01; stop-opacity:1"/>
  </linearGradient>
  <linearGradient id="telinkrin" x1="0%" x2="0%" y1="0%" y2="100%">
   <stop offset="0%" style="stop-color: #b2ced6; stop-opacity:1"/>
   <stop offset="100%" style="stop-color: #6da5b7; stop-opacity:1"/>
  </linearGradient>
  <linearGradient id="60spsycho" x1="0%" x2="0%" y1="0%" y2="100%">
   <stop offset="0%" style="stop-color: #df5940; stop-opacity:1"/>
   <stop offset="25%" style="stop-color: #d8d15f; stop-opacity:1"/>
   <stop offset="50%" style="stop-color: #e9882a; stop-opacity:1"/>
   <stop offset="100%" style="stop-color: #279362; stop-opacity:1"/>
  </linearGradient>
  <linearGradient id="90ssummer" x1="0%" x2="0%" y1="0%" y2="100%">
   <stop offset="0%" style="stop-color: #f618c7; stop-opacity:1"/>
   <stop offset="20%" style="stop-color: #94ffab; stop-opacity:1"/>
   <stop offset="50%" style="stop-color: #fbfd54; stop-opacity:1"/>
   <stop offset="100%" style="stop-color: #0f83ae; stop-opacity:1"/>
  </linearGradient>
 </defs>
 <path fill="url(#oomox)" class="ColorScheme-Text" fill-rule="evenodd" d="M 0 9.425 L 0.042 9.037 L 0.042 9.037 Q 0.317 8.995 0.419 8.868 L 0.419 8.868 L 0.419 8.868 Q 0.521 8.742 0.521 8.439 L 0.521 8.439 L 0.521 5.602 L 0.521 5.602 Q 0.521 5.377 0.472 5.3 L 0.472 5.3 L 0.472 5.3 Q 0.422 5.222 0.267 5.222 L 0.267 5.222 L 0.267 5.222 Q 0.197 5.222 0.13 5.229 L 0.13 5.229 L 0.13 5.229 Q 0.063 5.236 0.042 5.236 L 0.042 5.236 L 0.014 5.194 L 0.063 4.842 L 0.26 4.849 L 0.922 4.856 L 0.922 4.856 Q 1.112 4.856 1.418 4.832 L 1.418 4.832 L 1.418 4.832 Q 1.725 4.807 1.823 4.8 L 1.823 4.8 L 1.788 5.194 L 1.788 5.194 Q 1.549 5.222 1.454 5.278 L 1.454 5.278 L 1.454 5.278 Q 1.359 5.335 1.33 5.433 L 1.33 5.433 L 1.33 5.433 Q 1.302 5.532 1.288 5.785 L 1.288 5.785 L 1.288 5.785 Q 1.204 7.031 1.204 8.446 L 1.204 8.446 L 1.204 8.446 Q 1.204 8.671 1.242 8.77 L 1.242 8.77 L 1.242 8.77 Q 1.281 8.868 1.39 8.904 L 1.39 8.904 L 1.39 8.904 Q 1.499 8.939 1.739 8.939 L 1.739 8.939 L 1.739 8.939 Q 2.126 8.939 2.316 8.865 L 2.316 8.865 L 2.316 8.865 Q 2.506 8.791 2.601 8.58 L 2.601 8.58 L 2.601 8.58 Q 2.696 8.369 2.766 7.904 L 2.766 7.904 L 3.196 7.862 L 3.231 7.911 L 3.231 7.911 Q 3.21 8.031 3.143 8.457 L 3.143 8.457 L 3.143 8.457 Q 3.076 8.883 3.034 9.361 L 3.034 9.361 L 2.985 9.418 L 2.985 9.418 Q 2.788 9.403 2.15 9.379 L 2.15 9.379 L 2.15 9.379 Q 1.513 9.354 1.056 9.354 L 1.056 9.354 L 1.056 9.354 Q 0.697 9.354 0.391 9.382 L 0.391 9.382 L 0.391 9.382 Q 0.084 9.41 0 9.425 L 0 9.425 L 0 9.425 L 0 9.425 L 0 9.425 Z M 3.083 6.427 L 3.434 6.427 L 3.434 6.427 Q 3.61 6.427 3.803 6.409 L 3.803 6.409 L 3.5 5.338 L 3.456 5.338 L 3.083 6.427 L 3.083 6.427 L 3.083 6.427 L 3.083 6.427 L 3.083 6.427 Z M 5.498 9.411 L 5.554 9.038 L 5.554 9.038 Q 5.892 9.01 6.029 8.95 L 6.029 8.95 L 6.029 8.95 Q 6.166 8.89 6.212 8.739 L 6.212 8.739 L 6.212 8.739 Q 6.258 8.588 6.258 8.229 L 6.258 8.229 L 6.258 5.272 L 6.258 5.272 Q 5.744 5.286 5.554 5.339 L 5.554 5.339 L 5.554 5.339 Q 5.364 5.392 5.29 5.557 L 5.29 5.557 L 5.29 5.557 Q 5.216 5.723 5.16 6.173 L 5.16 6.173 L 4.716 6.209 L 4.716 6.209 Q 4.787 5.582 4.815 4.857 L 4.815 4.857 L 4.885 4.794 L 5.519 4.871 L 7.708 4.871 L 8.355 4.794 L 8.426 4.857 L 8.426 4.857 Q 8.454 5.596 8.517 6.173 L 8.517 6.173 L 8.074 6.209 L 8.074 6.209 Q 8.004 5.737 7.933 5.568 L 7.933 5.568 L 7.933 5.568 Q 7.863 5.399 7.687 5.346 L 7.687 5.346 L 7.687 5.346 Q 7.511 5.293 7.032 5.272 L 7.032 5.272 L 7.032 5.272 Q 6.997 5.73 6.965 6.722 L 6.965 6.722 L 6.965 6.722 Q 6.934 7.715 6.934 8.517 L 6.934 8.517 L 6.934 8.517 Q 6.934 8.778 7.025 8.887 L 7.025 8.887 L 7.025 8.887 Q 7.117 8.996 7.328 8.996 L 7.328 8.996 L 7.328 8.996 Q 7.518 8.996 7.708 8.975 L 7.708 8.975 L 7.736 9.01 L 7.673 9.404 L 7.673 9.404 Q 6.997 9.376 6.553 9.376 L 6.553 9.376 L 6.553 9.376 Q 6.061 9.376 5.498 9.411 L 5.498 9.411 L 5.498 9.411 L 5.498 9.411 Z M 11.671 9.841 L 11.706 9.89 L 11.706 9.89 Q 11.579 10.446 11.509 11.129 L 11.509 11.129 L 11.46 11.185 L 11.46 11.185 Q 10.045 11.136 9.306 11.136 L 9.306 11.136 L 9.306 11.136 Q 8.75 11.136 8.222 11.206 L 8.222 11.206 L 8.264 10.819 L 8.264 10.819 Q 8.574 10.777 8.686 10.65 L 8.686 10.65 L 8.686 10.65 Q 8.799 10.524 8.799 10.221 L 8.799 10.221 L 8.806 7.384 L 8.806 7.384 Q 8.806 7.159 8.757 7.081 L 8.757 7.081 L 8.757 7.081 Q 8.707 7.004 8.56 7.004 L 8.56 7.004 L 8.327 7.018 L 8.299 6.976 L 8.355 6.617 L 8.355 6.617 Q 9.179 6.638 9.468 6.638 L 9.468 6.638 L 9.468 6.638 Q 10.284 6.638 10.773 6.62 L 10.773 6.62 L 10.773 6.62 Q 11.263 6.603 11.593 6.553 L 11.593 6.553 L 11.629 6.61 L 11.629 6.61 Q 11.572 6.87 11.527 7.208 L 11.527 7.208 L 11.527 7.208 Q 11.481 7.546 11.467 7.828 L 11.467 7.828 L 10.995 7.863 L 11.009 7.567 L 11.009 7.567 Q 11.009 7.342 10.946 7.247 L 10.946 7.247 L 10.946 7.247 Q 10.883 7.152 10.689 7.12 L 10.689 7.12 L 10.689 7.12 Q 10.495 7.088 10.017 7.088 L 10.017 7.088 L 10.017 7.088 Q 9.799 7.088 9.714 7.103 L 9.714 7.103 L 9.714 7.103 Q 9.63 7.117 9.605 7.169 L 9.605 7.169 L 9.605 7.169 Q 9.58 7.222 9.573 7.349 L 9.573 7.349 L 9.517 8.595 L 10.214 8.602 L 10.214 8.602 Q 10.369 8.602 10.604 8.581 L 10.604 8.581 L 10.604 8.581 Q 10.84 8.56 11.059 8.531 L 11.059 8.531 L 11.094 8.581 L 10.995 9.081 L 10.995 9.081 Q 10.256 9.059 10.045 9.059 L 10.045 9.059 L 10.045 9.059 Q 9.841 9.059 9.503 9.102 L 9.503 9.102 L 9.482 10.298 L 9.482 10.298 Q 9.482 10.495 9.513 10.58 L 9.513 10.58 L 9.513 10.58 Q 9.545 10.664 9.644 10.692 L 9.644 10.692 L 9.644 10.692 Q 9.742 10.721 9.989 10.721 L 9.989 10.721 L 9.989 10.721 Q 10.516 10.721 10.749 10.664 L 10.749 10.664 L 10.749 10.664 Q 10.981 10.608 11.08 10.443 L 11.08 10.443 L 11.08 10.443 Q 11.178 10.277 11.234 9.883 L 11.234 9.883 L 11.671 9.841 L 11.671 9.841 Z M 3.658 7.691 L 3.64 7.66 L 3.658 7.445 L 3.658 7.445 Q 3.882 7.427 3.954 7.397 L 3.954 7.397 L 3.954 7.397 Q 4.027 7.366 4.027 7.283 L 4.027 7.283 L 4.027 7.283 Q 4.027 7.204 3.996 7.098 L 3.996 7.098 L 3.873 6.686 L 3.873 6.686 Q 3.763 6.681 3.443 6.681 L 3.443 6.681 L 3.443 6.681 Q 3.228 6.681 2.991 6.712 L 2.991 6.712 L 2.85 7.116 L 2.85 7.116 Q 2.815 7.23 2.815 7.269 L 2.815 7.269 L 2.815 7.269 Q 2.815 7.357 2.87 7.395 L 2.87 7.395 L 2.87 7.395 Q 2.925 7.432 3.052 7.432 L 3.052 7.432 L 3.276 7.432 L 3.289 7.454 L 3.263 7.678 L 3.263 7.678 Q 3.206 7.673 3.013 7.662 L 3.013 7.662 L 3.013 7.662 Q 2.819 7.651 2.639 7.651 L 2.639 7.651 L 2.639 7.651 Q 2.468 7.651 2.326 7.656 L 2.326 7.656 L 2.326 7.656 Q 2.183 7.66 2.135 7.664 L 2.135 7.664 L 2.17 7.423 L 2.17 7.423 Q 2.284 7.405 2.354 7.337 L 2.354 7.337 L 2.354 7.337 Q 2.424 7.269 2.486 7.103 L 2.486 7.103 L 3.311 4.868 L 3.768 4.794 L 3.811 4.807 L 3.811 4.807 Q 3.842 4.917 3.948 5.307 L 3.948 5.307 L 3.948 5.307 Q 4.053 5.698 4.202 6.214 L 4.202 6.214 L 4.202 6.214 Q 4.351 6.729 4.479 7.12 L 4.479 7.12 L 4.479 7.12 Q 4.527 7.283 4.608 7.346 L 4.608 7.346 L 4.608 7.346 Q 4.689 7.41 4.865 7.427 L 4.865 7.427 L 4.878 7.449 L 4.847 7.664 L 4.847 7.664 Q 4.795 7.66 4.648 7.656 L 4.648 7.656 L 4.648 7.656 Q 4.501 7.651 4.351 7.651 L 4.351 7.651 L 4.351 7.651 Q 4.128 7.651 3.921 7.667 L 3.921 7.667 L 3.921 7.667 Q 3.715 7.682 3.658 7.691 L 3.658 7.691 L 3.658 7.691 L 3.658 7.691 L 3.658 7.691 L 3.658 7.691 Z M 13.895 9.425 L 13.867 9.376 L 13.902 9.038 L 13.902 9.038 Q 14.149 9.024 14.261 8.975 L 14.261 8.975 L 14.261 8.975 Q 14.374 8.926 14.374 8.813 L 14.374 8.813 L 14.374 8.813 Q 14.374 8.707 14.247 8.531 L 14.247 8.531 L 13.55 7.483 L 12.98 8.257 L 12.98 8.257 Q 12.797 8.51 12.734 8.619 L 12.734 8.619 L 12.734 8.619 Q 12.67 8.729 12.67 8.813 L 12.67 8.813 L 12.67 8.813 Q 12.67 8.912 12.762 8.961 L 12.762 8.961 L 12.762 8.961 Q 12.853 9.01 13.051 9.024 L 13.051 9.024 L 13.072 9.066 L 13.029 9.418 L 13.029 9.418 Q 12.931 9.411 12.642 9.394 L 12.642 9.394 L 12.642 9.394 Q 12.354 9.376 12.192 9.376 L 12.192 9.376 L 12.192 9.376 Q 11.96 9.376 11.741 9.387 L 11.741 9.387 L 11.741 9.387 Q 11.523 9.397 11.446 9.404 L 11.446 9.404 L 11.418 9.348 L 11.467 9.003 L 11.467 9.003 Q 11.72 8.919 11.974 8.683 L 11.974 8.683 L 11.974 8.683 Q 12.227 8.447 12.551 8.039 L 12.551 8.039 L 13.297 7.095 L 12.445 5.828 L 12.445 5.828 Q 12.262 5.561 12.04 5.424 L 12.04 5.424 L 12.04 5.424 Q 11.819 5.286 11.502 5.237 L 11.502 5.237 L 11.488 5.209 L 11.53 4.857 L 11.53 4.857 Q 11.636 4.864 11.945 4.871 L 11.945 4.871 L 11.945 4.871 Q 12.255 4.878 12.593 4.878 L 12.593 4.878 L 12.593 4.878 Q 12.91 4.878 13.212 4.853 L 13.212 4.853 L 13.212 4.853 Q 13.515 4.829 13.6 4.822 L 13.6 4.822 L 13.621 4.878 L 13.6 5.195 L 13.6 5.195 Q 13.339 5.209 13.223 5.265 L 13.223 5.265 L 13.223 5.265 Q 13.107 5.322 13.107 5.427 L 13.107 5.427 L 13.107 5.427 Q 13.107 5.512 13.279 5.797 L 13.279 5.797 L 13.279 5.797 Q 13.452 6.082 13.825 6.652 L 13.825 6.652 L 14.071 6.314 L 14.071 6.314 Q 14.346 5.948 14.497 5.719 L 14.497 5.719 L 14.497 5.719 Q 14.648 5.491 14.648 5.399 L 14.648 5.399 L 14.648 5.399 Q 14.648 5.308 14.56 5.262 L 14.56 5.262 L 14.56 5.262 Q 14.473 5.216 14.268 5.202 L 14.268 5.202 L 14.254 5.174 L 14.297 4.836 L 14.494 4.85 L 14.494 4.85 Q 14.599 4.857 14.807 4.868 L 14.807 4.868 L 14.807 4.868 Q 15.015 4.878 15.134 4.878 L 15.134 4.878 L 15.134 4.878 Q 15.324 4.878 15.56 4.868 L 15.56 4.868 L 15.56 4.868 Q 15.796 4.857 15.866 4.85 L 15.866 4.85 L 15.894 4.899 L 15.852 5.237 L 15.852 5.237 Q 15.542 5.315 15.366 5.462 L 15.366 5.462 L 15.366 5.462 Q 15.19 5.61 14.909 5.976 L 14.909 5.976 L 14.092 7.039 L 15.036 8.405 L 15.036 8.405 Q 15.233 8.693 15.451 8.831 L 15.451 8.831 L 15.451 8.831 Q 15.669 8.968 15.986 8.996 L 15.986 8.996 L 16 9.024 L 15.951 9.397 L 15.951 9.397 Q 15.852 9.39 15.592 9.383 L 15.592 9.383 L 15.592 9.383 Q 15.331 9.376 15.057 9.376 L 15.057 9.376 L 15.057 9.376 Q 14.817 9.376 14.42 9.397 L 14.42 9.397 L 14.42 9.397 Q 14.022 9.418 13.895 9.425 L 13.895 9.425 Z"/>
</svg>
