<svg xmlns="http://www.w3.org/2000/svg" width="16" height="16" version="1.1">
 <defs>
   <style id="current-color-scheme" type="text/css">
   .ColorScheme-Text { color: #e9ecf2; } .ColorScheme-Highlight { color:#5294e2; }
  </style>
  <linearGradient id="arrongin" x1="0%" x2="0%" y1="0%" y2="100%">
   <stop offset="0%" style="stop-color:#dd9b44; stop-opacity:1"/>
   <stop offset="100%" style="stop-color:#ad6c16; stop-opacity:1"/>
  </linearGradient>
  <linearGradient id="aurora" x1="0%" x2="0%" y1="0%" y2="100%">
   <stop offset="0%" style="stop-color:#09D4DF; stop-opacity:1"/>
   <stop offset="100%" style="stop-color:#9269F4; stop-opacity:1"/>
  </linearGradient>
  <linearGradient id="cyberneon" x1="0%" x2="0%" y1="0%" y2="100%">
    <stop offset="0" style="stop-color:#0abdc6; stop-opacity:1"/>
    <stop offset="1" style="stop-color:#ea00d9; stop-opacity:1"/>
  </linearGradient>
  <linearGradient id="fitdance" x1="0%" x2="0%" y1="0%" y2="100%">
   <stop offset="0%" style="stop-color:#1AD6AB; stop-opacity:1"/>
   <stop offset="100%" style="stop-color:#329DB6; stop-opacity:1"/>
  </linearGradient>
  <linearGradient id="oomox" x1="0%" x2="0%" y1="0%" y2="100%">
   <stop offset="0%" style="stop-color:#89f224; stop-opacity:1"/>
   <stop offset="100%" style="stop-color:#579916; stop-opacity:1"/>
  </linearGradient>
  <linearGradient id="rainblue" x1="0%" x2="0%" y1="0%" y2="100%">
   <stop offset="0%" style="stop-color:#00F260; stop-opacity:1"/>
   <stop offset="100%" style="stop-color:#0575E6; stop-opacity:1"/>
  </linearGradient>
  <linearGradient id="sunrise" x1="0%" x2="0%" y1="0%" y2="100%">
   <stop offset="0%" style="stop-color: #FF8501; stop-opacity:1"/>
   <stop offset="100%" style="stop-color: #FFCB01; stop-opacity:1"/>
  </linearGradient>
  <linearGradient id="telinkrin" x1="0%" x2="0%" y1="0%" y2="100%">
   <stop offset="0%" style="stop-color: #b2ced6; stop-opacity:1"/>
   <stop offset="100%" style="stop-color: #6da5b7; stop-opacity:1"/>
  </linearGradient>
  <linearGradient id="60spsycho" x1="0%" x2="0%" y1="0%" y2="100%">
   <stop offset="0%" style="stop-color: #df5940; stop-opacity:1"/>
   <stop offset="25%" style="stop-color: #d8d15f; stop-opacity:1"/>
   <stop offset="50%" style="stop-color: #e9882a; stop-opacity:1"/>
   <stop offset="100%" style="stop-color: #279362; stop-opacity:1"/>
  </linearGradient>
  <linearGradient id="90ssummer" x1="0%" x2="0%" y1="0%" y2="100%">
   <stop offset="0%" style="stop-color: #f618c7; stop-opacity:1"/>
   <stop offset="20%" style="stop-color: #94ffab; stop-opacity:1"/>
   <stop offset="50%" style="stop-color: #fbfd54; stop-opacity:1"/>
   <stop offset="100%" style="stop-color: #0f83ae; stop-opacity:1"/>
  </linearGradient>
 </defs>
 <path fill="url(#oomox)" class="ColorScheme-Text" d="M 4.647 0.005 C 4.009 0.022 3.379 0.091 2.799 0.258 C 1.438 0.714 1.455 1.417 1.455 2.48 L 1.455 13.962 C 1.455 14.999 1.456 15.498 2.224 15.768 C 2.457 15.848 2.742 15.91 3.079 15.956 C 3.629 16.031 4.394 16.005 4.897 15.903 C 5.091 15.864 5.279 15.81 5.434 15.747 C 5.898 15.59 5.895 15.306 5.877 14.935 C 5.845 14.17 5.757 13.267 6.491 12.666 C 6.829 12.389 7.245 12.376 7.643 12.561 C 7.982 12.72 8.362 13.094 8.537 13.445 C 8.705 13.778 8.745 14.003 8.836 14.625 C 8.972 15.565 9.213 15.75 10.218 15.926 C 10.463 15.969 11.28 15.993 11.755 15.999 C 12.366 16.006 13.009 15.983 13.282 15.926 C 13.758 15.831 14.107 15.663 14.268 15.455 C 14.416 15.262 14.532 15.043 14.543 14.791 C 14.564 14.362 14.348 13.84 13.965 13.203 C 13.62 12.629 13.343 12.505 12.791 11.88 C 12.119 11.118 11.796 10.625 11.672 10.192 C 11.516 9.647 12.006 9.087 12.828 8.354 C 13.595 7.67 14.213 7.089 14.443 6.427 C 14.517 6.213 14.547 5.917 14.542 5.58 C 14.531 4.883 14.36 4.011 14.072 3.338 C 13.548 2.112 12.549 1.411 10.288 0.677 C 9.721 0.493 9.302 0.387 8.75 0.29 C 8.108 0.177 7.091 0.091 6.131 0.043 C 5.852 0.025 5.57 0.012 5.286 0.005 C 5.073 -0.002 4.859 -0.002 4.647 0.005 L 4.647 0.005 L 4.647 0.005 Z M 7.236 4.365 L 7.236 4.365 C 7.901 4.374 8.484 4.878 8.675 5.628 C 8.744 5.9 8.745 6.484 8.676 6.813 C 8.498 7.672 7.883 8.104 7.019 7.975 C 6.722 7.931 6.52 7.823 6.316 7.599 C 5.998 7.251 5.82 6.708 5.818 6.092 C 5.817 5.091 6.303 4.437 7.101 4.369 C 7.146 4.362 7.192 4.362 7.236 4.362 L 7.236 4.365 Z"/>
</svg>
