<svg xmlns="http://www.w3.org/2000/svg" width="16" height="16" version="1.1">
 <defs>
   <style id="current-color-scheme" type="text/css">
   .ColorScheme-Text { color: #e9ecf2; } .ColorScheme-Highlight { color:#5294e2; }
  </style>
  <linearGradient id="arrongin" x1="0%" x2="0%" y1="0%" y2="100%">
   <stop offset="0%" style="stop-color:#dd9b44; stop-opacity:1"/>
   <stop offset="100%" style="stop-color:#ad6c16; stop-opacity:1"/>
  </linearGradient>
  <linearGradient id="aurora" x1="0%" x2="0%" y1="0%" y2="100%">
   <stop offset="0%" style="stop-color:#09D4DF; stop-opacity:1"/>
   <stop offset="100%" style="stop-color:#9269F4; stop-opacity:1"/>
  </linearGradient>
  <linearGradient id="cyberneon" x1="0%" x2="0%" y1="0%" y2="100%">
    <stop offset="0" style="stop-color:#0abdc6; stop-opacity:1"/>
    <stop offset="1" style="stop-color:#ea00d9; stop-opacity:1"/>
  </linearGradient>
  <linearGradient id="fitdance" x1="0%" x2="0%" y1="0%" y2="100%">
   <stop offset="0%" style="stop-color:#1AD6AB; stop-opacity:1"/>
   <stop offset="100%" style="stop-color:#329DB6; stop-opacity:1"/>
  </linearGradient>
  <linearGradient id="oomox" x1="0%" x2="0%" y1="0%" y2="100%">
   <stop offset="0%" style="stop-color:#89f224; stop-opacity:1"/>
   <stop offset="100%" style="stop-color:#579916; stop-opacity:1"/>
  </linearGradient>
  <linearGradient id="rainblue" x1="0%" x2="0%" y1="0%" y2="100%">
   <stop offset="0%" style="stop-color:#00F260; stop-opacity:1"/>
   <stop offset="100%" style="stop-color:#0575E6; stop-opacity:1"/>
  </linearGradient>
  <linearGradient id="sunrise" x1="0%" x2="0%" y1="0%" y2="100%">
   <stop offset="0%" style="stop-color: #FF8501; stop-opacity:1"/>
   <stop offset="100%" style="stop-color: #FFCB01; stop-opacity:1"/>
  </linearGradient>
  <linearGradient id="telinkrin" x1="0%" x2="0%" y1="0%" y2="100%">
   <stop offset="0%" style="stop-color: #b2ced6; stop-opacity:1"/>
   <stop offset="100%" style="stop-color: #6da5b7; stop-opacity:1"/>
  </linearGradient>
  <linearGradient id="60spsycho" x1="0%" x2="0%" y1="0%" y2="100%">
   <stop offset="0%" style="stop-color: #df5940; stop-opacity:1"/>
   <stop offset="25%" style="stop-color: #d8d15f; stop-opacity:1"/>
   <stop offset="50%" style="stop-color: #e9882a; stop-opacity:1"/>
   <stop offset="100%" style="stop-color: #279362; stop-opacity:1"/>
  </linearGradient>
  <linearGradient id="90ssummer" x1="0%" x2="0%" y1="0%" y2="100%">
   <stop offset="0%" style="stop-color: #f618c7; stop-opacity:1"/>
   <stop offset="20%" style="stop-color: #94ffab; stop-opacity:1"/>
   <stop offset="50%" style="stop-color: #fbfd54; stop-opacity:1"/>
   <stop offset="100%" style="stop-color: #0f83ae; stop-opacity:1"/>
  </linearGradient>
 </defs>
 <path fill="url(#oomox)" class="ColorScheme-Text" fill-rule="evenodd" d="M 6.407 1.039 C 6.563 0.833 6.795 0.696 7.053 0.663 C 7.311 0.627 7.572 0.696 7.778 0.856 C 7.984 1.013 8.121 1.244 8.153 1.502 C 8.189 1.76 8.121 2.022 7.961 2.227 C 7.706 2.564 7.412 2.867 7.086 3.132 C 6.782 3.38 6.459 3.599 6.119 3.788 C 5.802 3.964 5.479 4.124 5.146 4.265 C 4.842 4.395 4.536 4.52 4.229 4.64 C 3.912 4.761 3.598 4.889 3.291 5.029 C 3.063 5.127 2.851 5.251 2.648 5.398 C 2.537 5.48 2.446 5.581 2.374 5.702 C 2.312 5.826 2.282 5.963 2.286 6.103 C 2.282 6.302 2.315 6.505 2.38 6.691 C 2.439 6.844 2.521 6.985 2.625 7.112 C 2.756 7.266 2.903 7.406 3.06 7.533 C 3.259 7.69 3.464 7.84 3.673 7.984 C 3.918 8.151 4.153 8.324 4.385 8.506 C 4.65 8.715 4.891 8.947 5.107 9.205 C 5.352 9.499 5.544 9.829 5.678 10.188 C 5.825 10.59 5.9 11.017 5.894 11.445 C 5.894 11.765 5.858 12.085 5.796 12.399 C 5.708 12.872 5.531 13.323 5.27 13.728 C 5.029 14.093 4.702 14.397 4.323 14.613 C 3.987 14.799 3.624 14.923 3.246 14.985 C 2.919 15.037 2.586 15.063 2.253 15.057 C 2.011 15.057 1.77 15.05 1.531 15.037 C 1.345 15.027 1.159 15.021 0.973 15.021 C 0.712 15.017 0.464 14.913 0.281 14.727 C 0.098 14.544 -0.003 14.293 0 14.035 C 0.003 13.773 0.108 13.525 0.294 13.342 C 0.477 13.16 0.728 13.058 0.986 13.062 C 1.202 13.065 1.414 13.068 1.629 13.081 C 1.845 13.091 2.057 13.097 2.273 13.097 C 2.495 13.101 2.713 13.084 2.932 13.049 C 3.086 13.026 3.229 12.977 3.367 12.902 C 3.471 12.843 3.562 12.758 3.631 12.657 C 3.752 12.464 3.833 12.252 3.869 12.03 C 3.912 11.831 3.935 11.628 3.935 11.426 C 3.938 11.236 3.905 11.047 3.843 10.871 C 3.784 10.72 3.706 10.583 3.605 10.462 C 3.474 10.309 3.331 10.172 3.174 10.048 C 2.975 9.891 2.772 9.741 2.567 9.6 C 2.322 9.431 2.08 9.254 1.848 9.071 C 1.584 8.862 1.339 8.624 1.12 8.366 C 0.875 8.069 0.679 7.733 0.542 7.37 C 0.398 6.965 0.323 6.537 0.327 6.11 C 0.32 5.64 0.434 5.179 0.653 4.764 C 0.862 4.389 1.149 4.066 1.496 3.814 C 1.806 3.586 2.142 3.393 2.495 3.24 C 2.834 3.086 3.18 2.942 3.527 2.809 C 3.814 2.701 4.095 2.583 4.376 2.466 C 4.647 2.348 4.908 2.221 5.166 2.077 C 5.404 1.943 5.633 1.786 5.848 1.613 C 6.057 1.444 6.243 1.251 6.407 1.039 Z M 9.502 8.506 C 9.544 8.294 9.626 8.088 9.744 7.906 C 9.874 7.697 10.034 7.501 10.214 7.328 C 10.384 7.158 10.566 6.995 10.753 6.844 C 10.945 6.688 11.141 6.534 11.337 6.384 C 11.579 6.198 11.817 6.009 12.055 5.813 C 12.261 5.643 12.46 5.457 12.643 5.257 C 12.777 5.117 12.895 4.957 12.986 4.784 C 13.032 4.693 13.058 4.591 13.061 4.49 C 13.068 4.173 13.025 3.86 12.937 3.556 C 12.882 3.367 12.787 3.187 12.656 3.037 C 12.535 2.906 12.389 2.809 12.222 2.746 C 11.948 2.652 11.657 2.606 11.367 2.613 C 11.148 2.606 10.929 2.652 10.73 2.74 C 10.557 2.825 10.403 2.942 10.276 3.089 C 10.103 3.298 9.956 3.53 9.842 3.775 C 9.711 4.059 9.597 4.353 9.502 4.653 L 9.502 8.506 L 9.502 8.506 Z M 9.502 9.14 L 9.502 14.368 C 9.502 14.629 9.398 14.877 9.215 15.06 C 9.032 15.243 8.784 15.347 8.522 15.347 C 8.261 15.347 8.013 15.243 7.83 15.06 C 7.647 14.877 7.543 14.629 7.543 14.368 L 7.543 4.506 C 7.543 4.412 7.556 4.32 7.582 4.229 C 7.709 3.795 7.873 3.367 8.062 2.955 C 8.251 2.547 8.493 2.165 8.784 1.822 C 9.091 1.46 9.473 1.169 9.9 0.964 C 10.358 0.755 10.857 0.65 11.36 0.653 C 11.879 0.644 12.395 0.729 12.885 0.902 C 13.355 1.075 13.78 1.359 14.119 1.731 C 14.446 2.103 14.684 2.541 14.821 3.014 C 14.962 3.504 15.03 4.013 15.02 4.523 C 15.014 4.934 14.909 5.339 14.717 5.705 C 14.54 6.031 14.325 6.332 14.07 6.603 C 13.829 6.857 13.574 7.099 13.303 7.324 C 13.048 7.533 12.79 7.739 12.526 7.942 C 12.343 8.082 12.163 8.222 11.987 8.369 C 11.843 8.48 11.709 8.601 11.579 8.728 C 11.536 8.771 11.497 8.813 11.461 8.862 C 11.464 8.862 11.464 8.866 11.464 8.866 C 11.546 9.032 11.638 9.192 11.742 9.342 C 11.895 9.564 12.059 9.78 12.229 9.989 C 12.428 10.234 12.63 10.475 12.839 10.711 C 13.659 11.622 14.508 12.5 15.386 13.352 C 15.497 13.46 15.605 13.568 15.713 13.675 C 15.896 13.858 16 14.106 16 14.368 C 16 14.626 15.899 14.874 15.713 15.06 C 15.53 15.243 15.282 15.347 15.02 15.347 C 14.762 15.347 14.514 15.246 14.328 15.06 C 14.227 14.959 14.122 14.854 14.018 14.753 C 13.107 13.871 12.229 12.96 11.38 12.017 C 11.151 11.759 10.926 11.494 10.707 11.223 C 10.508 10.975 10.315 10.72 10.135 10.459 C 9.969 10.224 9.822 9.973 9.698 9.711 C 9.636 9.584 9.584 9.45 9.544 9.313 C 9.528 9.257 9.512 9.199 9.502 9.14 L 9.502 9.14 Z"/>
</svg>
