<svg xmlns="http://www.w3.org/2000/svg" width="16" height="16" version="1.1">
 <defs>
   <style id="current-color-scheme" type="text/css">
   .ColorScheme-Text { color: #e9ecf2; } .ColorScheme-Highlight { color:#5294e2; }
  </style>
  <linearGradient id="arrongin" x1="0%" x2="0%" y1="0%" y2="100%">
   <stop offset="0%" style="stop-color:#dd9b44; stop-opacity:1"/>
   <stop offset="100%" style="stop-color:#ad6c16; stop-opacity:1"/>
  </linearGradient>
  <linearGradient id="aurora" x1="0%" x2="0%" y1="0%" y2="100%">
   <stop offset="0%" style="stop-color:#09D4DF; stop-opacity:1"/>
   <stop offset="100%" style="stop-color:#9269F4; stop-opacity:1"/>
  </linearGradient>
  <linearGradient id="cyberneon" x1="0%" x2="0%" y1="0%" y2="100%">
    <stop offset="0" style="stop-color:#0abdc6; stop-opacity:1"/>
    <stop offset="1" style="stop-color:#ea00d9; stop-opacity:1"/>
  </linearGradient>
  <linearGradient id="fitdance" x1="0%" x2="0%" y1="0%" y2="100%">
   <stop offset="0%" style="stop-color:#1AD6AB; stop-opacity:1"/>
   <stop offset="100%" style="stop-color:#329DB6; stop-opacity:1"/>
  </linearGradient>
  <linearGradient id="oomox" x1="0%" x2="0%" y1="0%" y2="100%">
   <stop offset="0%" style="stop-color:#89f224; stop-opacity:1"/>
   <stop offset="100%" style="stop-color:#579916; stop-opacity:1"/>
  </linearGradient>
  <linearGradient id="rainblue" x1="0%" x2="0%" y1="0%" y2="100%">
   <stop offset="0%" style="stop-color:#00F260; stop-opacity:1"/>
   <stop offset="100%" style="stop-color:#0575E6; stop-opacity:1"/>
  </linearGradient>
  <linearGradient id="sunrise" x1="0%" x2="0%" y1="0%" y2="100%">
   <stop offset="0%" style="stop-color: #FF8501; stop-opacity:1"/>
   <stop offset="100%" style="stop-color: #FFCB01; stop-opacity:1"/>
  </linearGradient>
  <linearGradient id="telinkrin" x1="0%" x2="0%" y1="0%" y2="100%">
   <stop offset="0%" style="stop-color: #b2ced6; stop-opacity:1"/>
   <stop offset="100%" style="stop-color: #6da5b7; stop-opacity:1"/>
  </linearGradient>
  <linearGradient id="60spsycho" x1="0%" x2="0%" y1="0%" y2="100%">
   <stop offset="0%" style="stop-color: #df5940; stop-opacity:1"/>
   <stop offset="25%" style="stop-color: #d8d15f; stop-opacity:1"/>
   <stop offset="50%" style="stop-color: #e9882a; stop-opacity:1"/>
   <stop offset="100%" style="stop-color: #279362; stop-opacity:1"/>
  </linearGradient>
  <linearGradient id="90ssummer" x1="0%" x2="0%" y1="0%" y2="100%">
   <stop offset="0%" style="stop-color: #f618c7; stop-opacity:1"/>
   <stop offset="20%" style="stop-color: #94ffab; stop-opacity:1"/>
   <stop offset="50%" style="stop-color: #fbfd54; stop-opacity:1"/>
   <stop offset="100%" style="stop-color: #0f83ae; stop-opacity:1"/>
  </linearGradient>
 </defs>
 <path fill="url(#oomox)" class="ColorScheme-Text" d="M 8.682 0.011 C 8.699 0.995 4.537 3.028 4.066 5.267 C 4.025 5.407 3.953 5.636 3.892 5.829 C 3.81 5.849 3.737 5.893 3.685 5.957 C 1.705 8.367 2.043 10.661 2 12.955 C 1.995 13.125 2.116 13.275 2.291 13.314 C 2.465 13.354 2.644 13.271 2.72 13.117 C 2.72 13.117 2.864 12.832 3.08 12.371 C 3.834 14.474 6.063 16 8.699 16 C 11.334 16 13.565 14.474 14.32 12.371 C 14.32 12.371 14.321 12.373 14.321 12.373 C 14.536 12.833 14.68 13.117 14.68 13.117 C 14.756 13.269 14.934 13.35 15.107 13.311 C 15.28 13.272 15.401 13.124 15.397 12.955 C 15.354 10.661 15.694 8.367 13.715 5.957 C 13.662 5.893 13.589 5.849 13.507 5.829 C 13.447 5.636 13.374 5.407 13.334 5.267 C 12.835 2.898 11.145 0.995 8.699 0.995 C 8.565 0.995 8.68 -0.12 8.682 0.011 L 8.682 0.011 Z M 8.699 3.674 L 8.638 4.022 C 8.048 4.108 7.633 4.27 7.199 4.425 C 7.199 4.425 7.786 3.674 8.699 3.674 Z M 9.449 3.674 C 10.364 3.681 10.951 4.425 10.951 4.425 C 10.517 4.269 10.099 4.106 9.508 4.017 L 9.449 3.674 Z M 8.131 5.015 C 8.205 5.016 8.279 5.025 8.352 5.043 C 8.584 5.114 8.796 5.27 8.967 5.496 C 9.117 5.309 9.329 5.153 9.584 5.043 C 9.656 5.03 9.73 5.021 9.804 5.015 C 10.738 5.13 11.395 5.758 11.299 6.444 C 11.657 6.777 11.775 7.214 11.616 7.616 C 11.456 8.018 11.039 8.336 10.496 8.469 C 9.785 8.414 9.182 8.052 8.967 7.551 C 8.687 8.322 8.043 8.709 7.44 8.469 C 6.843 8.158 6.502 7.299 6.637 6.444 C 6.767 5.49 7.432 4.854 8.131 5.015 Z"/>
</svg>
