<?xml version="1.0" encoding="UTF-8"?>
<svg xmlns="http://www.w3.org/2000/svg" xmlns:xlink="http://www.w3.org/1999/xlink" width="96" height="96" viewBox="0 0 96 96" version="1.1">
<g id="surface1">
<path style=" stroke:none;fill-rule:nonzero;fill:rgb(100%,100%,100%);fill-opacity:1;" d="M 44.460938 36 C 43.015625 36.265625 41.976562 37.53125 42 39 L 42 54 L 33 54 C 31.917969 53.984375 30.910156 54.554688 30.367188 55.488281 C 29.820312 56.421875 29.820312 57.578125 30.367188 58.511719 C 30.910156 59.445312 31.917969 60.015625 33 60 L 45 60 C 46.65625 60 48 58.65625 48 57 L 48 39 C 48.015625 38.097656 47.625 37.234375 46.933594 36.652344 C 46.242188 36.070312 45.324219 35.828125 44.4375 36 Z M 44.460938 36 "/>
<path style=" stroke:none;fill-rule:nonzero;fill:rgb(100%,100%,100%);fill-opacity:1;" d="M 44.820312 18.359375 C 23.457031 18.359375 6.160156 35.84375 6.160156 57.203125 C 6.160156 78.566406 23.457031 96.054688 44.820312 96.054688 C 66.179688 96.054688 83.664062 78.566406 83.664062 57.203125 C 83.664062 35.84375 66.179688 18.359375 44.820312 18.359375 Z M 44.820312 30.253906 C 59.75 30.253906 71.773438 42.273438 71.773438 57.203125 C 71.773438 72.136719 59.75 84.15625 44.820312 84.15625 C 29.890625 84.15625 18.054688 72.136719 18.054688 57.203125 C 18.054688 42.273438 29.890625 30.253906 44.820312 30.253906 Z M 44.820312 30.253906 "/>
<path style=" stroke:none;fill-rule:nonzero;fill:rgb(100%,100%,100%);fill-opacity:1;" d="M 25.679688 6 C 14.84375 6 5.992188 14.851562 5.992188 25.6875 C 5.992188 28.117188 6.5 30.289062 7.304688 32.4375 C 14.539062 21.503906 26.40625 13.820312 40.117188 12.375 C 36.519531 8.476562 31.359375 6.015625 25.65625 6.015625 Z M 64.304688 6 C 58.585938 6 53.453125 8.476562 49.867188 12.375 C 63.59375 13.882812 75.492188 21.621094 82.679688 32.625 C 83.527344 30.429688 83.992188 28.179688 83.992188 25.6875 C 83.992188 14.851562 75.144531 6 64.304688 6 Z M 64.304688 6 "/>
<path style=" stroke:none;fill-rule:nonzero;fill:rgb(100%,100%,100%);fill-opacity:1;" d="M 23.460938 77.460938 C 22.382812 77.75 21.410156 78.335938 20.648438 79.148438 L 13.898438 85.710938 C 12.082031 87.113281 11.226562 89.429688 11.691406 91.675781 C 12.160156 93.921875 13.867188 95.707031 16.089844 96.273438 C 18.3125 96.835938 20.664062 96.085938 22.148438 94.335938 L 28.898438 87.773438 C 30.96875 85.9375 31.515625 82.925781 30.226562 80.480469 C 28.9375 78.035156 26.140625 76.785156 23.460938 77.460938 Z M 23.460938 77.460938 "/>
<path style=" stroke:none;fill-rule:nonzero;fill:rgb(100%,100%,100%);fill-opacity:1;" d="M 65.640625 78 C 63.460938 78.335938 61.640625 79.832031 60.898438 81.90625 C 60.152344 83.984375 60.605469 86.296875 62.078125 87.9375 L 67.515625 93.9375 C 68.855469 95.757812 71.113281 96.671875 73.34375 96.296875 C 75.578125 95.917969 77.40625 94.316406 78.078125 92.152344 C 78.746094 89.992188 78.144531 87.636719 76.515625 86.0625 L 71.078125 80.0625 C 69.742188 78.460938 67.679688 77.667969 65.617188 77.960938 Z M 65.640625 78 "/>
</g>
</svg>
