<?xml version="1.0" encoding="UTF-8"?>
<svg xmlns="http://www.w3.org/2000/svg" xmlns:xlink="http://www.w3.org/1999/xlink" width="96" height="96" viewBox="0 0 96 96" version="1.1">
<g id="surface1">
<path style=" stroke:none;fill-rule:nonzero;fill:rgb(100%,100%,100%);fill-opacity:1;" d="M 46.5 6 C 36.113281 6.519531 26 11.523438 19.3125 20.4375 C 17.082031 23.40625 15.425781 26.664062 14.25 30 L 27.5625 30 C 28.039062 29.179688 28.480469 28.34375 29.0625 27.5625 C 37.058594 16.902344 51.964844 14.878906 62.625 22.875 C 73.285156 30.871094 75.3125 45.777344 67.3125 56.4375 C 65.382812 59.015625 62.914062 61.054688 60.1875 62.625 L 60.1875 54 L 54.023438 54 L 54.1875 84 L 78.1875 84 C 78.5625 84.035156 78.941406 84.035156 79.3125 84 L 84.1875 84 L 84.1875 79.125 C 84.332031 78.574219 84.390625 78.003906 84.375 77.4375 C 84.328125 77.183594 84.265625 76.933594 84.1875 76.6875 C 83.585938 74.003906 80.9375 71.933594 78.1875 72 L 68.0625 72 C 71.53125 69.707031 74.558594 66.90625 77.0625 63.5625 C 82.261719 56.628906 84.578125 48.371094 84.1875 40.3125 C 84.132812 39.160156 83.976562 38.078125 83.8125 36.9375 C 82.507812 27.804688 77.675781 19.070312 69.75 13.125 C 62.816406 7.925781 54.578125 5.59375 46.5 6 Z M 46.5 6 "/>
<path style=" stroke:none;fill-rule:nonzero;fill:rgb(100%,100%,100%);fill-opacity:1;" d="M 24.179688 41.640625 C 17.648438 41.640625 12.179688 46.914062 12.179688 53.453125 L 12.179688 63.015625 L 18.179688 63.015625 L 18.179688 53.453125 C 18.179688 50.144531 20.902344 47.640625 24.179688 47.640625 C 27.457031 47.640625 29.992188 50.144531 29.992188 53.453125 L 29.992188 62.828125 L 35.992188 62.828125 L 35.992188 53.453125 C 35.992188 46.914062 30.710938 41.640625 24.179688 41.640625 Z M 24.179688 41.640625 "/>
<path style=" stroke:none;fill-rule:nonzero;fill:rgb(100%,100%,100%);fill-opacity:1;" d="M 6.417969 60 L 42.21875 60 L 42.21875 84.375 L 6.417969 84.375 Z M 6.417969 60 "/>
</g>
</svg>
