<?xml version="1.0" encoding="UTF-8"?>
<svg xmlns="http://www.w3.org/2000/svg" xmlns:xlink="http://www.w3.org/1999/xlink" width="96" height="96" viewBox="0 0 96 96" version="1.1">
<g id="surface1">
<path style=" stroke:none;fill-rule:nonzero;fill:rgb(100%,100%,100%);fill-opacity:1;" d="M 40.664062 10.710938 C 20.429688 10.710938 4 27.140625 4 47.375 C 4 67.617188 20.429688 84.046875 40.664062 84.046875 C 50.273438 84.046875 59.03125 80.320312 65.570312 74.265625 L 92 74.265625 L 75.65625 57.921875 C 76.671875 54.5625 77.328125 51.070312 77.328125 47.375 C 77.328125 27.140625 60.90625 10.710938 40.664062 10.710938 Z M 29.976562 30.265625 L 40.664062 41.265625 L 51.671875 30.421875 L 57.773438 36.679688 L 46.78125 47.375 L 57.625 58.375 L 51.359375 64.484375 L 40.664062 53.492188 L 29.664062 64.335938 L 23.554688 58.070312 L 34.554688 47.375 L 23.710938 36.375 Z M 29.976562 30.265625 "/>
</g>
</svg>
