<svg xmlns="http://www.w3.org/2000/svg" width="16" height="16" version="1.1">
 <defs>
   <style id="current-color-scheme" type="text/css">
   .ColorScheme-Text { color: #e9ecf2; } .ColorScheme-Highlight { color: #1AD6AB; }
  </style>
  <linearGradient id="arrongin" x1="0%" x2="0%" y1="0%" y2="100%">
   <stop offset="0%"    stop-color= "#dd9b44" stop-opacity="1"/>
   <stop offset="100%"  stop-color= "#ad6c16" stop-opacity="1"/>
  </linearGradient>
  <linearGradient id="aurora" x1="0%" x2="0%" y1="0%" y2="100%">
   <stop offset="0%"    stop-color= "#09D4DF" stop-opacity="1"/>
   <stop offset="100%"  stop-color= "#9269F4" stop-opacity="1"/>
  </linearGradient> 
  <linearGradient id="cyberblue" x1="0%" x2="0%" y1="0%" y2="100%">
   <stop offset="0%"    stop-color= "#07B3FF" stop-opacity="1"/>
   <stop offset="100%"  stop-color= "#007DE8" stop-opacity="1"/>
  </linearGradient>
  <linearGradient id="cyberneon" x1="0%" x2="0%" y1="0%" y2="100%">
    <stop offset="0%"   stop-color= "#0abdc6" stop-opacity="1"/>
    <stop offset="100%" stop-color= "#ea00d9" stop-opacity="1"/>
  </linearGradient>
  <linearGradient id="fitdance" x1="0%" x2="0%" y1="0%" y2="100%">
   <stop offset="0%"    stop-color= "#1AD6AB" stop-opacity="1"/>
   <stop offset="100%"  stop-color= "#329DB6" stop-opacity="1"/>
  </linearGradient>
  <linearGradient id="oomox" x1="0%" x2="0%" y1="0%" y2="100%">
   <stop offset="0%"    stop-color= "#89f224" stop-opacity="1"/>
   <stop offset="100%"  stop-color= "#579916" stop-opacity="1"/>
  </linearGradient>
  <linearGradient id="rainblue" x1="0%" x2="0%" y1="0%" y2="100%">
   <stop offset="0%"    stop-color= "#00F260" stop-opacity="1"/>
   <stop offset="100%"  stop-color= "#0575E6" stop-opacity="1"/>
  </linearGradient>
  <linearGradient id="redcarbon" x1="0%" x2="0%" y1="0%" y2="100%">
   <stop offset="0%"    stop-color= "#FF6D57" stop-opacity="1"/>
   <stop offset="50%"   stop-color= "#FF5160" stop-opacity="1"/>
   <stop offset="100%"  stop-color= "#F50F22" stop-opacity="1"/>
  </linearGradient>
  <linearGradient id="sunrise" x1="0%" x2="0%" y1="0%" y2="100%">
   <stop offset="0%"    stop-color= "#FF8501" stop-opacity="1"/>
   <stop offset="100%"  stop-color= "#FFCB01" stop-opacity="1"/>
  </linearGradient>
  <linearGradient id="telinkrin" x1="0%" x2="0%" y1="0%" y2="100%">
   <stop offset="0%"    stop-color= "#b2ced6" stop-opacity="1"/>
   <stop offset="100%"  stop-color= "#6da5b7" stop-opacity="1"/>
  </linearGradient>
  <linearGradient id="60spsycho" x1="0%" x2="0%" y1="0%" y2="100%">
   <stop offset="0%"    stop-color= "#df5940" stop-opacity="1"/>
   <stop offset="25%"   stop-color= "#d8d15f" stop-opacity="1"/>
   <stop offset="50%"   stop-color= "#e9882a" stop-opacity="1"/>
   <stop offset="100%"  stop-color= "#279362" stop-opacity="1"/>
  </linearGradient>
  <linearGradient id="90ssummer" x1="0%" x2="0%" y1="0%" y2="100%">
   <stop offset="0%"    stop-color= "#f618c7" stop-opacity="1"/>
   <stop offset="20%"   stop-color= "#94ffab" stop-opacity="1"/>
   <stop offset="50%"   stop-color= "#fbfd54" stop-opacity="1"/>
   <stop offset="100%"  stop-color= "#0f83ae" stop-opacity="1"/>
  </linearGradient>
 </defs>
 <path fill="url(#oomox)" class="ColorScheme-Text" d="M 4.0292969 0 L 3.3261719 1.8085938 C 2.1832719 1.4646938 1.0671 1.0049281 0 0.42382812 L 0 1.8125 C 0.9327 2.2775 1.8919 2.6701031 2.875 2.9707031 L 1.3808594 6.8164062 C 0.91155937 6.6024062 0.4531 6.3575094 0 6.0996094 L 0 7.5078125 C 0.30873 7.6668925 0.61679062 7.8288331 0.93164062 7.9707031 L 0 10.369141 L 0 13.787109 L 0.0546875 13.646484 C 2.3614875 14.771884 4.8504281 15.391072 7.3613281 15.513672 L 7.3632812 16 L 8.5996094 16 L 8.5996094 15.535156 C 11.129609 15.494156 13.651 14.947625 16 13.890625 L 16 10.1875 L 15.310547 8.40625 C 15.544547 8.31725 15.768 8.2015156 16 8.1035156 L 16 6.7578125 C 15.623 6.9308125 15.246375 7.104 14.859375 7.25 L 13.263672 3.1425781 C 14.193672 2.8929781 15.109 2.5703344 16 2.1777344 L 16 0.8046875 C 14.97 1.2998875 13.905453 1.6984219 12.814453 1.9824219 L 12.042969 0 L 10.705078 0 L 11.583984 2.2558594 C 10.589984 2.4395594 9.5841719 2.535975 8.5761719 2.546875 L 8.5703125 0 L 7.3222656 0 L 7.3300781 2.5175781 C 6.3932781 2.4611781 5.4588625 2.3351062 4.5390625 2.1289062 L 5.3671875 0 L 4.0292969 0 z M 4.0839844 3.2949219 C 5.1534844 3.5452019 6.2404312 3.6951894 7.3320312 3.7558594 L 7.34375 8.3417969 C 5.70745 8.2197969 4.0855969 7.8710156 2.5292969 7.2910156 L 4.0839844 3.2949219 z M 12.041016 3.4296875 L 13.683594 7.6484375 C 12.022894 8.1453275 10.305237 8.397075 8.5859375 8.390625 L 8.578125 3.7851562 C 9.739125 3.7730512 10.898016 3.6556675 12.041016 3.4296875 z M 2.0800781 8.4453125 C 3.7821781 9.0794825 5.5570563 9.4567781 7.3476562 9.5800781 L 7.359375 14.275391 C 5.001975 14.151391 2.6705656 13.550516 0.50976562 12.478516 L 2.0800781 8.4453125 z M 14.134766 8.8046875 L 15.646484 12.683594 C 13.413184 13.718094 11.009503 14.256728 8.5957031 14.298828 L 8.5878906 9.6269531 C 10.459291 9.6325531 12.329466 9.3547175 14.134766 8.8046875 z"/>
</svg>
